Year,Country,Item,Demand
2010,New Zealand,roundwood,13747205
2010,Australia,roundwood,24114981
2010,New Caledonia,roundwood,15289
2010,China,roundwood,197175942
2010,Tuvalu,roundwood,64
2010,Palau,roundwood,632
2010,Marshall Islands,roundwood,0
2010,Kiribati,roundwood,6
2010,Micronesia (Federated States of),roundwood,493
2010,Tonga,roundwood,16586
2010,Samoa,roundwood,6317
2010,Vanuatu,roundwood,37898
2010,Brunei Darussalam,roundwood,107187
2010,Solomon Islands,roundwood,30000
2010,Macau,roundwood,0
2010,Fiji,roundwood,796286
2010,Lao People's Democratic Republic,roundwood,825266
2010,Papua New Guinea,roundwood,1691789
2010,French Polynesia,roundwood,3466
2010,Democratic People's Republic of Korea,roundwood,1490232
2010,Indonesia,roundwood,54131388
2010,Japan,roundwood,21884141
2010,Mongolia,roundwood,48833
2010,Myanmar,roundwood,2306527
2010,Singapore,roundwood,16274
2010,Malaysia,roundwood,14846894
2010,Philippines,roundwood,3599731
2010,Republic of Korea,roundwood,7682740
2010,Thailand,roundwood,14859173
2010,Cambodia,roundwood,282362
2010,Viet Nam,roundwood,24982678
2010,Albania,roundwood,81393
2010,Armenia,roundwood,987
2010,Slovakia,roundwood,7237478
2010,Serbia,roundwood,1485310
2010,Bulgaria,roundwood,2563824
2010,Hungary,roundwood,2134211
2010,Czechia,roundwood,14007000
2010,Romania,roundwood,10790478
2010,Montenegro,roundwood,194341
2010,Kosovo,roundwood,0
2010,Slovenia,roundwood,1469301
2010,The former Yugoslav Republic of Macedonia,roundwood,134814
2010,Republic of Moldova,roundwood,79452
2010,Bosnia and Herzegovina,roundwood,2355090
2010,Croatia,roundwood,2849000
2010,Luxembourg,roundwood,1111821
2010,Ireland,roundwood,2204027
2010,Belgium,roundwood,7451697
2010,Netherlands,roundwood,519793
2010,France,roundwood,24659540
2010,Switzerland,roundwood,2931741
2010,Austria,roundwood,20367313
2010,Germany,roundwood,51066044
2010,Italy,roundwood,5798688
2010,Georgia,roundwood,120800
2010,Turkmenistan,roundwood,0
2010,Kyrgyzstan,roundwood,12600
2010,Tajikistan,roundwood,0
2010,Azerbaijan,roundwood,13990
2010,Belarus,roundwood,5890206
2010,Kazakhstan,roundwood,158136
2010,Uzbekistan,roundwood,278257
2010,Poland,roundwood,32047012
2010,Estonia,roundwood,2891583
2010,Latvia,roundwood,6500644
2010,Lithuania,roundwood,4105388
2010,Russian Federation,roundwood,140613360
2010,Greenland,roundwood,72
2010,Iceland,roundwood,160
2010,Norway,roundwood,8745709
2010,Finland,roundwood,51192349
2010,Denmark,roundwood,1847218
2010,Sweden,roundwood,71359465
2010,Portugal,roundwood,8902821
2010,Spain,roundwood,11476645
2010,Cyprus,roundwood,5687
2010,Greece,roundwood,468174
2010,Turkey,roundwood,16861600
2010,Ukraine,roundwood,4622300
2010,United Kingdom,roundwood,8215840
2010,Argentina,roundwood,10589282
2010,Bolivia (Plurinational State of),roundwood,937091
2010,Chile,roundwood,34525165
2010,Brazil,roundwood,128399924
2010,Saint Kitts and Nevis,roundwood,351
2010,Dominica,roundwood,954
2010,Antigua and Barbuda,roundwood,377
2010,Aruba,roundwood,2667
2010,Grenada,roundwood,0
2010,Saint Vincent and the Grenadines,roundwood,5556
2010,Saint Lucia,roundwood,925
2010,Barbados,roundwood,7158
2010,Bahamas,roundwood,24096
2010,Trinidad and Tobago,roundwood,65170
2010,Jamaica,roundwood,166939
2010,Puerto Rico,roundwood,0
2010,Dominican Republic,roundwood,22287
2010,Haiti,roundwood,263186
2010,Cuba,roundwood,605642
2010,Bermuda,roundwood,0
2010,Belize,roundwood,46542
2010,Panama,roundwood,132349
2010,Costa Rica,roundwood,1212485
2010,Nicaragua,roundwood,104707
2010,El Salvador,roundwood,658854
2010,Honduras,roundwood,618142
2010,Guatemala,roundwood,682453
2010,Colombia,roundwood,3532425
2010,Mexico,roundwood,5054930
2010,Uruguay,roundwood,8936000
2010,Paraguay,roundwood,4027946
2010,Ecuador,roundwood,1980558
2010,Peru,roundwood,1352355
2010,Suriname,roundwood,197830
2010,Guyana,roundwood,400426
2010,Venezuela (Bolivarian Republic of),roundwood,1850401
2010,Algeria,roundwood,154686
2010,Egypt,roundwood,399388
2010,Iran (Islamic Republic of),roundwood,713945
2010,Iraq,roundwood,60353
2010,Bahrain,roundwood,4201
2010,Qatar,roundwood,5553
2010,Oman,roundwood,12810
2010,Kuwait,roundwood,685
2010,Lebanon,roundwood,25986
2010,Jordan,roundwood,5389
2010,Israel,roundwood,29653
2010,United Arab Emirates,roundwood,172889
2010,Yemen,roundwood,1271
2010,Saudi Arabia,roundwood,32227
2010,Morocco,roundwood,610270
2010,Malta,roundwood,296
2010,Djibouti,roundwood,1416
2010,Libya,roundwood,132306
2010,Tunisia,roundwood,232586
2010,Canada,roundwood,139528000
2010,United States of America,roundwood,325368790
2010,Afghanistan,roundwood,1759661
2010,Bangladesh,roundwood,436733
2010,Maldives,roundwood,44
2010,Sri Lanka,roundwood,698594
2010,India,roundwood,54055057
2010,Bhutan,roundwood,189346
2010,Nepal,roundwood,1299992
2010,Pakistan,roundwood,4201869
2010,Sao Tome and Principe,roundwood,27120
2010,Comoros,roundwood,24650
2010,Equatorial Guinea,roundwood,83038
2010,Congo,roundwood,1429442
2010,Central African Republic,roundwood,484390
2010,Burundi,roundwood,880507
2010,Rwanda,roundwood,1213085
2010,Chad,roundwood,761508
2010,Cameroon,roundwood,1646546
2010,Democratic Republic of the Congo,roundwood,4369117
2010,Eritrea,roundwood,5758
2010,South Sudan,roundwood,540882
2010,Ethiopia,roundwood,2936000
2010,Kenya,roundwood,1147092
2010,Nigeria,roundwood,9308104
2010,South Africa,roundwood,16818652
2010,Swaziland,roundwood,935117
2010,Mauritius,roundwood,32051
2010,Lesotho,roundwood,2995
2010,Botswana,roundwood,113360
2010,Namibia,roundwood,8505
2010,Zambia,roundwood,1451780
2010,Zimbabwe,roundwood,518434
2010,Malawi,roundwood,1474352
2010,Madagascar,roundwood,284002
2010,Angola,roundwood,1124316
2010,Mozambique,roundwood,1180044
2010,Sudan,roundwood,1622648
2010,Uganda,roundwood,4093645
2010,United Republic of Tanzania,roundwood,2305005
2010,Cabo Verde,roundwood,1804
2010,Gabon,roundwood,895000
2010,Guinea-Bissau,roundwood,116947
2010,Gambia,roundwood,113350
2010,Mauritania,roundwood,50058
2010,Liberia,roundwood,472271
2010,Sierra Leone,roundwood,108715
2010,Togo,roundwood,48579
2010,Benin,roundwood,380600
2010,Guinea,roundwood,501817
2010,Senegal,roundwood,791761
2010,Mali,roundwood,412549
2010,Burkina Faso,roundwood,1170463
2010,Niger,roundwood,701543
2010,Cote d'Ivoire,roundwood,2210854
2010,Ghana,roundwood,1808723
2010,Somalia,roundwood,111187
2010,New Zealand,fuelwood,14
2010,Australia,fuelwood,4852740
2010,New Caledonia,fuelwood,11819
2010,China,fuelwood,188825892
2010,Tuvalu,fuelwood,0
2010,Palau,fuelwood,0
2010,Marshall Islands,fuelwood,0
2010,Kiribati,fuelwood,3058
2010,Micronesia (Federated States of),fuelwood,2659
2010,Tonga,fuelwood,2137
2010,Samoa,fuelwood,70014
2010,Vanuatu,fuelwood,90404
2010,Brunei Darussalam,fuelwood,11747
2010,Solomon Islands,fuelwood,128451
2010,Macau,fuelwood,0
2010,Fiji,fuelwood,36989
2010,Lao People's Democratic Republic,fuelwood,5947762
2010,Papua New Guinea,fuelwood,5533000
2010,French Polynesia,fuelwood,4513
2010,Democratic People's Republic of Korea,fuelwood,5986742
2010,Indonesia,fuelwood,59796369
2010,Japan,fuelwood,87567
2010,Mongolia,fuelwood,763403
2010,Myanmar,fuelwood,38285981
2010,Singapore,fuelwood,32613
2010,Malaysia,fuelwood,2805619
2010,Philippines,fuelwood,12361935
2010,Republic of Korea,fuelwood,518047
2010,Thailand,fuelwood,19307543
2010,Cambodia,fuelwood,8442343
2010,Viet Nam,fuelwood,21467259
2010,Albania,fuelwood,293700
2010,Armenia,fuelwood,1750000
2010,Slovakia,fuelwood,448124
2010,Serbia,fuelwood,6213400
2010,Bulgaria,fuelwood,2464625
2010,Hungary,fuelwood,2996397
2010,Czechia,fuelwood,1939000
2010,Romania,fuelwood,2502956
2010,Montenegro,fuelwood,704087
2010,Kosovo,fuelwood,0
2010,Slovenia,fuelwood,938993
2010,The former Yugoslav Republic of Macedonia,fuelwood,572935
2010,Republic of Moldova,fuelwood,311164
2010,Bosnia and Herzegovina,fuelwood,929830
2010,Croatia,fuelwood,816000
2010,Luxembourg,fuelwood,78659
2010,Ireland,fuelwood,185287
2010,Belgium,fuelwood,758013
2010,Netherlands,fuelwood,288000
2010,France,fuelwood,25403035
2010,Switzerland,fuelwood,1485022
2010,Austria,fuelwood,5084769
2010,Germany,fuelwood,27578693
2010,Italy,fuelwood,12380000
2010,Georgia,fuelwood,733000
2010,Turkmenistan,fuelwood,10000
2010,Kyrgyzstan,fuelwood,36449
2010,Tajikistan,fuelwood,90000
2010,Azerbaijan,fuelwood,3200
2010,Belarus,fuelwood,2287481
2010,Kazakhstan,fuelwood,272070
2010,Uzbekistan,fuelwood,22000
2010,Poland,fuelwood,4010696
2010,Estonia,fuelwood,2028855
2010,Latvia,fuelwood,984536
2010,Lithuania,fuelwood,1881659
2010,Russian Federation,fuelwood,13710707
2010,Greenland,fuelwood,9
2010,Iceland,fuelwood,34
2010,Norway,fuelwood,2292316
2010,Finland,fuelwood,6838296
2010,Denmark,fuelwood,1498661
2010,Sweden,fuelwood,6375717
2010,Portugal,fuelwood,598838
2010,Spain,fuelwood,5062690
2010,Cyprus,fuelwood,3865
2010,Greece,fuelwood,1007658
2010,Turkey,fuelwood,5143988
2010,Ukraine,fuelwood,7871741
2010,United Kingdom,fuelwood,1225345
2010,Argentina,fuelwood,4374361
2010,Bolivia (Plurinational State of),fuelwood,2349841
2010,Chile,fuelwood,12655000
2010,Brazil,fuelwood,107032114
2010,Saint Kitts and Nevis,fuelwood,0
2010,Dominica,fuelwood,7493
2010,Antigua and Barbuda,fuelwood,0
2010,Aruba,fuelwood,1749
2010,Grenada,fuelwood,0
2010,Saint Vincent and the Grenadines,fuelwood,7444
2010,Saint Lucia,fuelwood,9850
2010,Barbados,fuelwood,4982
2010,Bahamas,fuelwood,32907
2010,Trinidad and Tobago,fuelwood,32875
2010,Jamaica,fuelwood,545053
2010,Puerto Rico,fuelwood,0
2010,Dominican Republic,fuelwood,912647
2010,Haiti,fuelwood,2041142
2010,Cuba,fuelwood,1141000
2010,Bermuda,fuelwood,0
2010,Belize,fuelwood,126079
2010,Panama,fuelwood,1128086
2010,Costa Rica,fuelwood,3377015
2010,Nicaragua,fuelwood,6095779
2010,El Salvador,fuelwood,4225393
2010,Honduras,fuelwood,8574891
2010,Guatemala,fuelwood,18058663
2010,Colombia,fuelwood,8826028
2010,Mexico,fuelwood,38820610
2010,Uruguay,fuelwood,2430000
2010,Paraguay,fuelwood,6575817
2010,Ecuador,fuelwood,4940180
2010,Peru,fuelwood,7338000
2010,Suriname,fuelwood,96704
2010,Guyana,fuelwood,848053
2010,Venezuela (Bolivarian Republic of),fuelwood,4054562
2010,Algeria,fuelwood,8176482
2010,Egypt,fuelwood,17511977
2010,Iran (Islamic Republic of),fuelwood,53972
2010,Iraq,fuelwood,118000
2010,Bahrain,fuelwood,6844
2010,Qatar,fuelwood,5348
2010,Oman,fuelwood,38943
2010,Kuwait,fuelwood,18504
2010,Lebanon,fuelwood,20460
2010,Jordan,fuelwood,302609
2010,Israel,fuelwood,2130
2010,United Arab Emirates,fuelwood,22624
2010,Yemen,fuelwood,440876
2010,Saudi Arabia,fuelwood,249039
2010,Morocco,fuelwood,6785858
2010,Malta,fuelwood,25
2010,Djibouti,fuelwood,355976
2010,Libya,fuelwood,951892
2010,Tunisia,fuelwood,2184631
2010,Canada,fuelwood,3255879
2010,United States of America,fuelwood,40262948
2010,Afghanistan,fuelwood,1641303
2010,Bangladesh,fuelwood,27286998
2010,Maldives,fuelwood,15577
2010,Sri Lanka,fuelwood,5211428
2010,India,fuelwood,309313649
2010,Bhutan,fuelwood,4845000
2010,Nepal,fuelwood,12525698
2010,Pakistan,fuelwood,29659986
2010,Sao Tome and Principe,fuelwood,107428
2010,Comoros,fuelwood,265913
2010,Equatorial Guinea,fuelwood,447000
2010,Congo,fuelwood,1335790
2010,Central African Republic,fuelwood,2000000
2010,Burundi,fuelwood,9259281
2010,Rwanda,fuelwood,4999980
2010,Chad,fuelwood,7070034
2010,Cameroon,fuelwood,9905899
2010,Democratic Republic of the Congo,fuelwood,76602014
2010,Eritrea,fuelwood,920987
2010,South Sudan,fuelwood,18776039
2010,Ethiopia,fuelwood,101274510
2010,Kenya,fuelwood,26402590
2010,Nigeria,fuelwood,63215134
2010,South Africa,fuelwood,12268000
2010,Swaziland,fuelwood,1062471
2010,Mauritius,fuelwood,8997
2010,Lesotho,fuelwood,2092623
2010,Botswana,fuelwood,683425
2010,Namibia,fuelwood,1307674
2010,Zambia,fuelwood,21822922
2010,Zimbabwe,fuelwood,8708935
2010,Malawi,fuelwood,5404338
2010,Madagascar,fuelwood,13100000
2010,Angola,fuelwood,4009343
2010,Mozambique,fuelwood,16724246
2010,Sudan,fuelwood,18776039
2010,Uganda,fuelwood,39636345
2010,United Republic of Tanzania,fuelwood,22833027
2010,Cabo Verde,fuelwood,186055
2010,Gabon,fuelwood,1069998
2010,Guinea-Bissau,fuelwood,2599954
2010,Gambia,fuelwood,694278
2010,Mauritania,fuelwood,1836252
2010,Liberia,fuelwood,7008341
2010,Sierra Leone,fuelwood,5581587
2010,Togo,fuelwood,4423968
2010,Benin,fuelwood,6274504
2010,Guinea,fuelwood,11958951
2010,Senegal,fuelwood,5427207
2010,Mali,fuelwood,5325843
2010,Burkina Faso,fuelwood,12784965
2010,Niger,fuelwood,9875857
2010,Cote d'Ivoire,fuelwood,8945530
2010,Ghana,fuelwood,37782939
2010,Somalia,fuelwood,13500863
1970,New Zealand,roundwood,10802773.81
1970,Australia,roundwood,18949938.2
1970,New Caledonia,roundwood,12014.34101
1970,China,roundwood,154944012.4
1970,Tuvalu,roundwood,50.29222476
1970,Palau,roundwood,496.6357195
1970,Marshall Islands,roundwood,0
1970,Kiribati,roundwood,4.714896071
1970,Micronesia (Federated States of),roundwood,387.4072938
1970,Tonga,roundwood,13033.54437
1970,Samoa,roundwood,4963.999747
1970,Vanuatu,roundwood,29780.85522
1970,Brunei Darussalam,roundwood,84229.26086
1970,Solomon Islands,roundwood,23574.48036
1970,Macau,roundwood,0
1970,Fiji,roundwood,625734.2888
1970,Lao People's Democratic Republic,roundwood,648507.2368
1970,Papua New Guinea,roundwood,1329434.885
1970,French Polynesia,roundwood,2723.638297
1970,Democratic People's Republic of Korea,roundwood,1171048.167
1970,Indonesia,roundwood,42537311.43
1970,Japan,roundwood,17196908.4
1970,Mongolia,roundwood,38373.75331
1970,Myanmar,roundwood,1812505.848
1970,Singapore,roundwood,12788.36978
1970,Malaysia,roundwood,11666927.03
1970,Philippines,roundwood,2828726.258
1970,Republic of Korea,roundwood,6037220.107
1970,Thailand,roundwood,11676576.07
1970,Cambodia,roundwood,221884.5807
1970,Viet Nam,roundwood,19631788.39
1970,Albania,roundwood,63959.92265
1970,Armenia,roundwood,775.6004037
1970,Slovakia,roundwood,5687326.098
1970,Serbia,roundwood,1167180.381
1970,Bulgaria,roundwood,2014693.951
1970,Hungary,roundwood,1677097.176
1970,Czechia,roundwood,11006924.88
1970,Romania,roundwood,8479330.388
1970,Montenegro,roundwood,152716.2696
1970,Kosovo,roundwood,0
1970,Slovenia,roundwood,1154600.252
1970,The former Yugoslav Republic of Macedonia,roundwood,105938.9998
1970,Republic of Moldova,roundwood,62434.65377
1970,Bosnia and Herzegovina,roundwood,1850667.431
1970,Croatia,roundwood,2238789.818
1970,Luxembourg,roundwood,873686.7441
1970,Ireland,roundwood,1731959.707
1970,Belgium,roundwood,5855662.818
1970,Netherlands,roundwood,408461.6622
1970,France,roundwood,19377861.38
1970,Switzerland,roundwood,2303809.02
1970,Austria,roundwood,16004960.67
1970,Germany,roundwood,40128515.04
1970,Italy,roundwood,4556701.878
1970,Georgia,roundwood,94926.57423
1970,Turkmenistan,roundwood,0
1970,Kyrgyzstan,roundwood,9901.281749
1970,Tajikistan,roundwood,0
1970,Azerbaijan,roundwood,10993.56601
1970,Belarus,roundwood,4628618.188
1970,Kazakhstan,roundwood,124265.8008
1970,Uzbekistan,roundwood,218658.806
1970,Poland,roundwood,25183055.16
1970,Estonia,roundwood,2272252.221
1970,Latvia,roundwood,5108310.142
1970,Lithuania,roundwood,3226079.625
1970,Russian Federation,roundwood,110496229.8
1970,Greenland,roundwood,56.57875285
1970,Iceland,roundwood,125.7305619
1970,Norway,roundwood,6872518.167
1970,Finland,roundwood,40227767.53
1970,Denmark,roundwood,1451573.482
1970,Sweden,roundwood,56075410.19
1970,Portugal,roundwood,6995979.292
1970,Spain,roundwood,9018531.403
1970,Cyprus,roundwood,4468.935659
1970,Greece,roundwood,367898.6255
1970,Turkey,roundwood,13250115.27
1970,Ukraine,roundwood,3632277.352
1970,United Kingdom,roundwood,6456138.623
1970,Argentina,roundwood,8321227.349
1970,Bolivia (Plurinational State of),roundwood,736381.1124
1970,Chile,roundwood,27130427.47
1970,Brazil,roundwood,100898716.2
1970,Saint Kitts and Nevis,roundwood,275.8214202
1970,Dominica,roundwood,749.6684753
1970,Antigua and Barbuda,roundwood,296.2526365
1970,Aruba,roundwood,2095.771304
1970,Grenada,roundwood,0
1970,Saint Vincent and the Grenadines,roundwood,4365.993762
1970,Saint Lucia,roundwood,726.879811
1970,Barbados,roundwood,5624.871013
1970,Bahamas,roundwood,18935.02262
1970,Trinidad and Tobago,roundwood,51211.62949
1970,Jamaica,roundwood,131183.3392
1970,Puerto Rico,roundwood,0
1970,Dominican Republic,roundwood,17513.48146
1970,Haiti,roundwood,206815.7729
1970,Cuba,roundwood,475923.181
1970,Bermuda,roundwood,0
1970,Belize,roundwood,36573.44882
1970,Panama,roundwood,104001.9634
1970,Costa Rica,roundwood,952790.1271
1970,Nicaragua,roundwood,82280.43715
1970,El Salvador,roundwood,517738.0227
1970,Honduras,roundwood,485745.8812
1970,Guatemala,roundwood,536282.4947
1970,Colombia,roundwood,2775836.126
1970,Mexico,roundwood,3972244.933
1970,Uruguay,roundwood,7022051.882
1970,Paraguay,roundwood,3165224.462
1970,Ecuador,roundwood,1556354.189
1970,Peru,roundwood,1062702.213
1970,Suriname,roundwood,155457.9816
1970,Guyana,roundwood,314661.1624
1970,Venezuela (Bolivarian Republic of),roundwood,1454074.734
1970,Algeria,roundwood,121554.7356
1970,Egypt,roundwood,313845.4853
1970,Iran (Islamic Republic of),roundwood,561029.4126
1970,Iraq,roundwood,47426.35376
1970,Bahrain,roundwood,3301.213066
1970,Qatar,roundwood,4363.636314
1970,Oman,roundwood,10066.30311
1970,Kuwait,roundwood,538.2839681
1970,Lebanon,roundwood,20420.21488
1970,Jordan,roundwood,4234.762488
1970,Israel,roundwood,23301.8022
1970,United Arab Emirates,roundwood,135858.9445
1970,Yemen,roundwood,998.772151
1970,Saudi Arabia,roundwood,25324.49261
1970,Morocco,roundwood,479559.9375
1970,Malta,roundwood,232.6015395
1970,Djibouti,roundwood,1112.715473
1970,Libya,roundwood,103968.1733
1970,Tunisia,roundwood,182769.8029
1970,Canada,roundwood,109643336.5
1970,United States of America,roundwood,255680004.9
1970,Afghanistan,roundwood,1382769.789
1970,Bangladesh,roundwood,343191.7843
1970,Maldives,roundwood,34.57590452
1970,Sri Lanka,roundwood,548966.351
1970,India,roundwood,42477329.31
1970,Bhutan,roundwood,148791.1186
1970,Nepal,roundwood,1021554.529
1970,Pakistan,roundwood,3301895.94
1970,Sao Tome and Principe,roundwood,21311.33024
1970,Comoros,roundwood,19370.36469
1970,Equatorial Guinea,roundwood,65252.58999
1970,Congo,roundwood,1123278.412
1970,Central African Republic,roundwood,380641.418
1970,Burundi,roundwood,691916.4991
1970,Rwanda,roundwood,953261.6167
1970,Chad,roundwood,598405.1795
1970,Cameroon,roundwood,1293882.211
1970,Democratic Republic of the Congo,roundwood,3433322.096
1970,Eritrea,roundwood,4524.728596
1970,South Sudan,roundwood,425033.7361
1970,Ethiopia,roundwood,2307155.811
1970,Kenya,roundwood,901403.2607
1970,Nigeria,roundwood,7314457.163
1970,South Africa,roundwood,13216366.04
1970,Swaziland,roundwood,734829.9115
1970,Mauritius,roundwood,25186.189
1970,Lesotho,roundwood,2353.518955
1970,Botswana,roundwood,89080.1031
1970,Namibia,roundwood,6683.365181
1970,Zambia,roundwood,1140831.97
1970,Zimbabwe,roundwood,407393.7383
1970,Malawi,roundwood,1158569.409
1970,Madagascar,roundwood,223173.319
1970,Angola,roundwood,883505.5152
1970,Mozambique,roundwood,927297.4699
1970,Sudan,roundwood,1275102.78
1970,Uganda,roundwood,3216851.788
1970,United Republic of Tanzania,roundwood,1811309.836
1970,Cabo Verde,roundwood,1417.612085
1970,Gabon,roundwood,703305.3306
1970,Guinea-Bissau,roundwood,91898.82514
1970,Gambia,roundwood,89072.24494
1970,Mauritania,roundwood,39336.37792
1970,Liberia,roundwood,371118.1137
1970,Sierra Leone,roundwood,85429.98773
1970,Togo,roundwood,38174.15604
1970,Benin,roundwood,299081.5741
1970,Guinea,roundwood,394335.8336
1970,Senegal,roundwood,622178.4714
1970,Mali,roundwood,324187.6099
1970,Burkina Faso,roundwood,919768.5667
1970,Niger,roundwood,551283.7224
1970,Cote d'Ivoire,roundwood,1737324.473
1970,Ghana,roundwood,1421323.494
1970,Somalia,roundwood,87372.52491
1970,New Zealand,fuelwood,11.00142417
1970,Australia,fuelwood,3813360.793
1970,New Caledonia,fuelwood,9287.559444
1970,China,fuelwood,148382409.4
1970,Tuvalu,fuelwood,0
1970,Palau,fuelwood,0
1970,Marshall Islands,fuelwood,0
1970,Kiribati,fuelwood,2403.025364
1970,Micronesia (Federated States of),fuelwood,2089.484775
1970,Tonga,fuelwood,1679.288817
1970,Samoa,fuelwood,55018.12225
1970,Vanuatu,fuelwood,71040.91073
1970,Brunei Darussalam,fuelwood,9230.980691
1970,Solomon Islands,fuelwood,100938.8525
1970,Macau,fuelwood,0
1970,Fiji,fuelwood,29066.54846
1970,Lao People's Democratic Republic,fuelwood,4673846.614
1970,Papua New Guinea,fuelwood,4347919.994
1970,French Polynesia,fuelwood,3546.387661
1970,Democratic People's Republic of Korea,fuelwood,4704477.722
1970,Indonesia,fuelwood,46988944.21
1970,Japan,fuelwood,68811.55071
1970,Mongolia,fuelwood,599894.3009
1970,Myanmar,fuelwood,30085736.9
1970,Singapore,fuelwood,25627.81759
1970,Malaysia,fuelwood,2204700.333
1970,Philippines,fuelwood,9714206.46
1970,Republic of Korea,fuelwood,407089.6275
1970,Thailand,fuelwood,15172176.44
1970,Cambodia,fuelwood,6634128.307
1970,Viet Nam,fuelwood,16869315.85
1970,Albania,fuelwood,230794.1627
1970,Armenia,fuelwood,1375178.021
1970,Slovakia,fuelwood,352143.0145
1970,Serbia,fuelwood,4882589.208
1970,Bulgaria,fuelwood,1936741.788
1970,Hungary,fuelwood,2354616.74
1970,Czechia,fuelwood,1523697.247
1970,Romania,fuelwood,1966862.902
1970,Montenegro,fuelwood,553282.8383
1970,Kosovo,fuelwood,0
1970,Slovenia,fuelwood,737875.7344
1970,The former Yugoslav Republic of Macedonia,fuelwood,450221.4967
1970,Republic of Moldova,fuelwood,244517.6535
1970,Bosnia and Herzegovina,fuelwood,730675.3023
1970,Croatia,fuelwood,641225.8657
1970,Luxembourg,fuelwood,61811.50168
1970,Ireland,fuelwood,145601.4914
1970,Belgium,fuelwood,595658.7526
1970,Netherlands,fuelwood,226315.0114
1970,France,fuelwood,19962111.65
1970,Switzerland,fuelwood,1166954.066
1970,Austria,fuelwood,3995692.897
1970,Germany,fuelwood,21671778.55
1970,Italy,fuelwood,9728402.227
1970,Georgia,fuelwood,576003.1367
1970,Turkmenistan,fuelwood,7858.160118
1970,Kyrgyzstan,fuelwood,28642.20782
1970,Tajikistan,fuelwood,70723.44107
1970,Azerbaijan,fuelwood,2514.611238
1970,Belarus,fuelwood,1797539.197
1970,Kazakhstan,fuelwood,213796.9623
1970,Uzbekistan,fuelwood,17287.95226
1970,Poland,fuelwood,3151669.135
1970,Estonia,fuelwood,1594306.745
1970,Latvia,fuelwood,773664.153
1970,Lithuania,fuelwood,1478637.771
1970,Russian Federation,fuelwood,10774093.09
1970,Greenland,fuelwood,7.072344107
1970,Iceland,fuelwood,26.7177444
1970,Norway,fuelwood,1801338.617
1970,Finland,fuelwood,5373642.491
1970,Denmark,fuelwood,1177671.81
1970,Sweden,fuelwood,5010140.506
1970,Portugal,fuelwood,470576.4889
1970,Spain,fuelwood,3978342.865
1970,Cyprus,fuelwood,3037.178886
1970,Greece,fuelwood,791833.7909
1970,Turkey,fuelwood,4042228.135
1970,Ukraine,fuelwood,6185740.119
1970,United Kingdom,fuelwood,962895.721
1970,Argentina,fuelwood,3437442.915
1970,Bolivia (Plurinational State of),fuelwood,1846542.683
1970,Chile,fuelwood,9944501.63
1970,Brazil,fuelwood,84107548.96
1970,Saint Kitts and Nevis,fuelwood,0
1970,Dominica,fuelwood,5888.119377
1970,Antigua and Barbuda,fuelwood,0
1970,Aruba,fuelwood,1374.392205
1970,Grenada,fuelwood,0
1970,Saint Vincent and the Grenadines,fuelwood,5849.614392
1970,Saint Lucia,fuelwood,7740.287717
1970,Barbados,fuelwood,3914.935371
1970,Bahamas,fuelwood,25858.8475
1970,Trinidad and Tobago,fuelwood,25833.70139
1970,Jamaica,fuelwood,428311.3747
1970,Puerto Rico,fuelwood,0
1970,Dominican Republic,fuelwood,717172.6258
1970,Haiti,fuelwood,1603962.066
1970,Cuba,fuelwood,896616.0695
1970,Bermuda,fuelwood,0
1970,Belize,fuelwood,99074.89696
1970,Panama,fuelwood,886468.0415
1970,Costa Rica,fuelwood,2653712.459
1970,Nicaragua,fuelwood,4790160.743
1970,El Salvador,fuelwood,3320381.476
1970,Honduras,fuelwood,6738286.648
1970,Guatemala,fuelwood,14190786.54
1970,Colombia,fuelwood,6935634.123
1970,Mexico,fuelwood,30505856.93
1970,Uruguay,fuelwood,1909532.909
1970,Paraguay,fuelwood,5167382.29
1970,Ecuador,fuelwood,3882072.545
1970,Peru,fuelwood,5766317.895
1970,Suriname,fuelwood,75991.55161
1970,Guyana,fuelwood,666413.6263
1970,Venezuela (Bolivarian Republic of),fuelwood,3186139.741
1970,Algeria,fuelwood,6425210.476
1970,Egypt,fuelwood,13761191.93
1970,Iran (Islamic Republic of),fuelwood,42412.06179
1970,Iraq,fuelwood,92726.2894
1970,Bahrain,fuelwood,5378.124785
1970,Qatar,fuelwood,4202.544031
1970,Oman,fuelwood,30602.03295
1970,Kuwait,fuelwood,14540.73948
1970,Lebanon,fuelwood,16077.7956
1970,Jordan,fuelwood,237794.9975
1970,Israel,fuelwood,1673.788105
1970,United Arab Emirates,fuelwood,17778.30145
1970,Yemen,fuelwood,346447.42
1970,Saudi Arabia,fuelwood,195698.8338
1970,Morocco,fuelwood,5332435.87
1970,Malta,fuelwood,19.6454003
1970,Djibouti,fuelwood,279731.6406
1970,Libya,fuelwood,748011.9751
1970,Tunisia,fuelwood,1716718.02
1970,Canada,fuelwood,2558521.851
1970,United States of America,fuelwood,31639269.22
1970,Afghanistan,fuelwood,1289762.178
1970,Bangladesh,fuelwood,21442559.94
1970,Maldives,fuelwood,12240.65602
1970,Sri Lanka,fuelwood,4095223.567
1970,India,fuelwood,243063618.1
1970,Bhutan,fuelwood,3807278.577
1970,Nepal,fuelwood,9842894.048
1970,Pakistan,fuelwood,23307291.91
1970,Sao Tome and Principe,fuelwood,84418.64252
1970,Comoros,fuelwood,208958.6932
1970,Equatorial Guinea,fuelwood,351259.7573
1970,Congo,fuelwood,1049685.17
1970,Central African Republic,fuelwood,1571632.024
1970,Burundi,fuelwood,7276091.268
1970,Rwanda,fuelwood,3929064.343
1970,Chad,fuelwood,5555745.921
1970,Cameroon,fuelwood,7784214.046
1970,Democratic Republic of the Congo,fuelwood,60195089.14
1970,Eritrea,fuelwood,723726.3313
1970,South Sudan,fuelwood,14754512.09
1970,Ethiopia,fuelwood,79583131.55
1970,Kenya,fuelwood,20747577.98
1970,Nigeria,fuelwood,49675464.49
1970,South Africa,fuelwood,9640390.833
1970,Swaziland,fuelwood,834906.7239
1970,Mauritius,fuelwood,7069.986659
1970,Lesotho,fuelwood,1644416.66
1970,Botswana,fuelwood,537046.3079
1970,Namibia,fuelwood,1027591.167
1970,Zambia,fuelwood,17148801.53
1970,Zimbabwe,fuelwood,6843620.569
1970,Malawi,fuelwood,4246815.334
1970,Madagascar,fuelwood,10294189.76
1970,Angola,fuelwood,3150605.926
1970,Mozambique,fuelwood,13142180.29
1970,Sudan,fuelwood,14754512.09
1970,Uganda,fuelwood,31146874.55
1970,United Republic of Tanzania,fuelwood,17942558.22
1970,Cabo Verde,fuelwood,146204.9981
1970,Gabon,fuelwood,840821.561
1970,Guinea-Bissau,fuelwood,2043085.483
1970,Gambia,fuelwood,545574.7691
1970,Mauritania,fuelwood,1442956.223
1970,Liberia,fuelwood,5507266.574
1970,Sierra Leone,fuelwood,4386100.436
1970,Togo,fuelwood,3476424.89
1970,Benin,fuelwood,4930605.71
1970,Guinea,fuelwood,9397535.181
1970,Senegal,fuelwood,4264786.16
1970,Mali,fuelwood,4185132.706
1970,Burkina Faso,fuelwood,10046630.21
1970,Niger,fuelwood,7760606.561
1970,Cote d'Ivoire,fuelwood,7029540.708
1970,Ghana,fuelwood,29690438.44
1970,Somalia,fuelwood,10609194.32
