country,crop,rate
Afghanistan,wheat,0.0299386150398663
Albania,wheat,0.0299386150398663
Algeria,wheat,0.0299386150398663
Angola,wheat,0.0299386150398663
Antigua and Barbuda,wheat,0.0299386150398663
Argentina,wheat,0.0299386150398663
Armenia,wheat,0.0299386150398663
Australia,wheat,0.0226361482678745
Austria,wheat,0.0603582114038878
Azerbaijan,wheat,0.0299386150398663
Bahamas,wheat,0.0299386150398663
Bangladesh,wheat,0.0299386150398663
Barbados,wheat,0.0299386150398663
Belarus,wheat,0.0299386150398663
Belgium,wheat,0.0603582114038878
Belize,wheat,0.0299386150398663
Benin,wheat,0.0299386150398663
Bermuda,wheat,0.0299386150398663
Bolivia (Plurinational State of),wheat,0.0299386150398663
Bosnia and Herzegovina,wheat,0.0299386150398663
Botswana,wheat,0.0299386150398663
Brazil,wheat,0.0346707358598232
Brunei Darussalam,wheat,0.0299386150398663
Bulgaria,wheat,0.0603582114038878
Burkina Faso,wheat,0.0299386150398663
Cabo Verde,wheat,0.0299386150398663
Cambodia,wheat,0.0299386150398663
Cameroon,wheat,0.0299386150398663
Canada,wheat,0.0762136518389579
Central African Republic,wheat,0.0299386150398663
Chad,wheat,0.0299386150398663
Chile,wheat,0.0299386150398663
China,wheat,0.156633798883686
Colombia,wheat,0.0686528452644761
Congo,wheat,0.0299386150398663
Costa Rica,wheat,0.0299386150398663
Cote d'Ivoire,wheat,0.0299386150398663
Croatia,wheat,0.0603582114038878
Cuba,wheat,0.0299386150398663
Cyprus,wheat,0.0603582114038878
Czechia,wheat,0.0603582114038878
Democratic People's Republic of Korea,wheat,0.0299386150398663
Democratic Republic of the Congo,wheat,0.0299386150398663
Denmark,wheat,0.0603582114038878
Djibouti,wheat,0.0299386150398663
Dominica,wheat,0.0299386150398663
Dominican Republic,wheat,0.0299386150398663
Ecuador,wheat,0.0299386150398663
Egypt,wheat,0.0299386150398663
El Salvador,wheat,0.0299386150398663
Estonia,wheat,0.0603582114038878
Ethiopia,wheat,0.0299386150398663
Fiji,wheat,0.0299386150398663
Finland,wheat,0.0603582114038878
France,wheat,0.0603582114038878
French Polynesia,wheat,0.0299386150398663
Gabon,wheat,0.0299386150398663
Gambia,wheat,0.0299386150398663
Georgia,wheat,0.0299386150398663
Germany,wheat,0.0603582114038878
Ghana,wheat,0.0299386150398663
Greece,wheat,0.0603582114038878
Grenada,wheat,0.0299386150398663
Guatemala,wheat,0.0299386150398663
Guinea,wheat,0.0299386150398663
Guinea-Bissau,wheat,0.0299386150398663
Guyana,wheat,0.0299386150398663
Haiti,wheat,0.0299386150398663
Honduras,wheat,0.0299386150398663
Hungary,wheat,0.0603582114038878
Iceland,wheat,0.0299386150398663
India,wheat,0.0268978443311666
Indonesia,wheat,0.00498052969384483
Iran (Islamic Republic of),wheat,0.0299386150398663
Iraq,wheat,0.0299386150398663
Ireland,wheat,0.0603582114038878
Israel,wheat,0.0299386150398663
Italy,wheat,0.0603582114038878
Jamaica,wheat,0.0299386150398663
Japan,wheat,0.0822050709280908
Jordan,wheat,0.0299386150398663
Kazakhstan,wheat,0.0299386150398663
Kenya,wheat,0.0299386150398663
Kiribati,wheat,0.0299386150398663
Kuwait,wheat,0.0299386150398663
Kyrgyzstan,wheat,0.0299386150398663
Lao People's Democratic Republic,wheat,0.0299386150398663
Latvia,wheat,0.0603582114038878
Lebanon,wheat,0.0299386150398663
Lesotho,wheat,0.0299386150398663
Liberia,wheat,0.0299386150398663
Libya,wheat,0.0299386150398663
Lithuania,wheat,0.0603582114038878
Luxembourg,wheat,0.0603582114038878
Madagascar,wheat,0.0299386150398663
Malawi,wheat,0.0299386150398663
Malaysia,wheat,0.0299386150398663
Maldives,wheat,0.0299386150398663
Mali,wheat,0.0299386150398663
Malta,wheat,0.0603582114038878
Mauritania,wheat,0.0299386150398663
Mauritius,wheat,0.0299386150398663
Mexico,wheat,0.0822050709280908
Mongolia,wheat,0.0299386150398663
Montenegro,wheat,0.0299386150398663
Morocco,wheat,0.0299386150398663
Mozambique,wheat,0.0299386150398663
Myanmar,wheat,0.0299386150398663
Namibia,wheat,0.0299386150398663
Nepal,wheat,0.0299386150398663
Netherlands,wheat,0.0603582114038878
New Caledonia,wheat,0.0299386150398663
New Zealand,wheat,0.0173195123664494
Nicaragua,wheat,0.0299386150398663
Niger,wheat,0.0299386150398663
Nigeria,wheat,0.0299386150398663
Norway,wheat,0.0822050709280908
Oman,wheat,0.0299386150398663
Pakistan,wheat,0.0299386150398663
Panama,wheat,0.0299386150398663
Paraguay,wheat,0.0299386150398663
Peru,wheat,0.0299386150398663
Philippines,wheat,0.0299386150398663
Poland,wheat,0.0603582114038878
Portugal,wheat,0.0603582114038878
Republic of Korea,wheat,0.0822050709280908
Republic of Moldova,wheat,0.0299386150398663
Romania,wheat,0.0603582114038878
Russian Federation,wheat,0.0883633555720103
Rwanda,wheat,0.0299386150398663
Saint Kitts and Nevis,wheat,0.0299386150398663
Saint Lucia,wheat,0.0299386150398663
Saint Vincent and the Grenadines,wheat,0.0299386150398663
Samoa,wheat,0.0299386150398663
Sao Tome and Principe,wheat,0.0299386150398663
Saudi Arabia,wheat,0.0299386150398663
Senegal,wheat,0.0299386150398663
Serbia,wheat,0.0299386150398663
Sierra Leone,wheat,0.0299386150398663
Slovakia,wheat,0.0603582114038878
Slovenia,wheat,0.0603582114038878
Solomon Islands,wheat,0.0299386150398663
Somalia,wheat,0.0299386150398663
South Africa,wheat,0.0161824701612779
South Sudan,wheat,0.0299386150398663
Spain,wheat,0.0603582114038878
Sri Lanka,wheat,0.0299386150398663
Sudan,wheat,0.0299386150398663
Suriname,wheat,0.0299386150398663
Swaziland,wheat,0.0299386150398663
Sweden,wheat,0.0603582114038878
Switzerland,wheat,0.0822050709280908
Tajikistan,wheat,0.0299386150398663
Thailand,wheat,0.0299386150398663
The former Yugoslav Republic of Macedonia,wheat,0.0299386150398663
Togo,wheat,0.0299386150398663
Trinidad and Tobago,wheat,0.0299386150398663
Tunisia,wheat,0.0299386150398663
Turkey,wheat,0.105663766639557
Turkmenistan,wheat,0.0299386150398663
Uganda,wheat,0.0299386150398663
Ukraine,wheat,0.0299386150398663
United Arab Emirates,wheat,0.0299386150398663
United Kingdom,wheat,0.0603582114038878
United Republic of Tanzania,wheat,0.0299386150398663
United States of America,wheat,0.116357971434502
Uruguay,wheat,0.0299386150398663
Uzbekistan,wheat,0.0299386150398663
Vanuatu,wheat,0.0299386150398663
Venezuela (Bolivarian Republic of),wheat,0.0299386150398663
Viet Nam,wheat,0.0299386150398663
Yemen,wheat,0.0299386150398663
Zambia,wheat,0.0299386150398663
Zimbabwe,wheat,0.0299386150398663
Afghanistan,maize,0.0299386150398663
Albania,maize,0.0299386150398663
Algeria,maize,0.0299386150398663
Angola,maize,0.0299386150398663
Antigua and Barbuda,maize,0.0299386150398663
Argentina,maize,0.0299386150398663
Armenia,maize,0.0299386150398663
Australia,maize,0.0226361482678745
Austria,maize,0.0603582114038878
Azerbaijan,maize,0.0299386150398663
Bahamas,maize,0.0299386150398663
Bangladesh,maize,0.0299386150398663
Barbados,maize,0.0299386150398663
Belarus,maize,0.0299386150398663
Belgium,maize,0.0603582114038878
Belize,maize,0.0299386150398663
Benin,maize,0.0299386150398663
Bermuda,maize,0.0299386150398663
Bolivia (Plurinational State of),maize,0.0299386150398663
Bosnia and Herzegovina,maize,0.0299386150398663
Botswana,maize,0.0299386150398663
Brazil,maize,0.0346707358598232
Brunei Darussalam,maize,0.0299386150398663
Bulgaria,maize,0.0603582114038878
Burkina Faso,maize,0.0299386150398663
Cabo Verde,maize,0.0299386150398663
Cambodia,maize,0.0299386150398663
Cameroon,maize,0.0299386150398663
Canada,maize,0.0762136518389579
Central African Republic,maize,0.0299386150398663
Chad,maize,0.0299386150398663
Chile,maize,0.0299386150398663
China,maize,0.156633798883686
Colombia,maize,0.0686528452644761
Congo,maize,0.0299386150398663
Costa Rica,maize,0.0299386150398663
Cote d'Ivoire,maize,0.0299386150398663
Croatia,maize,0.0603582114038878
Cuba,maize,0.0299386150398663
Cyprus,maize,0.0603582114038878
Czechia,maize,0.0603582114038878
Democratic People's Republic of Korea,maize,0.0299386150398663
Democratic Republic of the Congo,maize,0.0299386150398663
Denmark,maize,0.0603582114038878
Djibouti,maize,0.0299386150398663
Dominica,maize,0.0299386150398663
Dominican Republic,maize,0.0299386150398663
Ecuador,maize,0.0299386150398663
Egypt,maize,0.0299386150398663
El Salvador,maize,0.0299386150398663
Estonia,maize,0.0603582114038878
Ethiopia,maize,0.0299386150398663
Fiji,maize,0.0299386150398663
Finland,maize,0.0603582114038878
France,maize,0.0603582114038878
French Polynesia,maize,0.0299386150398663
Gabon,maize,0.0299386150398663
Gambia,maize,0.0299386150398663
Georgia,maize,0.0299386150398663
Germany,maize,0.0603582114038878
Ghana,maize,0.0299386150398663
Greece,maize,0.0603582114038878
Grenada,maize,0.0299386150398663
Guatemala,maize,0.0299386150398663
Guinea,maize,0.0299386150398663
Guinea-Bissau,maize,0.0299386150398663
Guyana,maize,0.0299386150398663
Haiti,maize,0.0299386150398663
Honduras,maize,0.0299386150398663
Hungary,maize,0.0603582114038878
Iceland,maize,0.0299386150398663
India,maize,0.0268978443311666
Indonesia,maize,0.00498052969384483
Iran (Islamic Republic of),maize,0.0299386150398663
Iraq,maize,0.0299386150398663
Ireland,maize,0.0603582114038878
Israel,maize,0.0299386150398663
Italy,maize,0.0603582114038878
Jamaica,maize,0.0299386150398663
Japan,maize,0.0822050709280908
Jordan,maize,0.0299386150398663
Kazakhstan,maize,0.0299386150398663
Kenya,maize,0.0299386150398663
Kiribati,maize,0.0299386150398663
Kuwait,maize,0.0299386150398663
Kyrgyzstan,maize,0.0299386150398663
Lao People's Democratic Republic,maize,0.0299386150398663
Latvia,maize,0.0603582114038878
Lebanon,maize,0.0299386150398663
Lesotho,maize,0.0299386150398663
Liberia,maize,0.0299386150398663
Libya,maize,0.0299386150398663
Lithuania,maize,0.0603582114038878
Luxembourg,maize,0.0603582114038878
Madagascar,maize,0.0299386150398663
Malawi,maize,0.0299386150398663
Malaysia,maize,0.0299386150398663
Maldives,maize,0.0299386150398663
Mali,maize,0.0299386150398663
Malta,maize,0.0603582114038878
Mauritania,maize,0.0299386150398663
Mauritius,maize,0.0299386150398663
Mexico,maize,0.0822050709280908
Mongolia,maize,0.0299386150398663
Montenegro,maize,0.0299386150398663
Morocco,maize,0.0299386150398663
Mozambique,maize,0.0299386150398663
Myanmar,maize,0.0299386150398663
Namibia,maize,0.0299386150398663
Nepal,maize,0.0299386150398663
Netherlands,maize,0.0603582114038878
New Caledonia,maize,0.0299386150398663
New Zealand,maize,0.0173195123664494
Nicaragua,maize,0.0299386150398663
Niger,maize,0.0299386150398663
Nigeria,maize,0.0299386150398663
Norway,maize,0.0822050709280908
Oman,maize,0.0299386150398663
Pakistan,maize,0.0299386150398663
Panama,maize,0.0299386150398663
Paraguay,maize,0.0299386150398663
Peru,maize,0.0299386150398663
Philippines,maize,0.0299386150398663
Poland,maize,0.0603582114038878
Portugal,maize,0.0603582114038878
Republic of Korea,maize,0.0822050709280908
Republic of Moldova,maize,0.0299386150398663
Romania,maize,0.0603582114038878
Russian Federation,maize,0.0883633555720103
Rwanda,maize,0.0299386150398663
Saint Kitts and Nevis,maize,0.0299386150398663
Saint Lucia,maize,0.0299386150398663
Saint Vincent and the Grenadines,maize,0.0299386150398663
Samoa,maize,0.0299386150398663
Sao Tome and Principe,maize,0.0299386150398663
Saudi Arabia,maize,0.0299386150398663
Senegal,maize,0.0299386150398663
Serbia,maize,0.0299386150398663
Sierra Leone,maize,0.0299386150398663
Slovakia,maize,0.0603582114038878
Slovenia,maize,0.0603582114038878
Solomon Islands,maize,0.0299386150398663
Somalia,maize,0.0299386150398663
South Africa,maize,0.0161824701612779
South Sudan,maize,0.0299386150398663
Spain,maize,0.0603582114038878
Sri Lanka,maize,0.0299386150398663
Sudan,maize,0.0299386150398663
Suriname,maize,0.0299386150398663
Swaziland,maize,0.0299386150398663
Sweden,maize,0.0603582114038878
Switzerland,maize,0.0822050709280908
Tajikistan,maize,0.0299386150398663
Thailand,maize,0.0299386150398663
The former Yugoslav Republic of Macedonia,maize,0.0299386150398663
Togo,maize,0.0299386150398663
Trinidad and Tobago,maize,0.0299386150398663
Tunisia,maize,0.0299386150398663
Turkey,maize,0.105663766639557
Turkmenistan,maize,0.0299386150398663
Uganda,maize,0.0299386150398663
Ukraine,maize,0.0299386150398663
United Arab Emirates,maize,0.0299386150398663
United Kingdom,maize,0.0603582114038878
United Republic of Tanzania,maize,0.0299386150398663
United States of America,maize,0.116357971434502
Uruguay,maize,0.0299386150398663
Uzbekistan,maize,0.0299386150398663
Vanuatu,maize,0.0299386150398663
Venezuela (Bolivarian Republic of),maize,0.0299386150398663
Viet Nam,maize,0.0299386150398663
Yemen,maize,0.0299386150398663
Zambia,maize,0.0299386150398663
Zimbabwe,maize,0.0299386150398663
Afghanistan,rice,0.0299386150398663
Albania,rice,0.0299386150398663
Algeria,rice,0.0299386150398663
Angola,rice,0.0299386150398663
Antigua and Barbuda,rice,0.0299386150398663
Argentina,rice,0.0299386150398663
Armenia,rice,0.0299386150398663
Australia,rice,0.0226361482678745
Austria,rice,0.0603582114038878
Azerbaijan,rice,0.0299386150398663
Bahamas,rice,0.0299386150398663
Bangladesh,rice,0.0299386150398663
Barbados,rice,0.0299386150398663
Belarus,rice,0.0299386150398663
Belgium,rice,0.0603582114038878
Belize,rice,0.0299386150398663
Benin,rice,0.0299386150398663
Bermuda,rice,0.0299386150398663
Bolivia (Plurinational State of),rice,0.0299386150398663
Bosnia and Herzegovina,rice,0.0299386150398663
Botswana,rice,0.0299386150398663
Brazil,rice,0.0346707358598232
Brunei Darussalam,rice,0.0299386150398663
Bulgaria,rice,0.0603582114038878
Burkina Faso,rice,0.0299386150398663
Cabo Verde,rice,0.0299386150398663
Cambodia,rice,0.0299386150398663
Cameroon,rice,0.0299386150398663
Canada,rice,0.0762136518389579
Central African Republic,rice,0.0299386150398663
Chad,rice,0.0299386150398663
Chile,rice,0.0299386150398663
China,rice,0.156633798883686
Colombia,rice,0.0686528452644761
Congo,rice,0.0299386150398663
Costa Rica,rice,0.0299386150398663
Cote d'Ivoire,rice,0.0299386150398663
Croatia,rice,0.0603582114038878
Cuba,rice,0.0299386150398663
Cyprus,rice,0.0603582114038878
Czechia,rice,0.0603582114038878
Democratic People's Republic of Korea,rice,0.0299386150398663
Democratic Republic of the Congo,rice,0.0299386150398663
Denmark,rice,0.0603582114038878
Djibouti,rice,0.0299386150398663
Dominica,rice,0.0299386150398663
Dominican Republic,rice,0.0299386150398663
Ecuador,rice,0.0299386150398663
Egypt,rice,0.0299386150398663
El Salvador,rice,0.0299386150398663
Estonia,rice,0.0603582114038878
Ethiopia,rice,0.0299386150398663
Fiji,rice,0.0299386150398663
Finland,rice,0.0603582114038878
France,rice,0.0603582114038878
French Polynesia,rice,0.0299386150398663
Gabon,rice,0.0299386150398663
Gambia,rice,0.0299386150398663
Georgia,rice,0.0299386150398663
Germany,rice,0.0603582114038878
Ghana,rice,0.0299386150398663
Greece,rice,0.0603582114038878
Grenada,rice,0.0299386150398663
Guatemala,rice,0.0299386150398663
Guinea,rice,0.0299386150398663
Guinea-Bissau,rice,0.0299386150398663
Guyana,rice,0.0299386150398663
Haiti,rice,0.0299386150398663
Honduras,rice,0.0299386150398663
Hungary,rice,0.0603582114038878
Iceland,rice,0.0299386150398663
India,rice,0.0268978443311666
Indonesia,rice,0.00498052969384483
Iran (Islamic Republic of),rice,0.0299386150398663
Iraq,rice,0.0299386150398663
Ireland,rice,0.0603582114038878
Israel,rice,0.0299386150398663
Italy,rice,0.0603582114038878
Jamaica,rice,0.0299386150398663
Japan,rice,0.0822050709280908
Jordan,rice,0.0299386150398663
Kazakhstan,rice,0.0299386150398663
Kenya,rice,0.0299386150398663
Kiribati,rice,0.0299386150398663
Kuwait,rice,0.0299386150398663
Kyrgyzstan,rice,0.0299386150398663
Lao People's Democratic Republic,rice,0.0299386150398663
Latvia,rice,0.0603582114038878
Lebanon,rice,0.0299386150398663
Lesotho,rice,0.0299386150398663
Liberia,rice,0.0299386150398663
Libya,rice,0.0299386150398663
Lithuania,rice,0.0603582114038878
Luxembourg,rice,0.0603582114038878
Madagascar,rice,0.0299386150398663
Malawi,rice,0.0299386150398663
Malaysia,rice,0.0299386150398663
Maldives,rice,0.0299386150398663
Mali,rice,0.0299386150398663
Malta,rice,0.0603582114038878
Mauritania,rice,0.0299386150398663
Mauritius,rice,0.0299386150398663
Mexico,rice,0.0822050709280908
Mongolia,rice,0.0299386150398663
Montenegro,rice,0.0299386150398663
Morocco,rice,0.0299386150398663
Mozambique,rice,0.0299386150398663
Myanmar,rice,0.0299386150398663
Namibia,rice,0.0299386150398663
Nepal,rice,0.0299386150398663
Netherlands,rice,0.0603582114038878
New Caledonia,rice,0.0299386150398663
New Zealand,rice,0.0173195123664494
Nicaragua,rice,0.0299386150398663
Niger,rice,0.0299386150398663
Nigeria,rice,0.0299386150398663
Norway,rice,0.0822050709280908
Oman,rice,0.0299386150398663
Pakistan,rice,0.0299386150398663
Panama,rice,0.0299386150398663
Paraguay,rice,0.0299386150398663
Peru,rice,0.0299386150398663
Philippines,rice,0.0299386150398663
Poland,rice,0.0603582114038878
Portugal,rice,0.0603582114038878
Republic of Korea,rice,0.0822050709280908
Republic of Moldova,rice,0.0299386150398663
Romania,rice,0.0603582114038878
Russian Federation,rice,0.0883633555720103
Rwanda,rice,0.0299386150398663
Saint Kitts and Nevis,rice,0.0299386150398663
Saint Lucia,rice,0.0299386150398663
Saint Vincent and the Grenadines,rice,0.0299386150398663
Samoa,rice,0.0299386150398663
Sao Tome and Principe,rice,0.0299386150398663
Saudi Arabia,rice,0.0299386150398663
Senegal,rice,0.0299386150398663
Serbia,rice,0.0299386150398663
Sierra Leone,rice,0.0299386150398663
Slovakia,rice,0.0603582114038878
Slovenia,rice,0.0603582114038878
Solomon Islands,rice,0.0299386150398663
Somalia,rice,0.0299386150398663
South Africa,rice,0.0161824701612779
South Sudan,rice,0.0299386150398663
Spain,rice,0.0603582114038878
Sri Lanka,rice,0.0299386150398663
Sudan,rice,0.0299386150398663
Suriname,rice,0.0299386150398663
Swaziland,rice,0.0299386150398663
Sweden,rice,0.0603582114038878
Switzerland,rice,0.0822050709280908
Tajikistan,rice,0.0299386150398663
Thailand,rice,0.0299386150398663
The former Yugoslav Republic of Macedonia,rice,0.0299386150398663
Togo,rice,0.0299386150398663
Trinidad and Tobago,rice,0.0299386150398663
Tunisia,rice,0.0299386150398663
Turkey,rice,0.105663766639557
Turkmenistan,rice,0.0299386150398663
Uganda,rice,0.0299386150398663
Ukraine,rice,0.0299386150398663
United Arab Emirates,rice,0.0299386150398663
United Kingdom,rice,0.0603582114038878
United Republic of Tanzania,rice,0.0299386150398663
United States of America,rice,0.116357971434502
Uruguay,rice,0.0299386150398663
Uzbekistan,rice,0.0299386150398663
Vanuatu,rice,0.0299386150398663
Venezuela (Bolivarian Republic of),rice,0.0299386150398663
Viet Nam,rice,0.0299386150398663
Yemen,rice,0.0299386150398663
Zambia,rice,0.0299386150398663
Zimbabwe,rice,0.0299386150398663
Afghanistan,oilcrops,0.0299386150398663
Albania,oilcrops,0.0299386150398663
Algeria,oilcrops,0.0299386150398663
Angola,oilcrops,0.0299386150398663
Antigua and Barbuda,oilcrops,0.0299386150398663
Argentina,oilcrops,0.0299386150398663
Armenia,oilcrops,0.0299386150398663
Australia,oilcrops,0.0226361482678745
Austria,oilcrops,0.0603582114038878
Azerbaijan,oilcrops,0.0299386150398663
Bahamas,oilcrops,0.0299386150398663
Bangladesh,oilcrops,0.0299386150398663
Barbados,oilcrops,0.0299386150398663
Belarus,oilcrops,0.0299386150398663
Belgium,oilcrops,0.0603582114038878
Belize,oilcrops,0.0299386150398663
Benin,oilcrops,0.0299386150398663
Bermuda,oilcrops,0.0299386150398663
Bolivia (Plurinational State of),oilcrops,0.0299386150398663
Bosnia and Herzegovina,oilcrops,0.0299386150398663
Botswana,oilcrops,0.0299386150398663
Brazil,oilcrops,0.0346707358598232
Brunei Darussalam,oilcrops,0.0299386150398663
Bulgaria,oilcrops,0.0603582114038878
Burkina Faso,oilcrops,0.0299386150398663
Cabo Verde,oilcrops,0.0299386150398663
Cambodia,oilcrops,0.0299386150398663
Cameroon,oilcrops,0.0299386150398663
Canada,oilcrops,0.0762136518389579
Central African Republic,oilcrops,0.0299386150398663
Chad,oilcrops,0.0299386150398663
Chile,oilcrops,0.0299386150398663
China,oilcrops,0.156633798883686
Colombia,oilcrops,0.0686528452644761
Congo,oilcrops,0.0299386150398663
Costa Rica,oilcrops,0.0299386150398663
Cote d'Ivoire,oilcrops,0.0299386150398663
Croatia,oilcrops,0.0603582114038878
Cuba,oilcrops,0.0299386150398663
Cyprus,oilcrops,0.0603582114038878
Czechia,oilcrops,0.0603582114038878
Democratic People's Republic of Korea,oilcrops,0.0299386150398663
Democratic Republic of the Congo,oilcrops,0.0299386150398663
Denmark,oilcrops,0.0603582114038878
Djibouti,oilcrops,0.0299386150398663
Dominica,oilcrops,0.0299386150398663
Dominican Republic,oilcrops,0.0299386150398663
Ecuador,oilcrops,0.0299386150398663
Egypt,oilcrops,0.0299386150398663
El Salvador,oilcrops,0.0299386150398663
Estonia,oilcrops,0.0603582114038878
Ethiopia,oilcrops,0.0299386150398663
Fiji,oilcrops,0.0299386150398663
Finland,oilcrops,0.0603582114038878
France,oilcrops,0.0603582114038878
French Polynesia,oilcrops,0.0299386150398663
Gabon,oilcrops,0.0299386150398663
Gambia,oilcrops,0.0299386150398663
Georgia,oilcrops,0.0299386150398663
Germany,oilcrops,0.0603582114038878
Ghana,oilcrops,0.0299386150398663
Greece,oilcrops,0.0603582114038878
Grenada,oilcrops,0.0299386150398663
Guatemala,oilcrops,0.0299386150398663
Guinea,oilcrops,0.0299386150398663
Guinea-Bissau,oilcrops,0.0299386150398663
Guyana,oilcrops,0.0299386150398663
Haiti,oilcrops,0.0299386150398663
Honduras,oilcrops,0.0299386150398663
Hungary,oilcrops,0.0603582114038878
Iceland,oilcrops,0.0299386150398663
India,oilcrops,0.0268978443311666
Indonesia,oilcrops,0.00498052969384483
Iran (Islamic Republic of),oilcrops,0.0299386150398663
Iraq,oilcrops,0.0299386150398663
Ireland,oilcrops,0.0603582114038878
Israel,oilcrops,0.0299386150398663
Italy,oilcrops,0.0603582114038878
Jamaica,oilcrops,0.0299386150398663
Japan,oilcrops,0.0822050709280908
Jordan,oilcrops,0.0299386150398663
Kazakhstan,oilcrops,0.0299386150398663
Kenya,oilcrops,0.0299386150398663
Kiribati,oilcrops,0.0299386150398663
Kuwait,oilcrops,0.0299386150398663
Kyrgyzstan,oilcrops,0.0299386150398663
Lao People's Democratic Republic,oilcrops,0.0299386150398663
Latvia,oilcrops,0.0603582114038878
Lebanon,oilcrops,0.0299386150398663
Lesotho,oilcrops,0.0299386150398663
Liberia,oilcrops,0.0299386150398663
Libya,oilcrops,0.0299386150398663
Lithuania,oilcrops,0.0603582114038878
Luxembourg,oilcrops,0.0603582114038878
Madagascar,oilcrops,0.0299386150398663
Malawi,oilcrops,0.0299386150398663
Malaysia,oilcrops,0.0299386150398663
Maldives,oilcrops,0.0299386150398663
Mali,oilcrops,0.0299386150398663
Malta,oilcrops,0.0603582114038878
Mauritania,oilcrops,0.0299386150398663
Mauritius,oilcrops,0.0299386150398663
Mexico,oilcrops,0.0822050709280908
Mongolia,oilcrops,0.0299386150398663
Montenegro,oilcrops,0.0299386150398663
Morocco,oilcrops,0.0299386150398663
Mozambique,oilcrops,0.0299386150398663
Myanmar,oilcrops,0.0299386150398663
Namibia,oilcrops,0.0299386150398663
Nepal,oilcrops,0.0299386150398663
Netherlands,oilcrops,0.0603582114038878
New Caledonia,oilcrops,0.0299386150398663
New Zealand,oilcrops,0.0173195123664494
Nicaragua,oilcrops,0.0299386150398663
Niger,oilcrops,0.0299386150398663
Nigeria,oilcrops,0.0299386150398663
Norway,oilcrops,0.0822050709280908
Oman,oilcrops,0.0299386150398663
Pakistan,oilcrops,0.0299386150398663
Panama,oilcrops,0.0299386150398663
Paraguay,oilcrops,0.0299386150398663
Peru,oilcrops,0.0299386150398663
Philippines,oilcrops,0.0299386150398663
Poland,oilcrops,0.0603582114038878
Portugal,oilcrops,0.0603582114038878
Republic of Korea,oilcrops,0.0822050709280908
Republic of Moldova,oilcrops,0.0299386150398663
Romania,oilcrops,0.0603582114038878
Russian Federation,oilcrops,0.0883633555720103
Rwanda,oilcrops,0.0299386150398663
Saint Kitts and Nevis,oilcrops,0.0299386150398663
Saint Lucia,oilcrops,0.0299386150398663
Saint Vincent and the Grenadines,oilcrops,0.0299386150398663
Samoa,oilcrops,0.0299386150398663
Sao Tome and Principe,oilcrops,0.0299386150398663
Saudi Arabia,oilcrops,0.0299386150398663
Senegal,oilcrops,0.0299386150398663
Serbia,oilcrops,0.0299386150398663
Sierra Leone,oilcrops,0.0299386150398663
Slovakia,oilcrops,0.0603582114038878
Slovenia,oilcrops,0.0603582114038878
Solomon Islands,oilcrops,0.0299386150398663
Somalia,oilcrops,0.0299386150398663
South Africa,oilcrops,0.0161824701612779
South Sudan,oilcrops,0.0299386150398663
Spain,oilcrops,0.0603582114038878
Sri Lanka,oilcrops,0.0299386150398663
Sudan,oilcrops,0.0299386150398663
Suriname,oilcrops,0.0299386150398663
Swaziland,oilcrops,0.0299386150398663
Sweden,oilcrops,0.0603582114038878
Switzerland,oilcrops,0.0822050709280908
Tajikistan,oilcrops,0.0299386150398663
Thailand,oilcrops,0.0299386150398663
The former Yugoslav Republic of Macedonia,oilcrops,0.0299386150398663
Togo,oilcrops,0.0299386150398663
Trinidad and Tobago,oilcrops,0.0299386150398663
Tunisia,oilcrops,0.0299386150398663
Turkey,oilcrops,0.105663766639557
Turkmenistan,oilcrops,0.0299386150398663
Uganda,oilcrops,0.0299386150398663
Ukraine,oilcrops,0.0299386150398663
United Arab Emirates,oilcrops,0.0299386150398663
United Kingdom,oilcrops,0.0603582114038878
United Republic of Tanzania,oilcrops,0.0299386150398663
United States of America,oilcrops,0.116357971434502
Uruguay,oilcrops,0.0299386150398663
Uzbekistan,oilcrops,0.0299386150398663
Vanuatu,oilcrops,0.0299386150398663
Venezuela (Bolivarian Republic of),oilcrops,0.0299386150398663
Viet Nam,oilcrops,0.0299386150398663
Yemen,oilcrops,0.0299386150398663
Zambia,oilcrops,0.0299386150398663
Zimbabwe,oilcrops,0.0299386150398663
Afghanistan,starchyRoots,0.0299386150398663
Albania,starchyRoots,0.0299386150398663
Algeria,starchyRoots,0.0299386150398663
Angola,starchyRoots,0.0299386150398663
Antigua and Barbuda,starchyRoots,0.0299386150398663
Argentina,starchyRoots,0.0299386150398663
Armenia,starchyRoots,0.0299386150398663
Australia,starchyRoots,0.0226361482678745
Austria,starchyRoots,0.0603582114038878
Azerbaijan,starchyRoots,0.0299386150398663
Bahamas,starchyRoots,0.0299386150398663
Bangladesh,starchyRoots,0.0299386150398663
Barbados,starchyRoots,0.0299386150398663
Belarus,starchyRoots,0.0299386150398663
Belgium,starchyRoots,0.0603582114038878
Belize,starchyRoots,0.0299386150398663
Benin,starchyRoots,0.0299386150398663
Bermuda,starchyRoots,0.0299386150398663
Bolivia (Plurinational State of),starchyRoots,0.0299386150398663
Bosnia and Herzegovina,starchyRoots,0.0299386150398663
Botswana,starchyRoots,0.0299386150398663
Brazil,starchyRoots,0.0346707358598232
Brunei Darussalam,starchyRoots,0.0299386150398663
Bulgaria,starchyRoots,0.0603582114038878
Burkina Faso,starchyRoots,0.0299386150398663
Cabo Verde,starchyRoots,0.0299386150398663
Cambodia,starchyRoots,0.0299386150398663
Cameroon,starchyRoots,0.0299386150398663
Canada,starchyRoots,0.0762136518389579
Central African Republic,starchyRoots,0.0299386150398663
Chad,starchyRoots,0.0299386150398663
Chile,starchyRoots,0.0299386150398663
China,starchyRoots,0.156633798883686
Colombia,starchyRoots,0.0686528452644761
Congo,starchyRoots,0.0299386150398663
Costa Rica,starchyRoots,0.0299386150398663
Cote d'Ivoire,starchyRoots,0.0299386150398663
Croatia,starchyRoots,0.0603582114038878
Cuba,starchyRoots,0.0299386150398663
Cyprus,starchyRoots,0.0603582114038878
Czechia,starchyRoots,0.0603582114038878
Democratic People's Republic of Korea,starchyRoots,0.0299386150398663
Democratic Republic of the Congo,starchyRoots,0.0299386150398663
Denmark,starchyRoots,0.0603582114038878
Djibouti,starchyRoots,0.0299386150398663
Dominica,starchyRoots,0.0299386150398663
Dominican Republic,starchyRoots,0.0299386150398663
Ecuador,starchyRoots,0.0299386150398663
Egypt,starchyRoots,0.0299386150398663
El Salvador,starchyRoots,0.0299386150398663
Estonia,starchyRoots,0.0603582114038878
Ethiopia,starchyRoots,0.0299386150398663
Fiji,starchyRoots,0.0299386150398663
Finland,starchyRoots,0.0603582114038878
France,starchyRoots,0.0603582114038878
French Polynesia,starchyRoots,0.0299386150398663
Gabon,starchyRoots,0.0299386150398663
Gambia,starchyRoots,0.0299386150398663
Georgia,starchyRoots,0.0299386150398663
Germany,starchyRoots,0.0603582114038878
Ghana,starchyRoots,0.0299386150398663
Greece,starchyRoots,0.0603582114038878
Grenada,starchyRoots,0.0299386150398663
Guatemala,starchyRoots,0.0299386150398663
Guinea,starchyRoots,0.0299386150398663
Guinea-Bissau,starchyRoots,0.0299386150398663
Guyana,starchyRoots,0.0299386150398663
Haiti,starchyRoots,0.0299386150398663
Honduras,starchyRoots,0.0299386150398663
Hungary,starchyRoots,0.0603582114038878
Iceland,starchyRoots,0.0299386150398663
India,starchyRoots,0.0268978443311666
Indonesia,starchyRoots,0.00498052969384483
Iran (Islamic Republic of),starchyRoots,0.0299386150398663
Iraq,starchyRoots,0.0299386150398663
Ireland,starchyRoots,0.0603582114038878
Israel,starchyRoots,0.0299386150398663
Italy,starchyRoots,0.0603582114038878
Jamaica,starchyRoots,0.0299386150398663
Japan,starchyRoots,0.0822050709280908
Jordan,starchyRoots,0.0299386150398663
Kazakhstan,starchyRoots,0.0299386150398663
Kenya,starchyRoots,0.0299386150398663
Kiribati,starchyRoots,0.0299386150398663
Kuwait,starchyRoots,0.0299386150398663
Kyrgyzstan,starchyRoots,0.0299386150398663
Lao People's Democratic Republic,starchyRoots,0.0299386150398663
Latvia,starchyRoots,0.0603582114038878
Lebanon,starchyRoots,0.0299386150398663
Lesotho,starchyRoots,0.0299386150398663
Liberia,starchyRoots,0.0299386150398663
Libya,starchyRoots,0.0299386150398663
Lithuania,starchyRoots,0.0603582114038878
Luxembourg,starchyRoots,0.0603582114038878
Madagascar,starchyRoots,0.0299386150398663
Malawi,starchyRoots,0.0299386150398663
Malaysia,starchyRoots,0.0299386150398663
Maldives,starchyRoots,0.0299386150398663
Mali,starchyRoots,0.0299386150398663
Malta,starchyRoots,0.0603582114038878
Mauritania,starchyRoots,0.0299386150398663
Mauritius,starchyRoots,0.0299386150398663
Mexico,starchyRoots,0.0822050709280908
Mongolia,starchyRoots,0.0299386150398663
Montenegro,starchyRoots,0.0299386150398663
Morocco,starchyRoots,0.0299386150398663
Mozambique,starchyRoots,0.0299386150398663
Myanmar,starchyRoots,0.0299386150398663
Namibia,starchyRoots,0.0299386150398663
Nepal,starchyRoots,0.0299386150398663
Netherlands,starchyRoots,0.0603582114038878
New Caledonia,starchyRoots,0.0299386150398663
New Zealand,starchyRoots,0.0173195123664494
Nicaragua,starchyRoots,0.0299386150398663
Niger,starchyRoots,0.0299386150398663
Nigeria,starchyRoots,0.0299386150398663
Norway,starchyRoots,0.0822050709280908
Oman,starchyRoots,0.0299386150398663
Pakistan,starchyRoots,0.0299386150398663
Panama,starchyRoots,0.0299386150398663
Paraguay,starchyRoots,0.0299386150398663
Peru,starchyRoots,0.0299386150398663
Philippines,starchyRoots,0.0299386150398663
Poland,starchyRoots,0.0603582114038878
Portugal,starchyRoots,0.0603582114038878
Republic of Korea,starchyRoots,0.0822050709280908
Republic of Moldova,starchyRoots,0.0299386150398663
Romania,starchyRoots,0.0603582114038878
Russian Federation,starchyRoots,0.0883633555720103
Rwanda,starchyRoots,0.0299386150398663
Saint Kitts and Nevis,starchyRoots,0.0299386150398663
Saint Lucia,starchyRoots,0.0299386150398663
Saint Vincent and the Grenadines,starchyRoots,0.0299386150398663
Samoa,starchyRoots,0.0299386150398663
Sao Tome and Principe,starchyRoots,0.0299386150398663
Saudi Arabia,starchyRoots,0.0299386150398663
Senegal,starchyRoots,0.0299386150398663
Serbia,starchyRoots,0.0299386150398663
Sierra Leone,starchyRoots,0.0299386150398663
Slovakia,starchyRoots,0.0603582114038878
Slovenia,starchyRoots,0.0603582114038878
Solomon Islands,starchyRoots,0.0299386150398663
Somalia,starchyRoots,0.0299386150398663
South Africa,starchyRoots,0.0161824701612779
South Sudan,starchyRoots,0.0299386150398663
Spain,starchyRoots,0.0603582114038878
Sri Lanka,starchyRoots,0.0299386150398663
Sudan,starchyRoots,0.0299386150398663
Suriname,starchyRoots,0.0299386150398663
Swaziland,starchyRoots,0.0299386150398663
Sweden,starchyRoots,0.0603582114038878
Switzerland,starchyRoots,0.0822050709280908
Tajikistan,starchyRoots,0.0299386150398663
Thailand,starchyRoots,0.0299386150398663
The former Yugoslav Republic of Macedonia,starchyRoots,0.0299386150398663
Togo,starchyRoots,0.0299386150398663
Trinidad and Tobago,starchyRoots,0.0299386150398663
Tunisia,starchyRoots,0.0299386150398663
Turkey,starchyRoots,0.105663766639557
Turkmenistan,starchyRoots,0.0299386150398663
Uganda,starchyRoots,0.0299386150398663
Ukraine,starchyRoots,0.0299386150398663
United Arab Emirates,starchyRoots,0.0299386150398663
United Kingdom,starchyRoots,0.0603582114038878
United Republic of Tanzania,starchyRoots,0.0299386150398663
United States of America,starchyRoots,0.116357971434502
Uruguay,starchyRoots,0.0299386150398663
Uzbekistan,starchyRoots,0.0299386150398663
Vanuatu,starchyRoots,0.0299386150398663
Venezuela (Bolivarian Republic of),starchyRoots,0.0299386150398663
Viet Nam,starchyRoots,0.0299386150398663
Yemen,starchyRoots,0.0299386150398663
Zambia,starchyRoots,0.0299386150398663
Zimbabwe,starchyRoots,0.0299386150398663
Afghanistan,pulses,0.0299386150398663
Albania,pulses,0.0299386150398663
Algeria,pulses,0.0299386150398663
Angola,pulses,0.0299386150398663
Antigua and Barbuda,pulses,0.0299386150398663
Argentina,pulses,0.0299386150398663
Armenia,pulses,0.0299386150398663
Australia,pulses,0.0226361482678745
Austria,pulses,0.0603582114038878
Azerbaijan,pulses,0.0299386150398663
Bahamas,pulses,0.0299386150398663
Bangladesh,pulses,0.0299386150398663
Barbados,pulses,0.0299386150398663
Belarus,pulses,0.0299386150398663
Belgium,pulses,0.0603582114038878
Belize,pulses,0.0299386150398663
Benin,pulses,0.0299386150398663
Bermuda,pulses,0.0299386150398663
Bolivia (Plurinational State of),pulses,0.0299386150398663
Bosnia and Herzegovina,pulses,0.0299386150398663
Botswana,pulses,0.0299386150398663
Brazil,pulses,0.0346707358598232
Brunei Darussalam,pulses,0.0299386150398663
Bulgaria,pulses,0.0603582114038878
Burkina Faso,pulses,0.0299386150398663
Cabo Verde,pulses,0.0299386150398663
Cambodia,pulses,0.0299386150398663
Cameroon,pulses,0.0299386150398663
Canada,pulses,0.0762136518389579
Central African Republic,pulses,0.0299386150398663
Chad,pulses,0.0299386150398663
Chile,pulses,0.0299386150398663
China,pulses,0.156633798883686
Colombia,pulses,0.0686528452644761
Congo,pulses,0.0299386150398663
Costa Rica,pulses,0.0299386150398663
Cote d'Ivoire,pulses,0.0299386150398663
Croatia,pulses,0.0603582114038878
Cuba,pulses,0.0299386150398663
Cyprus,pulses,0.0603582114038878
Czechia,pulses,0.0603582114038878
Democratic People's Republic of Korea,pulses,0.0299386150398663
Democratic Republic of the Congo,pulses,0.0299386150398663
Denmark,pulses,0.0603582114038878
Djibouti,pulses,0.0299386150398663
Dominica,pulses,0.0299386150398663
Dominican Republic,pulses,0.0299386150398663
Ecuador,pulses,0.0299386150398663
Egypt,pulses,0.0299386150398663
El Salvador,pulses,0.0299386150398663
Estonia,pulses,0.0603582114038878
Ethiopia,pulses,0.0299386150398663
Fiji,pulses,0.0299386150398663
Finland,pulses,0.0603582114038878
France,pulses,0.0603582114038878
French Polynesia,pulses,0.0299386150398663
Gabon,pulses,0.0299386150398663
Gambia,pulses,0.0299386150398663
Georgia,pulses,0.0299386150398663
Germany,pulses,0.0603582114038878
Ghana,pulses,0.0299386150398663
Greece,pulses,0.0603582114038878
Grenada,pulses,0.0299386150398663
Guatemala,pulses,0.0299386150398663
Guinea,pulses,0.0299386150398663
Guinea-Bissau,pulses,0.0299386150398663
Guyana,pulses,0.0299386150398663
Haiti,pulses,0.0299386150398663
Honduras,pulses,0.0299386150398663
Hungary,pulses,0.0603582114038878
Iceland,pulses,0.0299386150398663
India,pulses,0.0268978443311666
Indonesia,pulses,0.00498052969384483
Iran (Islamic Republic of),pulses,0.0299386150398663
Iraq,pulses,0.0299386150398663
Ireland,pulses,0.0603582114038878
Israel,pulses,0.0299386150398663
Italy,pulses,0.0603582114038878
Jamaica,pulses,0.0299386150398663
Japan,pulses,0.0822050709280908
Jordan,pulses,0.0299386150398663
Kazakhstan,pulses,0.0299386150398663
Kenya,pulses,0.0299386150398663
Kiribati,pulses,0.0299386150398663
Kuwait,pulses,0.0299386150398663
Kyrgyzstan,pulses,0.0299386150398663
Lao People's Democratic Republic,pulses,0.0299386150398663
Latvia,pulses,0.0603582114038878
Lebanon,pulses,0.0299386150398663
Lesotho,pulses,0.0299386150398663
Liberia,pulses,0.0299386150398663
Libya,pulses,0.0299386150398663
Lithuania,pulses,0.0603582114038878
Luxembourg,pulses,0.0603582114038878
Madagascar,pulses,0.0299386150398663
Malawi,pulses,0.0299386150398663
Malaysia,pulses,0.0299386150398663
Maldives,pulses,0.0299386150398663
Mali,pulses,0.0299386150398663
Malta,pulses,0.0603582114038878
Mauritania,pulses,0.0299386150398663
Mauritius,pulses,0.0299386150398663
Mexico,pulses,0.0822050709280908
Mongolia,pulses,0.0299386150398663
Montenegro,pulses,0.0299386150398663
Morocco,pulses,0.0299386150398663
Mozambique,pulses,0.0299386150398663
Myanmar,pulses,0.0299386150398663
Namibia,pulses,0.0299386150398663
Nepal,pulses,0.0299386150398663
Netherlands,pulses,0.0603582114038878
New Caledonia,pulses,0.0299386150398663
New Zealand,pulses,0.0173195123664494
Nicaragua,pulses,0.0299386150398663
Niger,pulses,0.0299386150398663
Nigeria,pulses,0.0299386150398663
Norway,pulses,0.0822050709280908
Oman,pulses,0.0299386150398663
Pakistan,pulses,0.0299386150398663
Panama,pulses,0.0299386150398663
Paraguay,pulses,0.0299386150398663
Peru,pulses,0.0299386150398663
Philippines,pulses,0.0299386150398663
Poland,pulses,0.0603582114038878
Portugal,pulses,0.0603582114038878
Republic of Korea,pulses,0.0822050709280908
Republic of Moldova,pulses,0.0299386150398663
Romania,pulses,0.0603582114038878
Russian Federation,pulses,0.0883633555720103
Rwanda,pulses,0.0299386150398663
Saint Kitts and Nevis,pulses,0.0299386150398663
Saint Lucia,pulses,0.0299386150398663
Saint Vincent and the Grenadines,pulses,0.0299386150398663
Samoa,pulses,0.0299386150398663
Sao Tome and Principe,pulses,0.0299386150398663
Saudi Arabia,pulses,0.0299386150398663
Senegal,pulses,0.0299386150398663
Serbia,pulses,0.0299386150398663
Sierra Leone,pulses,0.0299386150398663
Slovakia,pulses,0.0603582114038878
Slovenia,pulses,0.0603582114038878
Solomon Islands,pulses,0.0299386150398663
Somalia,pulses,0.0299386150398663
South Africa,pulses,0.0161824701612779
South Sudan,pulses,0.0299386150398663
Spain,pulses,0.0603582114038878
Sri Lanka,pulses,0.0299386150398663
Sudan,pulses,0.0299386150398663
Suriname,pulses,0.0299386150398663
Swaziland,pulses,0.0299386150398663
Sweden,pulses,0.0603582114038878
Switzerland,pulses,0.0822050709280908
Tajikistan,pulses,0.0299386150398663
Thailand,pulses,0.0299386150398663
The former Yugoslav Republic of Macedonia,pulses,0.0299386150398663
Togo,pulses,0.0299386150398663
Trinidad and Tobago,pulses,0.0299386150398663
Tunisia,pulses,0.0299386150398663
Turkey,pulses,0.105663766639557
Turkmenistan,pulses,0.0299386150398663
Uganda,pulses,0.0299386150398663
Ukraine,pulses,0.0299386150398663
United Arab Emirates,pulses,0.0299386150398663
United Kingdom,pulses,0.0603582114038878
United Republic of Tanzania,pulses,0.0299386150398663
United States of America,pulses,0.116357971434502
Uruguay,pulses,0.0299386150398663
Uzbekistan,pulses,0.0299386150398663
Vanuatu,pulses,0.0299386150398663
Venezuela (Bolivarian Republic of),pulses,0.0299386150398663
Viet Nam,pulses,0.0299386150398663
Yemen,pulses,0.0299386150398663
Zambia,pulses,0.0299386150398663
Zimbabwe,pulses,0.0299386150398663
Afghanistan,pasture,0.0299386150398663
Albania,pasture,0.0299386150398663
Algeria,pasture,0.0299386150398663
Angola,pasture,0.0299386150398663
Antigua and Barbuda,pasture,0.0299386150398663
Argentina,pasture,0.0299386150398663
Armenia,pasture,0.0299386150398663
Australia,pasture,0.0226361482678745
Austria,pasture,0.0603582114038878
Azerbaijan,pasture,0.0299386150398663
Bahamas,pasture,0.0299386150398663
Bangladesh,pasture,0.0299386150398663
Barbados,pasture,0.0299386150398663
Belarus,pasture,0.0299386150398663
Belgium,pasture,0.0603582114038878
Belize,pasture,0.0299386150398663
Benin,pasture,0.0299386150398663
Bermuda,pasture,0.0299386150398663
Bolivia (Plurinational State of),pasture,0.0299386150398663
Bosnia and Herzegovina,pasture,0.0299386150398663
Botswana,pasture,0.0299386150398663
Brazil,pasture,0.0346707358598232
Brunei Darussalam,pasture,0.0299386150398663
Bulgaria,pasture,0.0603582114038878
Burkina Faso,pasture,0.0299386150398663
Cabo Verde,pasture,0.0299386150398663
Cambodia,pasture,0.0299386150398663
Cameroon,pasture,0.0299386150398663
Canada,pasture,0.0762136518389579
Central African Republic,pasture,0.0299386150398663
Chad,pasture,0.0299386150398663
Chile,pasture,0.0299386150398663
China,pasture,0.156633798883686
Colombia,pasture,0.0686528452644761
Congo,pasture,0.0299386150398663
Costa Rica,pasture,0.0299386150398663
Cote d'Ivoire,pasture,0.0299386150398663
Croatia,pasture,0.0603582114038878
Cuba,pasture,0.0299386150398663
Cyprus,pasture,0.0603582114038878
Czechia,pasture,0.0603582114038878
Democratic People's Republic of Korea,pasture,0.0299386150398663
Democratic Republic of the Congo,pasture,0.0299386150398663
Denmark,pasture,0.0603582114038878
Djibouti,pasture,0.0299386150398663
Dominica,pasture,0.0299386150398663
Dominican Republic,pasture,0.0299386150398663
Ecuador,pasture,0.0299386150398663
Egypt,pasture,0.0299386150398663
El Salvador,pasture,0.0299386150398663
Estonia,pasture,0.0603582114038878
Ethiopia,pasture,0.0299386150398663
Fiji,pasture,0.0299386150398663
Finland,pasture,0.0603582114038878
France,pasture,0.0603582114038878
French Polynesia,pasture,0.0299386150398663
Gabon,pasture,0.0299386150398663
Gambia,pasture,0.0299386150398663
Georgia,pasture,0.0299386150398663
Germany,pasture,0.0603582114038878
Ghana,pasture,0.0299386150398663
Greece,pasture,0.0603582114038878
Grenada,pasture,0.0299386150398663
Guatemala,pasture,0.0299386150398663
Guinea,pasture,0.0299386150398663
Guinea-Bissau,pasture,0.0299386150398663
Guyana,pasture,0.0299386150398663
Haiti,pasture,0.0299386150398663
Honduras,pasture,0.0299386150398663
Hungary,pasture,0.0603582114038878
Iceland,pasture,0.0299386150398663
India,pasture,0.0268978443311666
Indonesia,pasture,0.00498052969384483
Iran (Islamic Republic of),pasture,0.0299386150398663
Iraq,pasture,0.0299386150398663
Ireland,pasture,0.0603582114038878
Israel,pasture,0.0299386150398663
Italy,pasture,0.0603582114038878
Jamaica,pasture,0.0299386150398663
Japan,pasture,0.0822050709280908
Jordan,pasture,0.0299386150398663
Kazakhstan,pasture,0.0299386150398663
Kenya,pasture,0.0299386150398663
Kiribati,pasture,0.0299386150398663
Kuwait,pasture,0.0299386150398663
Kyrgyzstan,pasture,0.0299386150398663
Lao People's Democratic Republic,pasture,0.0299386150398663
Latvia,pasture,0.0603582114038878
Lebanon,pasture,0.0299386150398663
Lesotho,pasture,0.0299386150398663
Liberia,pasture,0.0299386150398663
Libya,pasture,0.0299386150398663
Lithuania,pasture,0.0603582114038878
Luxembourg,pasture,0.0603582114038878
Madagascar,pasture,0.0299386150398663
Malawi,pasture,0.0299386150398663
Malaysia,pasture,0.0299386150398663
Maldives,pasture,0.0299386150398663
Mali,pasture,0.0299386150398663
Malta,pasture,0.0603582114038878
Mauritania,pasture,0.0299386150398663
Mauritius,pasture,0.0299386150398663
Mexico,pasture,0.0822050709280908
Mongolia,pasture,0.0299386150398663
Montenegro,pasture,0.0299386150398663
Morocco,pasture,0.0299386150398663
Mozambique,pasture,0.0299386150398663
Myanmar,pasture,0.0299386150398663
Namibia,pasture,0.0299386150398663
Nepal,pasture,0.0299386150398663
Netherlands,pasture,0.0603582114038878
New Caledonia,pasture,0.0299386150398663
New Zealand,pasture,0.0173195123664494
Nicaragua,pasture,0.0299386150398663
Niger,pasture,0.0299386150398663
Nigeria,pasture,0.0299386150398663
Norway,pasture,0.0822050709280908
Oman,pasture,0.0299386150398663
Pakistan,pasture,0.0299386150398663
Panama,pasture,0.0299386150398663
Paraguay,pasture,0.0299386150398663
Peru,pasture,0.0299386150398663
Philippines,pasture,0.0299386150398663
Poland,pasture,0.0603582114038878
Portugal,pasture,0.0603582114038878
Republic of Korea,pasture,0.0822050709280908
Republic of Moldova,pasture,0.0299386150398663
Romania,pasture,0.0603582114038878
Russian Federation,pasture,0.0883633555720103
Rwanda,pasture,0.0299386150398663
Saint Kitts and Nevis,pasture,0.0299386150398663
Saint Lucia,pasture,0.0299386150398663
Saint Vincent and the Grenadines,pasture,0.0299386150398663
Samoa,pasture,0.0299386150398663
Sao Tome and Principe,pasture,0.0299386150398663
Saudi Arabia,pasture,0.0299386150398663
Senegal,pasture,0.0299386150398663
Serbia,pasture,0.0299386150398663
Sierra Leone,pasture,0.0299386150398663
Slovakia,pasture,0.0603582114038878
Slovenia,pasture,0.0603582114038878
Solomon Islands,pasture,0.0299386150398663
Somalia,pasture,0.0299386150398663
South Africa,pasture,0.0161824701612779
South Sudan,pasture,0.0299386150398663
Spain,pasture,0.0603582114038878
Sri Lanka,pasture,0.0299386150398663
Sudan,pasture,0.0299386150398663
Suriname,pasture,0.0299386150398663
Swaziland,pasture,0.0299386150398663
Sweden,pasture,0.0603582114038878
Switzerland,pasture,0.0822050709280908
Tajikistan,pasture,0.0299386150398663
Thailand,pasture,0.0299386150398663
The former Yugoslav Republic of Macedonia,pasture,0.0299386150398663
Togo,pasture,0.0299386150398663
Trinidad and Tobago,pasture,0.0299386150398663
Tunisia,pasture,0.0299386150398663
Turkey,pasture,0.105663766639557
Turkmenistan,pasture,0.0299386150398663
Uganda,pasture,0.0299386150398663
Ukraine,pasture,0.0299386150398663
United Arab Emirates,pasture,0.0299386150398663
United Kingdom,pasture,0.0603582114038878
United Republic of Tanzania,pasture,0.0299386150398663
United States of America,pasture,0.116357971434502
Uruguay,pasture,0.0299386150398663
Uzbekistan,pasture,0.0299386150398663
Vanuatu,pasture,0.0299386150398663
Venezuela (Bolivarian Republic of),pasture,0.0299386150398663
Viet Nam,pasture,0.0299386150398663
Yemen,pasture,0.0299386150398663
Zambia,pasture,0.0299386150398663
Zimbabwe,pasture,0.0299386150398663
Afghanistan,fruitveg,0.0299386150398663
Albania,fruitveg,0.0299386150398663
Algeria,fruitveg,0.0299386150398663
Angola,fruitveg,0.0299386150398663
Antigua and Barbuda,fruitveg,0.0299386150398663
Argentina,fruitveg,0.0299386150398663
Armenia,fruitveg,0.0299386150398663
Australia,fruitveg,0.0226361482678745
Austria,fruitveg,0.0603582114038878
Azerbaijan,fruitveg,0.0299386150398663
Bahamas,fruitveg,0.0299386150398663
Bangladesh,fruitveg,0.0299386150398663
Barbados,fruitveg,0.0299386150398663
Belarus,fruitveg,0.0299386150398663
Belgium,fruitveg,0.0603582114038878
Belize,fruitveg,0.0299386150398663
Benin,fruitveg,0.0299386150398663
Bermuda,fruitveg,0.0299386150398663
Bolivia (Plurinational State of),fruitveg,0.0299386150398663
Bosnia and Herzegovina,fruitveg,0.0299386150398663
Botswana,fruitveg,0.0299386150398663
Brazil,fruitveg,0.0346707358598232
Brunei Darussalam,fruitveg,0.0299386150398663
Bulgaria,fruitveg,0.0603582114038878
Burkina Faso,fruitveg,0.0299386150398663
Cabo Verde,fruitveg,0.0299386150398663
Cambodia,fruitveg,0.0299386150398663
Cameroon,fruitveg,0.0299386150398663
Canada,fruitveg,0.0762136518389579
Central African Republic,fruitveg,0.0299386150398663
Chad,fruitveg,0.0299386150398663
Chile,fruitveg,0.0299386150398663
China,fruitveg,0.156633798883686
Colombia,fruitveg,0.0686528452644761
Congo,fruitveg,0.0299386150398663
Costa Rica,fruitveg,0.0299386150398663
Cote d'Ivoire,fruitveg,0.0299386150398663
Croatia,fruitveg,0.0603582114038878
Cuba,fruitveg,0.0299386150398663
Cyprus,fruitveg,0.0603582114038878
Czechia,fruitveg,0.0603582114038878
Democratic People's Republic of Korea,fruitveg,0.0299386150398663
Democratic Republic of the Congo,fruitveg,0.0299386150398663
Denmark,fruitveg,0.0603582114038878
Djibouti,fruitveg,0.0299386150398663
Dominica,fruitveg,0.0299386150398663
Dominican Republic,fruitveg,0.0299386150398663
Ecuador,fruitveg,0.0299386150398663
Egypt,fruitveg,0.0299386150398663
El Salvador,fruitveg,0.0299386150398663
Estonia,fruitveg,0.0603582114038878
Ethiopia,fruitveg,0.0299386150398663
Fiji,fruitveg,0.0299386150398663
Finland,fruitveg,0.0603582114038878
France,fruitveg,0.0603582114038878
French Polynesia,fruitveg,0.0299386150398663
Gabon,fruitveg,0.0299386150398663
Gambia,fruitveg,0.0299386150398663
Georgia,fruitveg,0.0299386150398663
Germany,fruitveg,0.0603582114038878
Ghana,fruitveg,0.0299386150398663
Greece,fruitveg,0.0603582114038878
Grenada,fruitveg,0.0299386150398663
Guatemala,fruitveg,0.0299386150398663
Guinea,fruitveg,0.0299386150398663
Guinea-Bissau,fruitveg,0.0299386150398663
Guyana,fruitveg,0.0299386150398663
Haiti,fruitveg,0.0299386150398663
Honduras,fruitveg,0.0299386150398663
Hungary,fruitveg,0.0603582114038878
Iceland,fruitveg,0.0299386150398663
India,fruitveg,0.0268978443311666
Indonesia,fruitveg,0.00498052969384483
Iran (Islamic Republic of),fruitveg,0.0299386150398663
Iraq,fruitveg,0.0299386150398663
Ireland,fruitveg,0.0603582114038878
Israel,fruitveg,0.0299386150398663
Italy,fruitveg,0.0603582114038878
Jamaica,fruitveg,0.0299386150398663
Japan,fruitveg,0.0822050709280908
Jordan,fruitveg,0.0299386150398663
Kazakhstan,fruitveg,0.0299386150398663
Kenya,fruitveg,0.0299386150398663
Kiribati,fruitveg,0.0299386150398663
Kuwait,fruitveg,0.0299386150398663
Kyrgyzstan,fruitveg,0.0299386150398663
Lao People's Democratic Republic,fruitveg,0.0299386150398663
Latvia,fruitveg,0.0603582114038878
Lebanon,fruitveg,0.0299386150398663
Lesotho,fruitveg,0.0299386150398663
Liberia,fruitveg,0.0299386150398663
Libya,fruitveg,0.0299386150398663
Lithuania,fruitveg,0.0603582114038878
Luxembourg,fruitveg,0.0603582114038878
Madagascar,fruitveg,0.0299386150398663
Malawi,fruitveg,0.0299386150398663
Malaysia,fruitveg,0.0299386150398663
Maldives,fruitveg,0.0299386150398663
Mali,fruitveg,0.0299386150398663
Malta,fruitveg,0.0603582114038878
Mauritania,fruitveg,0.0299386150398663
Mauritius,fruitveg,0.0299386150398663
Mexico,fruitveg,0.0822050709280908
Mongolia,fruitveg,0.0299386150398663
Montenegro,fruitveg,0.0299386150398663
Morocco,fruitveg,0.0299386150398663
Mozambique,fruitveg,0.0299386150398663
Myanmar,fruitveg,0.0299386150398663
Namibia,fruitveg,0.0299386150398663
Nepal,fruitveg,0.0299386150398663
Netherlands,fruitveg,0.0603582114038878
New Caledonia,fruitveg,0.0299386150398663
New Zealand,fruitveg,0.0173195123664494
Nicaragua,fruitveg,0.0299386150398663
Niger,fruitveg,0.0299386150398663
Nigeria,fruitveg,0.0299386150398663
Norway,fruitveg,0.0822050709280908
Oman,fruitveg,0.0299386150398663
Pakistan,fruitveg,0.0299386150398663
Panama,fruitveg,0.0299386150398663
Paraguay,fruitveg,0.0299386150398663
Peru,fruitveg,0.0299386150398663
Philippines,fruitveg,0.0299386150398663
Poland,fruitveg,0.0603582114038878
Portugal,fruitveg,0.0603582114038878
Republic of Korea,fruitveg,0.0822050709280908
Republic of Moldova,fruitveg,0.0299386150398663
Romania,fruitveg,0.0603582114038878
Russian Federation,fruitveg,0.0883633555720103
Rwanda,fruitveg,0.0299386150398663
Saint Kitts and Nevis,fruitveg,0.0299386150398663
Saint Lucia,fruitveg,0.0299386150398663
Saint Vincent and the Grenadines,fruitveg,0.0299386150398663
Samoa,fruitveg,0.0299386150398663
Sao Tome and Principe,fruitveg,0.0299386150398663
Saudi Arabia,fruitveg,0.0299386150398663
Senegal,fruitveg,0.0299386150398663
Serbia,fruitveg,0.0299386150398663
Sierra Leone,fruitveg,0.0299386150398663
Slovakia,fruitveg,0.0603582114038878
Slovenia,fruitveg,0.0603582114038878
Solomon Islands,fruitveg,0.0299386150398663
Somalia,fruitveg,0.0299386150398663
South Africa,fruitveg,0.0161824701612779
South Sudan,fruitveg,0.0299386150398663
Spain,fruitveg,0.0603582114038878
Sri Lanka,fruitveg,0.0299386150398663
Sudan,fruitveg,0.0299386150398663
Suriname,fruitveg,0.0299386150398663
Swaziland,fruitveg,0.0299386150398663
Sweden,fruitveg,0.0603582114038878
Switzerland,fruitveg,0.0822050709280908
Tajikistan,fruitveg,0.0299386150398663
Thailand,fruitveg,0.0299386150398663
The former Yugoslav Republic of Macedonia,fruitveg,0.0299386150398663
Togo,fruitveg,0.0299386150398663
Trinidad and Tobago,fruitveg,0.0299386150398663
Tunisia,fruitveg,0.0299386150398663
Turkey,fruitveg,0.105663766639557
Turkmenistan,fruitveg,0.0299386150398663
Uganda,fruitveg,0.0299386150398663
Ukraine,fruitveg,0.0299386150398663
United Arab Emirates,fruitveg,0.0299386150398663
United Kingdom,fruitveg,0.0603582114038878
United Republic of Tanzania,fruitveg,0.0299386150398663
United States of America,fruitveg,0.116357971434502
Uruguay,fruitveg,0.0299386150398663
Uzbekistan,fruitveg,0.0299386150398663
Vanuatu,fruitveg,0.0299386150398663
Venezuela (Bolivarian Republic of),fruitveg,0.0299386150398663
Viet Nam,fruitveg,0.0299386150398663
Yemen,fruitveg,0.0299386150398663
Zambia,fruitveg,0.0299386150398663
Zimbabwe,fruitveg,0.0299386150398663
Afghanistan,sugar,0.0299386150398663
Albania,sugar,0.0299386150398663
Algeria,sugar,0.0299386150398663
Angola,sugar,0.0299386150398663
Antigua and Barbuda,sugar,0.0299386150398663
Argentina,sugar,0.0299386150398663
Armenia,sugar,0.0299386150398663
Australia,sugar,0.0226361482678745
Austria,sugar,0.0603582114038878
Azerbaijan,sugar,0.0299386150398663
Bahamas,sugar,0.0299386150398663
Bangladesh,sugar,0.0299386150398663
Barbados,sugar,0.0299386150398663
Belarus,sugar,0.0299386150398663
Belgium,sugar,0.0603582114038878
Belize,sugar,0.0299386150398663
Benin,sugar,0.0299386150398663
Bermuda,sugar,0.0299386150398663
Bolivia (Plurinational State of),sugar,0.0299386150398663
Bosnia and Herzegovina,sugar,0.0299386150398663
Botswana,sugar,0.0299386150398663
Brazil,sugar,0.0346707358598232
Brunei Darussalam,sugar,0.0299386150398663
Bulgaria,sugar,0.0603582114038878
Burkina Faso,sugar,0.0299386150398663
Cabo Verde,sugar,0.0299386150398663
Cambodia,sugar,0.0299386150398663
Cameroon,sugar,0.0299386150398663
Canada,sugar,0.0762136518389579
Central African Republic,sugar,0.0299386150398663
Chad,sugar,0.0299386150398663
Chile,sugar,0.0299386150398663
China,sugar,0.156633798883686
Colombia,sugar,0.0686528452644761
Congo,sugar,0.0299386150398663
Costa Rica,sugar,0.0299386150398663
Cote d'Ivoire,sugar,0.0299386150398663
Croatia,sugar,0.0603582114038878
Cuba,sugar,0.0299386150398663
Cyprus,sugar,0.0603582114038878
Czechia,sugar,0.0603582114038878
Democratic People's Republic of Korea,sugar,0.0299386150398663
Democratic Republic of the Congo,sugar,0.0299386150398663
Denmark,sugar,0.0603582114038878
Djibouti,sugar,0.0299386150398663
Dominica,sugar,0.0299386150398663
Dominican Republic,sugar,0.0299386150398663
Ecuador,sugar,0.0299386150398663
Egypt,sugar,0.0299386150398663
El Salvador,sugar,0.0299386150398663
Estonia,sugar,0.0603582114038878
Ethiopia,sugar,0.0299386150398663
Fiji,sugar,0.0299386150398663
Finland,sugar,0.0603582114038878
France,sugar,0.0603582114038878
French Polynesia,sugar,0.0299386150398663
Gabon,sugar,0.0299386150398663
Gambia,sugar,0.0299386150398663
Georgia,sugar,0.0299386150398663
Germany,sugar,0.0603582114038878
Ghana,sugar,0.0299386150398663
Greece,sugar,0.0603582114038878
Grenada,sugar,0.0299386150398663
Guatemala,sugar,0.0299386150398663
Guinea,sugar,0.0299386150398663
Guinea-Bissau,sugar,0.0299386150398663
Guyana,sugar,0.0299386150398663
Haiti,sugar,0.0299386150398663
Honduras,sugar,0.0299386150398663
Hungary,sugar,0.0603582114038878
Iceland,sugar,0.0299386150398663
India,sugar,0.0268978443311666
Indonesia,sugar,0.00498052969384483
Iran (Islamic Republic of),sugar,0.0299386150398663
Iraq,sugar,0.0299386150398663
Ireland,sugar,0.0603582114038878
Israel,sugar,0.0299386150398663
Italy,sugar,0.0603582114038878
Jamaica,sugar,0.0299386150398663
Japan,sugar,0.0822050709280908
Jordan,sugar,0.0299386150398663
Kazakhstan,sugar,0.0299386150398663
Kenya,sugar,0.0299386150398663
Kiribati,sugar,0.0299386150398663
Kuwait,sugar,0.0299386150398663
Kyrgyzstan,sugar,0.0299386150398663
Lao People's Democratic Republic,sugar,0.0299386150398663
Latvia,sugar,0.0603582114038878
Lebanon,sugar,0.0299386150398663
Lesotho,sugar,0.0299386150398663
Liberia,sugar,0.0299386150398663
Libya,sugar,0.0299386150398663
Lithuania,sugar,0.0603582114038878
Luxembourg,sugar,0.0603582114038878
Madagascar,sugar,0.0299386150398663
Malawi,sugar,0.0299386150398663
Malaysia,sugar,0.0299386150398663
Maldives,sugar,0.0299386150398663
Mali,sugar,0.0299386150398663
Malta,sugar,0.0603582114038878
Mauritania,sugar,0.0299386150398663
Mauritius,sugar,0.0299386150398663
Mexico,sugar,0.0822050709280908
Mongolia,sugar,0.0299386150398663
Montenegro,sugar,0.0299386150398663
Morocco,sugar,0.0299386150398663
Mozambique,sugar,0.0299386150398663
Myanmar,sugar,0.0299386150398663
Namibia,sugar,0.0299386150398663
Nepal,sugar,0.0299386150398663
Netherlands,sugar,0.0603582114038878
New Caledonia,sugar,0.0299386150398663
New Zealand,sugar,0.0173195123664494
Nicaragua,sugar,0.0299386150398663
Niger,sugar,0.0299386150398663
Nigeria,sugar,0.0299386150398663
Norway,sugar,0.0822050709280908
Oman,sugar,0.0299386150398663
Pakistan,sugar,0.0299386150398663
Panama,sugar,0.0299386150398663
Paraguay,sugar,0.0299386150398663
Peru,sugar,0.0299386150398663
Philippines,sugar,0.0299386150398663
Poland,sugar,0.0603582114038878
Portugal,sugar,0.0603582114038878
Republic of Korea,sugar,0.0822050709280908
Republic of Moldova,sugar,0.0299386150398663
Romania,sugar,0.0603582114038878
Russian Federation,sugar,0.0883633555720103
Rwanda,sugar,0.0299386150398663
Saint Kitts and Nevis,sugar,0.0299386150398663
Saint Lucia,sugar,0.0299386150398663
Saint Vincent and the Grenadines,sugar,0.0299386150398663
Samoa,sugar,0.0299386150398663
Sao Tome and Principe,sugar,0.0299386150398663
Saudi Arabia,sugar,0.0299386150398663
Senegal,sugar,0.0299386150398663
Serbia,sugar,0.0299386150398663
Sierra Leone,sugar,0.0299386150398663
Slovakia,sugar,0.0603582114038878
Slovenia,sugar,0.0603582114038878
Solomon Islands,sugar,0.0299386150398663
Somalia,sugar,0.0299386150398663
South Africa,sugar,0.0161824701612779
South Sudan,sugar,0.0299386150398663
Spain,sugar,0.0603582114038878
Sri Lanka,sugar,0.0299386150398663
Sudan,sugar,0.0299386150398663
Suriname,sugar,0.0299386150398663
Swaziland,sugar,0.0299386150398663
Sweden,sugar,0.0603582114038878
Switzerland,sugar,0.0822050709280908
Tajikistan,sugar,0.0299386150398663
Thailand,sugar,0.0299386150398663
The former Yugoslav Republic of Macedonia,sugar,0.0299386150398663
Togo,sugar,0.0299386150398663
Trinidad and Tobago,sugar,0.0299386150398663
Tunisia,sugar,0.0299386150398663
Turkey,sugar,0.105663766639557
Turkmenistan,sugar,0.0299386150398663
Uganda,sugar,0.0299386150398663
Ukraine,sugar,0.0299386150398663
United Arab Emirates,sugar,0.0299386150398663
United Kingdom,sugar,0.0603582114038878
United Republic of Tanzania,sugar,0.0299386150398663
United States of America,sugar,0.116357971434502
Uruguay,sugar,0.0299386150398663
Uzbekistan,sugar,0.0299386150398663
Vanuatu,sugar,0.0299386150398663
Venezuela (Bolivarian Republic of),sugar,0.0299386150398663
Viet Nam,sugar,0.0299386150398663
Yemen,sugar,0.0299386150398663
Zambia,sugar,0.0299386150398663
Zimbabwe,sugar,0.0299386150398663
