Country,Year,Item,other
Afghanistan,2010,Ruminants,0
Africa,2010,Ruminants,0.330227
Albania,2010,Ruminants,0.000258
Algeria,2010,Ruminants,0.003088
Americas,2010,Ruminants,10.917465
Angola,2010,Ruminants,6.3e-05
Antigua and Barbuda,2010,Ruminants,0.000515
Argentina,2010,Ruminants,0.031281
Armenia,2010,Ruminants,0.002333
Asia,2010,Ruminants,3.672431
Australia,2010,Ruminants,0.320802
Australia & New Zealand,2010,Ruminants,2.636908
Austria,2010,Ruminants,0.088959
Azerbaijan,2010,Ruminants,0.006149
Bahamas,2010,Ruminants,0.025869
Bangladesh,2010,Ruminants,0.000329
Barbados,2010,Ruminants,0.004869
Belarus,2010,Ruminants,0.085693
Belgium,2010,Ruminants,0.385603
Belize,2010,Ruminants,0.00039
Benin,2010,Ruminants,0
Bermuda,2010,Ruminants,0.001937
Bolivia (Plurinational State of),2010,Ruminants,0.002993
Bosnia and Herzegovina,2010,Ruminants,0.001159
Botswana,2010,Ruminants,0.007732
Brazil,2010,Ruminants,0.792325
Brunei Darussalam,2010,Ruminants,0.000446
Bulgaria,2010,Ruminants,0.026752
Burkina Faso,2010,Ruminants,0
Cabo Verde,2010,Ruminants,0.000547
Cambodia,2010,Ruminants,1.2e-05
Cameroon,2010,Ruminants,0.005634
Canada,2010,Ruminants,1.286763
Caribbean,2010,Ruminants,0.185555
Central African Republic,2010,Ruminants,8e-06
Central America,2010,Ruminants,1.067453
Central Asia,2010,Ruminants,0.298279
Chad,2010,Ruminants,0
Chile,2010,Ruminants,0.232421
China,2010,Ruminants,1.574043
China Hong Kong SAR,2010,Ruminants,0.026757
China Macao SAR,2010,Ruminants,0.000162
China Taiwan Province of,2010,Ruminants,0.086008
China mainland,2010,Ruminants,1.461116
Colombia,2010,Ruminants,0.019449
Congo,2010,Ruminants,0.000286
Costa Rica,2010,Ruminants,0.011084
Cote d'Ivoire,2010,Ruminants,0.000196
Croatia,2010,Ruminants,0.006439
Cuba,2010,Ruminants,0.052246
Cyprus,2010,Ruminants,0.041691
Czechia,2010,Ruminants,0.119833
Democratic People's Republic of Korea,2010,Ruminants,0
Denmark,2010,Ruminants,0.356894
Djibouti,2010,Ruminants,0.000109
Dominica,2010,Ruminants,0.008565
Dominican Republic,2010,Ruminants,0.060417
Eastern Africa,2010,Ruminants,0.011622
Eastern Asia,2010,Ruminants,2.438686
Eastern Europe,2010,Ruminants,2.62467
Ecuador,2010,Ruminants,0.003072
Egypt,2010,Ruminants,0.044023
El Salvador,2010,Ruminants,0.003402
Estonia,2010,Ruminants,0.007409
Ethiopia,2010,Ruminants,0.000102
Europe,2010,Ruminants,9.210291
European Union,2010,Ruminants,6.55533
Fiji,2010,Ruminants,0.018886
Finland,2010,Ruminants,0.079871
France,2010,Ruminants,0.478088
French Polynesia,2010,Ruminants,0.002045
Gabon,2010,Ruminants,1e-06
Gambia,2010,Ruminants,4.6e-05
Georgia,2010,Ruminants,0.004951
Germany,2010,Ruminants,1.026912
Ghana,2010,Ruminants,0.002803
Greece,2010,Ruminants,0.168303
Grenada,2010,Ruminants,0.000247
Guatemala,2010,Ruminants,0.081024
Guinea,2010,Ruminants,0
Guinea-Bissau,2010,Ruminants,0
Guyana,2010,Ruminants,1.1e-05
Haiti,2010,Ruminants,0.022823
Honduras,2010,Ruminants,0.038341
Hungary,2010,Ruminants,0.019676
Iceland,2010,Ruminants,0.002389
India,2010,Ruminants,0.192286
Indonesia,2010,Ruminants,0.037147
Iran (Islamic Republic of),2010,Ruminants,0.017215
Iraq,2010,Ruminants,0.002841
Ireland,2010,Ruminants,0.668275
Israel,2010,Ruminants,0.035296
Italy,2010,Ruminants,0.376224
Jamaica,2010,Ruminants,0.001418
Japan,2010,Ruminants,0.578065
Jordan,2010,Ruminants,0.00073
Kazakhstan,2010,Ruminants,0.228987
Kenya,2010,Ruminants,0.002878
Kiribati,2010,Ruminants,0.000177
Kuwait,2010,Ruminants,0.005252
Kyrgyzstan,2010,Ruminants,0.049765
Land Locked Developing Countries,2010,Ruminants,0.364633
Lao People's Democratic Republic,2010,Ruminants,0
Latvia,2010,Ruminants,0.020171
Least Developed Countries,2010,Ruminants,0.075418
Lebanon,2010,Ruminants,0.157179
Lesotho,2010,Ruminants,0
Liberia,2010,Ruminants,0
Lithuania,2010,Ruminants,0.012357
Low Income Food Deficit Countries,2010,Ruminants,0.505344
Luxembourg,2010,Ruminants,0.001494
Madagascar,2010,Ruminants,0.004273
Malawi,2010,Ruminants,0.00034
Malaysia,2010,Ruminants,0.03536
Maldives,2010,Ruminants,0.005088
Mali,2010,Ruminants,0.023294
Malta,2010,Ruminants,0.014882
Mauritania,2010,Ruminants,1.5e-05
Mauritius,2010,Ruminants,0.000184
Melanesia,2010,Ruminants,0.023616
Mexico,2010,Ruminants,0.891108
Micronesia,2010,Ruminants,0.000177
Middle Africa,2010,Ruminants,0.005992
Mongolia,2010,Ruminants,0.003683
Montenegro,2010,Ruminants,1.2e-05
Morocco,2010,Ruminants,0.010685
Mozambique,2010,Ruminants,0.000146
Myanmar,2010,Ruminants,4.7e-05
Namibia,2010,Ruminants,0.001432
Nepal,2010,Ruminants,0.000145
Net Food Importing Developing Countries,2010,Ruminants,0.446756
Netherlands,2010,Ruminants,0.118477
Netherlands Antilles (former),2010,Ruminants,0.005341
New Caledonia,2010,Ruminants,0.004729
New Zealand,2010,Ruminants,2.316107
Nicaragua,2010,Ruminants,0.027799
Niger,2010,Ruminants,7.3e-05
Nigeria,2010,Ruminants,0.128973
Northern Africa,2010,Ruminants,0.079194
Northern America,2010,Ruminants,8.478126
Northern Europe,2010,Ruminants,2.320047
Norway,2010,Ruminants,0.264648
Oceania,2010,Ruminants,2.663007
Oman,2010,Ruminants,0.000125
Pakistan,2010,Ruminants,0.000895
Panama,2010,Ruminants,0.014305
Paraguay,2010,Ruminants,0.006739
Peru,2010,Ruminants,0.041296
Philippines,2010,Ruminants,0.042269
Poland,2010,Ruminants,0.533132
Polynesia,2010,Ruminants,0.002305
Portugal,2010,Ruminants,0.126941
Republic of Korea,2010,Ruminants,0.282895
Republic of Moldova,2010,Ruminants,0.008087
Romania,2010,Ruminants,0.030735
Russian Federation,2010,Ruminants,1.391683
Rwanda,2010,Ruminants,7.1e-05
Saint Kitts and Nevis,2010,Ruminants,0.0014
Saint Lucia,2010,Ruminants,0.000594
Saint Vincent and the Grenadines,2010,Ruminants,0.00089
Samoa,2010,Ruminants,0.00026
Sao Tome and Principe,2010,Ruminants,0
Saudi Arabia,2010,Ruminants,0.037172
Senegal,2010,Ruminants,0.011183
Serbia,2010,Ruminants,0.020748
Sierra Leone,2010,Ruminants,0
Slovakia,2010,Ruminants,0.008798
Slovenia,2010,Ruminants,0.006418
Small Island Developing States,2010,Ruminants,0.214947
Solomon Islands,2010,Ruminants,0
South Africa,2010,Ruminants,0.056472
South America,2010,Ruminants,1.186332
South-Eastern Asia,2010,Ruminants,0.144644
Southern Africa,2010,Ruminants,0.066239
Southern Asia,2010,Ruminants,0.25549
Southern Europe,2010,Ruminants,1.644842
Spain,2010,Ruminants,0.922964
Sri Lanka,2010,Ruminants,0.039533
Sudan (former),2010,Ruminants,0.009886
Suriname,2010,Ruminants,0.000476
Swaziland,2010,Ruminants,0.000603
Sweden,2010,Ruminants,0.028575
Switzerland,2010,Ruminants,0.521197
Tajikistan,2010,Ruminants,0.002771
Thailand,2010,Ruminants,0.020004
The former Yugoslav Republic of Macedonia,2010,Ruminants,0.000496
Timor-Leste,2010,Ruminants,0
Togo,2010,Ruminants,5.3e-05
Trinidad and Tobago,2010,Ruminants,0.000364
Tunisia,2010,Ruminants,0.011512
Turkey,2010,Ruminants,0.23305
Turkmenistan,2010,Ruminants,2.6e-05
Uganda,2010,Ruminants,6.3e-05
Ukraine,2010,Ruminants,0.400281
United Arab Emirates,2010,Ruminants,0.008387
United Kingdom,2010,Ruminants,0.879458
United Republic of Tanzania,2010,Ruminants,9e-06
United States of America,2010,Ruminants,7.189427
Uruguay,2010,Ruminants,0.028667
Uzbekistan,2010,Ruminants,0.01673
Vanuatu,2010,Ruminants,1e-06
Venezuela (Bolivarian Republic of),2010,Ruminants,0.0276
Viet Nam,2010,Ruminants,0.009361
Western Africa,2010,Ruminants,0.167181
Western Asia,2010,Ruminants,0.535331
Western Europe,2010,Ruminants,2.620732
World,2010,Ruminants,26.793421
Yemen,2010,Ruminants,0.000177
Zambia,2010,Ruminants,0.001974
Zimbabwe,2010,Ruminants,0.001471
Afghanistan,2010,FruitVeg,0
Africa,2010,FruitVeg,0.855097514550454
Albania,2010,FruitVeg,8.10993250671755e-05
Algeria,2010,FruitVeg,0.0381809879970987
Americas,2010,FruitVeg,4.44363398139059
Angola,2010,FruitVeg,0.000424
Antigua and Barbuda,2010,FruitVeg,0.000457618205530716
Argentina,2010,FruitVeg,0
Armenia,2010,FruitVeg,0.137308
Asia,2010,FruitVeg,10.5243581830829
Australia,2010,FruitVeg,0.167606024960837
Australia & New Zealand,2010,FruitVeg,0.215716316847984
Austria,2010,FruitVeg,0
Azerbaijan,2010,FruitVeg,0.006823
Bahamas,2010,FruitVeg,0.0130708983504224
Bangladesh,2010,FruitVeg,0.00968898407126079
Barbados,2010,FruitVeg,0.00207286972454384
Belarus,2010,FruitVeg,0
Belgium,2010,FruitVeg,0.216396852021891
Belize,2010,FruitVeg,0.000892
Benin,2010,FruitVeg,0
Bermuda,2010,FruitVeg,0.00242502392036386
Bolivia (Plurinational State of),2010,FruitVeg,0
Bosnia and Herzegovina,2010,FruitVeg,7.1558228000449e-05
Botswana,2010,FruitVeg,0
Brazil,2010,FruitVeg,0
Brunei Darussalam,2010,FruitVeg,0.000296925218436931
Bulgaria,2010,FruitVeg,0
Burkina Faso,2010,FruitVeg,0
Cabo Verde,2010,FruitVeg,0
Cambodia,2010,FruitVeg,0
Cameroon,2010,FruitVeg,0.254
Canada,2010,FruitVeg,0.0223263143934733
Caribbean,2010,FruitVeg,0.25317776022365
Central African Republic,2010,FruitVeg,0.000106
Central America,2010,FruitVeg,0.354684793236067
Central Asia,2010,FruitVeg,0.240101401447772
Chad,2010,FruitVeg,0
Chile,2010,FruitVeg,0.000367332237068971
China,2010,FruitVeg,0.0578132095688546
China Hong Kong SAR,2010,FruitVeg,0.0419562970961638
China Macao SAR,2010,FruitVeg,0.000760541139282661
China Taiwan Province of,2010,FruitVeg,0.0150963713334082
China mainland,2010,FruitVeg,0
Colombia,2010,FruitVeg,0.010435
Congo,2010,FruitVeg,0.00234
Costa Rica,2010,FruitVeg,0.000273
Cote d'Ivoire,2010,FruitVeg,0.141926
Croatia,2010,FruitVeg,0.008129014700851
Cuba,2010,FruitVeg,0.04
Cyprus,2010,FruitVeg,0.00338849316480072
Czechia,2010,FruitVeg,0.00992831267605253
Democratic People's Republic of Korea,2010,FruitVeg,0
Denmark,2010,FruitVeg,0.0180756083929134
Djibouti,2010,FruitVeg,0
Dominica,2010,FruitVeg,0.0132178682421241
Dominican Republic,2010,FruitVeg,0
Eastern Africa,2010,FruitVeg,0.018773
Eastern Asia,2010,FruitVeg,0.126230124206283
Eastern Europe,2010,FruitVeg,1.11336845390754
Ecuador,2010,FruitVeg,0
Egypt,2010,FruitVeg,0
El Salvador,2010,FruitVeg,0
Estonia,2010,FruitVeg,0
Ethiopia,2010,FruitVeg,0
Europe,2010,FruitVeg,3.30408809585772
European Union,2010,FruitVeg,2.59765503151763
Fiji,2010,FruitVeg,0.113657109706673
Finland,2010,FruitVeg,0.00503769925123161
France,2010,FruitVeg,0.189763992465842
French Polynesia,2010,FruitVeg,0.00995871888241823
Gabon,2010,FruitVeg,1.1e-05
Gambia,2010,FruitVeg,3.81643882669061e-05
Georgia,2010,FruitVeg,0.007003
Germany,2010,FruitVeg,0.550058557542384
Ghana,2010,FruitVeg,0.1676
Greece,2010,FruitVeg,0.198793511274377
Grenada,2010,FruitVeg,0.00201328924722123
Guatemala,2010,FruitVeg,0.000133575358934171
Guinea,2010,FruitVeg,0
Guinea-Bissau,2010,FruitVeg,0.0265576436852333
Guyana,2010,FruitVeg,0.0136458392440103
Haiti,2010,FruitVeg,0.021619
Honduras,2010,FruitVeg,0
Hungary,2010,FruitVeg,0.00943907284298041
Iceland,2010,FruitVeg,0.000258830696228293
India,2010,FruitVeg,0
Indonesia,2010,FruitVeg,4.58685596625336
Iran (Islamic Republic of),2010,FruitVeg,0.000188
Iraq,2010,FruitVeg,0
Ireland,2010,FruitVeg,0.0397529809285161
Israel,2010,FruitVeg,0.035842
Italy,2010,FruitVeg,0.14002046829736
Jamaica,2010,FruitVeg,0.148743
Japan,2010,FruitVeg,0.0576139146374281
Jordan,2010,FruitVeg,0
Kazakhstan,2010,FruitVeg,0.240101401447772
Kenya,2010,FruitVeg,6e-06
Kiribati,2010,FruitVeg,0.119857137562696
Kuwait,2010,FruitVeg,0.00826173351309905
Kyrgyzstan,2010,FruitVeg,0
Land Locked Developing Countries,2010,FruitVeg,0.741674911915249
Lao People's Democratic Republic,2010,FruitVeg,0
Latvia,2010,FruitVeg,0.000376873334135698
Least Developed Countries,2010,FruitVeg,0.822521175834882
Lebanon,2010,FruitVeg,0.0294721326105206
Lesotho,2010,FruitVeg,0
Liberia,2010,FruitVeg,0
Lithuania,2010,FruitVeg,0
Low Income Food Deficit Countries,2010,FruitVeg,1.23214293660283
Luxembourg,2010,FruitVeg,8.70821941334531e-05
Madagascar,2010,FruitVeg,0.017979
Malawi,2010,FruitVeg,4e-06
Malaysia,2010,FruitVeg,0.241131684001347
Maldives,2010,FruitVeg,0.00648847282212286
Mali,2010,FruitVeg,0
Malta,2010,FruitVeg,0.010422075856378
Mauritania,2010,FruitVeg,0.000167
Mauritius,2010,FruitVeg,0.000711
Melanesia,2010,FruitVeg,0.578140864551418
Mexico,2010,FruitVeg,0.350554217877133
Micronesia,2010,FruitVeg,0.119857137562696
Middle Africa,2010,FruitVeg,0.25688
Mongolia,2010,FruitVeg,0
Montenegro,2010,FruitVeg,0
Morocco,2010,FruitVeg,0.00248472961677716
Mozambique,2010,FruitVeg,0
Myanmar,2010,FruitVeg,0
Namibia,2010,FruitVeg,0
Nepal,2010,FruitVeg,0.14
Net Food Importing Developing Countries,2010,FruitVeg,1.35318975078685
Netherlands,2010,FruitVeg,0.26995580040596
Netherlands Antilles (former),2010,FruitVeg,0.005468
New Caledonia,2010,FruitVeg,0.0129425087173207
New Zealand,2010,FruitVeg,0.0481102918871479
Nicaragua,2010,FruitVeg,0
Niger,2010,FruitVeg,0
Nigeria,2010,FruitVeg,0.144065
Northern Africa,2010,FruitVeg,0.062427651623617
Northern America,2010,FruitVeg,3.77427668838111
Northern Europe,2010,FruitVeg,0.0809766591380679
Norway,2010,FruitVeg,0
Oceania,2010,FruitVeg,0.993114970351234
Oman,2010,FruitVeg,0.000538423213009657
Pakistan,2010,FruitVeg,0.00658812752457467
Panama,2010,FruitVeg,0.002832
Paraguay,2010,FruitVeg,0
Peru,2010,FruitVeg,0.012
Philippines,2010,FruitVeg,3.63025164646015
Poland,2010,FruitVeg,0.372909008304473
Polynesia,2010,FruitVeg,0.0794006513891358
Portugal,2010,FruitVeg,0.00405019570482541
Republic of Korea,2010,FruitVeg,0.010804
Republic of Moldova,2010,FruitVeg,0.206438510467477
Romania,2010,FruitVeg,0.0210155265422641
Russian Federation,2010,FruitVeg,0.439334126083023
Rwanda,2010,FruitVeg,0
Saint Kitts and Nevis,2010,FruitVeg,0.000760034261867445
Saint Lucia,2010,FruitVeg,0.00196362396393928
Saint Vincent and the Grenadines,2010,FruitVeg,0.000711558228000449
Samoa,2010,FruitVeg,0.0694419325067176
Sao Tome and Principe,2010,FruitVeg,0
Saudi Arabia,2010,FruitVeg,0
Senegal,2010,FruitVeg,1.8e-05
Serbia,2010,FruitVeg,0
Sierra Leone,2010,FruitVeg,0.029565
Slovakia,2010,FruitVeg,0.0022469283592141
Slovenia,2010,FruitVeg,0.00229940439308109
Small Island Developing States,2010,FruitVeg,1.07694270175544
Solomon Islands,2010,FruitVeg,0.267246016933498
South Africa,2010,FruitVeg,0.00218105485333633
South America,2010,FruitVeg,0.0615015100982987
South-Eastern Asia,2010,FruitVeg,8.72198195970614
Southern Africa,2010,FruitVeg,0.00218105485333633
Southern Asia,2010,FruitVeg,0.267868418037754
Southern Europe,2010,FruitVeg,0.882755463560331
Spain,2010,FruitVeg,0.508029135780392
Sri Lanka,2010,FruitVeg,0.104914833619796
Sudan (former),2010,FruitVeg,8e-06
Suriname,2010,FruitVeg,0.001116308356807
Swaziland,2010,FruitVeg,0
Sweden,2010,FruitVeg,0
Switzerland,2010,FruitVeg,0.000721464073034606
Tajikistan,2010,FruitVeg,0
Thailand,2010,FruitVeg,0.0249183111046802
The former Yugoslav Republic of Macedonia,2010,FruitVeg,0.01086
Timor-Leste,2010,FruitVeg,0
Togo,2010,FruitVeg,0.0049
Trinidad and Tobago,2010,FruitVeg,0.00308
Tunisia,2010,FruitVeg,0.0217539340097411
Turkey,2010,FruitVeg,0
Turkmenistan,2010,FruitVeg,0
Uganda,2010,FruitVeg,0
Ukraine,2010,FruitVeg,0.0520569686320541
United Arab Emirates,2010,FruitVeg,0.939537497183478
United Kingdom,2010,FruitVeg,0.0174746665350428
United Republic of Tanzania,2010,FruitVeg,3.9e-05
United States of America,2010,FruitVeg,3.74952535006727
Uruguay,2010,FruitVeg,0.00317241477468657
Uzbekistan,2010,FruitVeg,0
Vanuatu,2010,FruitVeg,0.184295229193927
Venezuela (Bolivarian Republic of),2010,FruitVeg,0.0207646154857258
Viet Nam,2010,FruitVeg,0.238527426668163
Western Africa,2010,FruitVeg,0.5148358080735
Western Asia,2010,FruitVeg,1.16817527968491
Western Europe,2010,FruitVeg,1.22698374870325
World,2010,FruitVeg,20.1202927452328
Yemen,2010,FruitVeg,0
Zambia,2010,FruitVeg,1.1e-05
Zimbabwe,2010,FruitVeg,2.3e-05
Afghanistan,2010,Cereals,0
Africa,2010,Cereals,6.67256071995501
Albania,2010,Cereals,0.140994335275063
Algeria,2010,Cereals,0.5
Americas,2010,Cereals,144.204320243638
Angola,2010,Cereals,0.079646
Antigua and Barbuda,2010,Cereals,0.00308858749905709
Argentina,2010,Cereals,1.02354202006144
Armenia,2010,Cereals,0.0457784442922016
Asia,2010,Cereals,60.9164728743983
Australia,2010,Cereals,0.70743403519427
Australia & New Zealand,2010,Cereals,0.752836524993378
Austria,2010,Cereals,0.364670246101556
Azerbaijan,2010,Cereals,0.013879170862913
Bahamas,2010,Cereals,0.0121034460421043
Bangladesh,2010,Cereals,0.448344510983013
Barbados,2010,Cereals,0.0127680656846525
Belarus,2010,Cereals,0.046277
Belgium,2010,Cereals,1.81732672138105
Belize,2010,Cereals,0.00432840696596928
Benin,2010,Cereals,0.051966
Bermuda,2010,Cereals,0.00309906588919973
Bolivia (Plurinational State of),2010,Cereals,0.333584011650377
Bosnia and Herzegovina,2010,Cereals,0.281821116280896
Botswana,2010,Cereals,0.000797
Brazil,2010,Cereals,0.00667320709305359
Brunei Darussalam,2010,Cereals,0.00349103341879815
Bulgaria,2010,Cereals,0.322375373576054
Burkina Faso,2010,Cereals,3e-06
Cabo Verde,2010,Cereals,0.024938
Cambodia,2010,Cereals,2.06539975955044
Cameroon,2010,Cereals,0.070672
Canada,2010,Cereals,1.19658044344375
Caribbean,2010,Cereals,0.0670723556791389
Central African Republic,2010,Cereals,0
Central America,2010,Cereals,2.67839838365029
Central Asia,2010,Cereals,1.17513204077632
Chad,2010,Cereals,0
Chile,2010,Cereals,0.451008213870534
China,2010,Cereals,35.5396687199495
China Hong Kong SAR,2010,Cereals,0.01525549480099
China Macao SAR,2010,Cereals,0.00242150995918732
China Taiwan Province of,2010,Cereals,0.0653897982876515
China mainland,2010,Cereals,35.4566019169017
Colombia,2010,Cereals,0.00393562457419138
Congo,2010,Cereals,1.3e-05
Costa Rica,2010,Cereals,0.01324
Cote d'Ivoire,2010,Cereals,0.00589601456297156
Croatia,2010,Cereals,0.000290451778835317
Cuba,2010,Cereals,0.001008
Cyprus,2010,Cereals,0.0194785848142335
Czechia,2010,Cereals,0.280942818124948
Democratic People's Republic of Korea,2010,Cereals,0.275600939749745
Denmark,2010,Cereals,0.506905542978723
Djibouti,2010,Cereals,0.004388
Dominica,2010,Cereals,0.000104040802585608
Dominican Republic,2010,Cereals,0.014001
Eastern Africa,2010,Cereals,2.93019319514382
Eastern Asia,2010,Cereals,36.3975495978183
Eastern Europe,2010,Cereals,2.65916529728923
Ecuador,2010,Cereals,0.929304521681099
Egypt,2010,Cereals,0.264796081340718
El Salvador,2010,Cereals,0.00670734692544012
Estonia,2010,Cereals,0.002197
Ethiopia,2010,Cereals,2.8625
Europe,2010,Cereals,20.1897853451836
European Union,2010,Cereals,19.4134897235955
Fiji,2010,Cereals,0.00460247008319545
Finland,2010,Cereals,0.160630736468467
France,2010,Cereals,6.03799798942471
French Polynesia,2010,Cereals,0.0197438909654676
Gabon,2010,Cereals,0.00217533527506287
Gambia,2010,Cereals,0.0445273381876572
Georgia,2010,Cereals,0.00436466763753144
Germany,2010,Cereals,1.06865558063961
Ghana,2010,Cereals,0.00212049772691009
Greece,2010,Cereals,0.418599041043638
Grenada,2010,Cereals,0.00786730049620115
Guatemala,2010,Cereals,0.00331577556335219
Guinea,2010,Cereals,0.180479
Guinea-Bissau,2010,Cereals,0
Guyana,2010,Cereals,0.003542
Haiti,2010,Cereals,0.002886
Honduras,2010,Cereals,0.000283498380344294
Hungary,2010,Cereals,0.0282789010901849
Iceland,2010,Cereals,0.0162972487183585
India,2010,Cereals,0.842340247476163
Indonesia,2010,Cereals,10.9157443661942
Iran (Islamic Republic of),2010,Cereals,0.0198966789054724
Iraq,2010,Cereals,0.40106
Ireland,2010,Cereals,0.0826927885123286
Israel,2010,Cereals,0.321208
Italy,2010,Cereals,0.6687946533653
Jamaica,2010,Cereals,0.00124380250895101
Japan,2010,Cereals,0.451498736588881
Jordan,2010,Cereals,0.007167
Kazakhstan,2010,Cereals,1.16403337313879
Kenya,2010,Cereals,0.045347
Kiribati,2010,Cereals,0.00266832900313183
Kuwait,2010,Cereals,0.0295644627200592
Kyrgyzstan,2010,Cereals,0.00207466763753144
Land Locked Developing Countries,2010,Cereals,6.59867653987604
Lao People's Democratic Republic,2010,Cereals,0.79025
Latvia,2010,Cereals,0.00584485110311344
Least Developed Countries,2010,Cereals,9.45357126120494
Lebanon,2010,Cereals,0.0149608177969087
Lesotho,2010,Cereals,0
Liberia,2010,Cereals,0.000896559749679328
Lithuania,2010,Cereals,0.130081453384561
Low Income Food Deficit Countries,2010,Cereals,8.20344553495392
Luxembourg,2010,Cereals,0.00906452363608745
Madagascar,2010,Cereals,0.000567
Malawi,2010,Cereals,4e-04
Malaysia,2010,Cereals,0.3056891801825
Maldives,2010,Cereals,0.0112080798743177
Mali,2010,Cereals,1.260693
Malta,2010,Cereals,0.0101328014238746
Mauritania,2010,Cereals,0.00116467572188017
Mauritius,2010,Cereals,0.004213
Melanesia,2010,Cereals,0.0363492081435718
Mexico,2010,Cereals,2.54614035581518
Micronesia,2010,Cereals,0.00266832900313183
Middle Africa,2010,Cereals,0.152506335275063
Mongolia,2010,Cereals,0.000896386217696772
Montenegro,2010,Cereals,0.0122338391538787
Morocco,2010,Cereals,0.832174534660169
Mozambique,2010,Cereals,0
Myanmar,2010,Cereals,1.30813648876783
Namibia,2010,Cereals,0.000369
Nepal,2010,Cereals,0.000383
Net Food Importing Developing Countries,2010,Cereals,12.8823555550988
Netherlands,2010,Cereals,1.31663292545785
Netherlands Antilles (former),2010,Cereals,0.000438534660169237
New Caledonia,2010,Cereals,0.0247598954401524
New Zealand,2010,Cereals,0.0454024897991078
Nicaragua,2010,Cereals,0.069048
Niger,2010,Cereals,4e-06
Nigeria,2010,Cereals,0.034688
Northern Africa,2010,Cereals,1.69301315570299
Northern America,2010,Cereals,138.176141458578
Northern Europe,2010,Cereals,3.65058424393315
Norway,2010,Cereals,0.103377515526845
Oceania,2010,Cereals,0.813667419333693
Oman,2010,Cereals,0.254442853402958
Pakistan,2010,Cereals,1.640673
Panama,2010,Cereals,0.035336
Paraguay,2010,Cereals,0.001685
Peru,2010,Cereals,0.498743486729967
Philippines,2010,Cereals,0.926571731532253
Poland,2010,Cereals,1.12771033468583
Polynesia,2010,Cereals,0.0218133571936111
Portugal,2010,Cereals,0.0455039431201874
Republic of Korea,2010,Cereals,0.129886482949977
Republic of Moldova,2010,Cereals,0.001305
Romania,2010,Cereals,0.704049260864725
Russian Federation,2010,Cereals,0.0180565348814827
Rwanda,2010,Cereals,1.1e-05
Saint Kitts and Nevis,2010,Cereals,0.00192305350276328
Saint Lucia,2010,Cereals,0.00262889081761239
Saint Vincent and the Grenadines,2010,Cereals,0.00549963366504231
Samoa,2010,Cereals,0.00206946622814354
Sao Tome and Principe,2010,Cereals,0
Saudi Arabia,2010,Cereals,0.0121754242586181
Senegal,2010,Cereals,0.237945
Serbia,2010,Cereals,0.0222525571742263
Sierra Leone,2010,Cereals,0.00131175144933226
Slovakia,2010,Cereals,0.0961651197152243
Slovenia,2010,Cereals,0.0537016680680889
Small Island Developing States,2010,Cereals,0.197863160805587
Solomon Islands,2010,Cereals,0.006155
South Africa,2010,Cereals,0.0175413864067695
South America,2010,Cereals,3.28270804573121
South-Eastern Asia,2010,Cereals,17.4604242033293
Southern Africa,2010,Cereals,0.0459693864067695
Southern Asia,2010,Cereals,2.97709710008455
Southern Europe,2010,Cereals,3.22643752489341
Spain,2010,Cereals,1.49221030559561
Sri Lanka,2010,Cereals,0.0142525828455793
Sudan (former),2010,Cereals,0.085
Suriname,2010,Cereals,0.0190708927168154
Swaziland,2010,Cereals,0.027261
Sweden,2010,Cereals,0.0352457714550561
Switzerland,2010,Cereals,0.0392522924270015
Tajikistan,2010,Cereals,0.005011
Thailand,2010,Cereals,0.00110731132087418
The former Yugoslav Republic of Macedonia,2010,Cereals,0.0799038126138128
Togo,2010,Cereals,0.00424781002793558
Trinidad and Tobago,2010,Cereals,0.001512
Tunisia,2010,Cereals,0.0110435397021046
Turkey,2010,Cereals,1.538229
Turkmenistan,2010,Cereals,0
Uganda,2010,Cereals,0.003536
Ukraine,2010,Cereals,0.0340029543507827
United Arab Emirates,2010,Cereals,0.243961506604424
United Kingdom,2010,Cereals,2.60731033578569
United Republic of Tanzania,2010,Cereals,0.00855352168109878
United States of America,2010,Cereals,136.976461949245
Uruguay,2010,Cereals,0.00848503495113173
Uzbekistan,2010,Cereals,0.004013
Vanuatu,2010,Cereals,0.000831842620223959
Venezuela (Bolivarian Republic of),2010,Cereals,0.00313803240260114
Viet Nam,2010,Cereals,1.144035
Western Africa,2010,Cereals,1.85087864742637
Western Asia,2010,Cereals,2.90627093238985
Western Europe,2010,Cereals,10.6535982790679
World,2010,Cereals,232.796809270147
Yemen,2010,Cereals,0
Zambia,2010,Cereals,0.000678673462720059
Zimbabwe,2010,Cereals,0
Africa,2010,OilcropsPulses,7.55382579511427
Albania,2010,OilcropsPulses,0.024860239482167
Algeria,2010,OilcropsPulses,0.0232763607394054
Americas,2010,OilcropsPulses,13.6354253545725
Angola,2010,OilcropsPulses,0.12058448506385
Antigua and Barbuda,2010,OilcropsPulses,0.000202951009434547
Argentina,2010,OilcropsPulses,2.2638359648112
Armenia,2010,OilcropsPulses,0.0131975726975819
Asia,2010,OilcropsPulses,58.9728012765605
Australia,2010,OilcropsPulses,0.135714393610413
Australia & New Zealand,2010,OilcropsPulses,0.193274577802083
Austria,2010,OilcropsPulses,0.311824832564312
Azerbaijan,2010,OilcropsPulses,0.0457541750095625
Bahamas,2010,OilcropsPulses,0.0010689904826642
Bangladesh,2010,OilcropsPulses,1.00197521962732
Barbados,2010,OilcropsPulses,0.00275822831194341
Belarus,2010,OilcropsPulses,0.0791453988637702
Belgium,2010,OilcropsPulses,0.909175779410802
Belize,2010,OilcropsPulses,0.000610946992492763
Benin,2010,OilcropsPulses,0.0554047045886892
Bermuda,2010,OilcropsPulses,0.000153658684555848
Bolivia (Plurinational State of),2010,OilcropsPulses,0.0879733084797426
Bosnia and Herzegovina,2010,OilcropsPulses,0.0295153376386092
Botswana,2010,OilcropsPulses,0.0009942856133235
Brazil,2010,OilcropsPulses,3.81916188806345
Brunei Darussalam,2010,OilcropsPulses,0.00325073748265586
Bulgaria,2010,OilcropsPulses,0.0722570842805805
Burkina Faso,2010,OilcropsPulses,0.310620096524745
Cabo Verde,2010,OilcropsPulses,0.00467998840326607
Cambodia,2010,OilcropsPulses,0.00276933529092383
Cameroon,2010,OilcropsPulses,0.290813263944014
Canada,2010,OilcropsPulses,0.33587276751989
Caribbean,2010,OilcropsPulses,0.129806560329175
Central African Republic,2010,OilcropsPulses,0.0177776781749936
Central America,2010,OilcropsPulses,2.2792834513484
Central Asia,2010,OilcropsPulses,0.76116552352896
Chad,2010,OilcropsPulses,0.00371029828610784
Chile,2010,OilcropsPulses,0.180032745381102
China,2010,OilcropsPulses,29.089410884147
China Hong Kong SAR,2010,OilcropsPulses,0.0927264864903576
China Macao SAR,2010,OilcropsPulses,7.23417937141342e-05
China Taiwan Province of,2010,OilcropsPulses,0.329453667876416
China mainland,2010,OilcropsPulses,28.6671583879865
Colombia,2010,OilcropsPulses,0.460368984544766
Congo,2010,OilcropsPulses,0.01810214144965
Costa Rica,2010,OilcropsPulses,0.0915574081996406
Cote d'Ivoire,2010,OilcropsPulses,0.0165858404403542
Croatia,2010,OilcropsPulses,0.0591042417154643
Cuba,2010,OilcropsPulses,0.0268837331030316
Cyprus,2010,OilcropsPulses,0.0122571548174079
Czechia,2010,OilcropsPulses,0.158178610392544
Democratic People's Republic of Korea,2010,OilcropsPulses,0.0936777283295794
Denmark,2010,OilcropsPulses,0.367407505029874
Djibouti,2010,OilcropsPulses,0.100803383145922
Dominica,2010,OilcropsPulses,4.92915096993113e-05
Dominican Republic,2010,OilcropsPulses,0.0549799429039429
Eastern Africa,2010,OilcropsPulses,0.826947637958034
Eastern Asia,2010,OilcropsPulses,30.4441566416523
Eastern Europe,2010,OilcropsPulses,3.35394646802432
Ecuador,2010,OilcropsPulses,0.0870376842582675
Egypt,2010,OilcropsPulses,1.89469450313715
El Salvador,2010,OilcropsPulses,0.105975148912966
Estonia,2010,OilcropsPulses,0.0189899618067244
Ethiopia,2010,OilcropsPulses,0.0434347274123947
Europe,2010,OilcropsPulses,19.1324263274788
European Union,2010,OilcropsPulses,16.5042569099103
Fiji,2010,OilcropsPulses,0.0068539463492918
Finland,2010,OilcropsPulses,0.069254325984166
France,2010,OilcropsPulses,2.23131722454445
French Polynesia,2010,OilcropsPulses,0.000174233778341886
Gabon,2010,OilcropsPulses,0.014991051868005
Gambia,2010,OilcropsPulses,0.0514902291003461
Georgia,2010,OilcropsPulses,0.00171690737184448
Germany,2010,OilcropsPulses,3.78144779800501
Ghana,2010,OilcropsPulses,0.15746218020177
Greece,2010,OilcropsPulses,0.699803336742176
Grenada,2010,OilcropsPulses,5.97662918442818e-05
Guatemala,2010,OilcropsPulses,0.0933919613869452
Guinea,2010,OilcropsPulses,0.0980871282749427
Guinea-Bissau,2010,OilcropsPulses,0.00644894377664228
Guyana,2010,OilcropsPulses,0.00252359033348868
Haiti,2010,OilcropsPulses,0.0169165700972954
Honduras,2010,OilcropsPulses,0.15017879493739
Hungary,2010,OilcropsPulses,0.0559400567608256
Iceland,2010,OilcropsPulses,0.00418145757418827
India,2010,OilcropsPulses,6.21213984555879
Indonesia,2010,OilcropsPulses,4.14880881429958
Iran (Islamic Republic of),2010,OilcropsPulses,0.870293523745536
Iraq,2010,OilcropsPulses,0.125278170654753
Ireland,2010,OilcropsPulses,0.119225563188709
Israel,2010,OilcropsPulses,0.0370056605102943
Italy,2010,OilcropsPulses,1.87445486733599
Jamaica,2010,OilcropsPulses,0.0120304069545736
Japan,2010,OilcropsPulses,0.73244333352501
Jordan,2010,OilcropsPulses,0.00895686262661315
Kazakhstan,2010,OilcropsPulses,0.0315550096879339
Kenya,2010,OilcropsPulses,0.153731655229399
Kuwait,2010,OilcropsPulses,0.0405059551494102
Kyrgyzstan,2010,OilcropsPulses,0.032448217822109
Land Locked Developing Countries,2010,OilcropsPulses,2.12451887028382
Lao People's Democratic Republic,2010,OilcropsPulses,0.00224592424279486
Latvia,2010,OilcropsPulses,0.07638074512768
Least Developed Countries,2010,OilcropsPulses,4.85652324787183
Lebanon,2010,OilcropsPulses,0.0658383569595505
Lesotho,2010,OilcropsPulses,0
Lithuania,2010,OilcropsPulses,0.0717922191965371
Low Income Food Deficit Countries,2010,OilcropsPulses,15.1046061699689
Luxembourg,2010,OilcropsPulses,0.00298045826801355
Madagascar,2010,OilcropsPulses,0.0427864062248591
Malawi,2010,OilcropsPulses,0.0142735730846631
Malaysia,2010,OilcropsPulses,2.67548319807996
Maldives,2010,OilcropsPulses,0.00429362984358814
Mali,2010,OilcropsPulses,0.153320210695837
Malta,2010,OilcropsPulses,0.00330570939405447
Mauritania,2010,OilcropsPulses,0.00303294308431608
Mauritius,2010,OilcropsPulses,0.0338230481432859
Melanesia,2010,OilcropsPulses,0.0167216235699672
Mexico,2010,OilcropsPulses,1.77410829967879
Middle Africa,2010,OilcropsPulses,0.470558219507577
Mongolia,2010,OilcropsPulses,0.00065095480738022
Montenegro,2010,OilcropsPulses,0.00873502340326428
Morocco,2010,OilcropsPulses,0.519869539799719
Mozambique,2010,OilcropsPulses,0.0938773499652104
Myanmar,2010,OilcropsPulses,1.45060553475912
Namibia,2010,OilcropsPulses,0.00887606397141994
Nepal,2010,OilcropsPulses,0.127697241275188
Net Food Importing Developing Countries,2010,OilcropsPulses,11.3361107472914
Netherlands,2010,OilcropsPulses,1.09109542031413
New Caledonia,2010,OilcropsPulses,0.00078543393484705
New Zealand,2010,OilcropsPulses,0.0575601841916708
Nicaragua,2010,OilcropsPulses,0.0401634636397218
Niger,2010,OilcropsPulses,0.204738185945895
Nigeria,2010,OilcropsPulses,1.65452518239086
Northern Africa,2010,OilcropsPulses,2.84653220316849
Northern America,2010,OilcropsPulses,3.64887778140482
Northern Europe,2010,OilcropsPulses,2.29560078881106
Norway,2010,OilcropsPulses,0.25667151242372
Oceania,2010,OilcropsPulses,0.210988529081586
Oman,2010,OilcropsPulses,0.055142364574385
Pakistan,2010,OilcropsPulses,2.57142109486596
Panama,2010,OilcropsPulses,0.0232974276004602
Paraguay,2010,OilcropsPulses,0.0239325890482627
Peru,2010,OilcropsPulses,0.419940862854301
Philippines,2010,OilcropsPulses,0.102753034455784
Poland,2010,OilcropsPulses,0.669828624815502
Polynesia,2010,OilcropsPulses,0.0008462952132863
Portugal,2010,OilcropsPulses,0.474070258737592
Republic of Korea,2010,OilcropsPulses,0.527974262427836
Republic of Moldova,2010,OilcropsPulses,0.00427584256865525
Romania,2010,OilcropsPulses,0.0901248449128301
Russian Federation,2010,OilcropsPulses,1.61619510735268
Rwanda,2010,OilcropsPulses,0.00458604214937894
Saint Kitts and Nevis,2010,OilcropsPulses,0.000158281245026363
Saint Lucia,2010,OilcropsPulses,0.000634369782763486
Saint Vincent and the Grenadines,2010,OilcropsPulses,0.000224227138658475
Sao Tome and Principe,2010,OilcropsPulses,0.00457930072095614
Saudi Arabia,2010,OilcropsPulses,0.106084063946672
Senegal,2010,OilcropsPulses,0.153512828596377
Serbia,2010,OilcropsPulses,0.0342968425957073
Sierra Leone,2010,OilcropsPulses,0.0100666036767845
Slovakia,2010,OilcropsPulses,0.0885407132266312
Slovenia,2010,OilcropsPulses,0.0377145387179047
Small Island Developing States,2010,OilcropsPulses,0.208949744273576
Solomon Islands,2010,OilcropsPulses,0.00849889943197035
South Africa,2010,OilcropsPulses,0.493415088814451
South America,2010,OilcropsPulses,7.57745925999118
South-Eastern Asia,2010,OilcropsPulses,14.0102116461421
Southern Africa,2010,OilcropsPulses,0.504271010690003
Southern Asia,2010,OilcropsPulses,11.0695701847963
Southern Europe,2010,OilcropsPulses,5.10285890057279
Spain,2010,OilcropsPulses,1.84608601455648
Sri Lanka,2010,OilcropsPulses,0.130734270588785
Sudan (former),2010,OilcropsPulses,0.279150385006949
Suriname,2010,OilcropsPulses,0.00437761027494146
Swaziland,2010,OilcropsPulses,0.000985572290808427
Sweden,2010,OilcropsPulses,0.39923230597053
Switzerland,2010,OilcropsPulses,0.0521781566764558
Tajikistan,2010,OilcropsPulses,0.0276779745829686
Thailand,2010,OilcropsPulses,1.83146617553687
The former Yugoslav Republic of Macedonia,2010,OilcropsPulses,0.0109124902533774
Timor-Leste,2010,OilcropsPulses,0.000447
Togo,2010,OilcropsPulses,0.0224462081342247
Trinidad and Tobago,2010,OilcropsPulses,0.013331838574433
Tunisia,2010,OilcropsPulses,0.129541414485269
Turkey,2010,OilcropsPulses,1.72326345153568
Uganda,2010,OilcropsPulses,0.075007625530088
Ukraine,2010,OilcropsPulses,0.519459184850296
United Arab Emirates,2010,OilcropsPulses,0.446970386777207
United Kingdom,2010,OilcropsPulses,0.912463597979473
United Republic of Tanzania,2010,OilcropsPulses,0.198374078655109
United States of America,2010,OilcropsPulses,3.31285033332845
Uruguay,2010,OilcropsPulses,0.0262421418911946
Uzbekistan,2010,OilcropsPulses,0.541942631435595
Venezuela (Bolivarian Republic of),2010,OilcropsPulses,0.202031890050459
Viet Nam,2010,OilcropsPulses,3.79238189199445
Western Africa,2010,OilcropsPulses,2.90551724537462
Western Asia,2010,OilcropsPulses,2.6876989789419
Western Europe,2010,OilcropsPulses,8.38001966978318
World,2010,OilcropsPulses,99.5054656882392
Yemen,2010,OilcropsPulses,0.00572737472648413
Zambia,2010,OilcropsPulses,0.0166875470051323
Zimbabwe,2010,OilcropsPulses,0.0495627229970463
Timor-Leste,2010,Cereals,0
Africa,2010,Starchy Roots,14.5559892418882
Albania,2010,Starchy Roots,0.00328
Algeria,2010,Starchy Roots,0.015747
Americas,2010,Starchy Roots,3.47017
Angola,2010,Starchy Roots,0
Antigua and Barbuda,2010,Starchy Roots,0.000333
Argentina,2010,Starchy Roots,0.07318
Armenia,2010,Starchy Roots,0.001444
Asia,2010,Starchy Roots,22.099496375745
Australia,2010,Starchy Roots,0.04748
Australia & New Zealand,2010,Starchy Roots,0.064644
Austria,2010,Starchy Roots,0.086141
Azerbaijan,2010,Starchy Roots,0.020744
Bahamas,2010,Starchy Roots,0.00314
Bangladesh,2010,Starchy Roots,0.132339
Barbados,2010,Starchy Roots,0.00087
Belarus,2010,Starchy Roots,0
Belgium,2010,Starchy Roots,0.016843
Belize,2010,Starchy Roots,2.9e-05
Benin,2010,Starchy Roots,0.95
Bermuda,2010,Starchy Roots,0.00017
Bolivia (Plurinational State of),2010,Starchy Roots,0.013191
Bosnia and Herzegovina,2010,Starchy Roots,0.002085
Botswana,2010,Starchy Roots,0.000512
Brazil,2010,Starchy Roots,1.605401
Brunei Darussalam,2010,Starchy Roots,0.001568
Bulgaria,2010,Starchy Roots,0.020452
Burkina Faso,2010,Starchy Roots,0.000184
Cabo Verde,2010,Starchy Roots,5.1e-05
Cambodia,2010,Starchy Roots,3.384801
Cameroon,2010,Starchy Roots,0.103461241888225
Canada,2010,Starchy Roots,0.018572
Caribbean,2010,Starchy Roots,0.063459
Central African Republic,2010,Starchy Roots,0
Central America,2010,Starchy Roots,0.525428
Central Asia,2010,Starchy Roots,0.076417
Chad,2010,Starchy Roots,0
Chile,2010,Starchy Roots,0.023
China,2010,Starchy Roots,6.53546484758776
China Hong Kong SAR,2010,Starchy Roots,0.055243
China Macao SAR,2010,Starchy Roots,1.01592748065799e-05
China Taiwan Province of,2010,Starchy Roots,1.44030168831295
China mainland,2010,Starchy Roots,5.03991
Colombia,2010,Starchy Roots,0.22654
Congo,2010,Starchy Roots,9.3e-05
Costa Rica,2010,Starchy Roots,0.016368
Cote d'Ivoire,2010,Starchy Roots,0.000913
Croatia,2010,Starchy Roots,0.002409
Cuba,2010,Starchy Roots,0.053175
Cyprus,2010,Starchy Roots,0.002187
Czechia,2010,Starchy Roots,7e-06
Denmark,2010,Starchy Roots,0.002596
Djibouti,2010,Starchy Roots,0
Dominica,2010,Starchy Roots,0.002035
Dominican Republic,2010,Starchy Roots,0.00012
Eastern Africa,2010,Starchy Roots,2.319731
Eastern Asia,2010,Starchy Roots,6.58259112178621
Eastern Europe,2010,Starchy Roots,0.782245
Ecuador,2010,Starchy Roots,0.010115
Egypt,2010,Starchy Roots,0.001553
El Salvador,2010,Starchy Roots,0.005517
Estonia,2010,Starchy Roots,6.8e-05
Ethiopia,2010,Starchy Roots,0
Europe,2010,Starchy Roots,3.790541
European Union,2010,Starchy Roots,3.288659
Fiji,2010,Starchy Roots,0.029
Finland,2010,Starchy Roots,0.221465
France,2010,Starchy Roots,0.179697
French Polynesia,2010,Starchy Roots,0.001229
Gabon,2010,Starchy Roots,0.000745
Gambia,2010,Starchy Roots,0
Georgia,2010,Starchy Roots,0.00021
Germany,2010,Starchy Roots,0.28696
Ghana,2010,Starchy Roots,2.078509
Greece,2010,Starchy Roots,0.018483
Grenada,2010,Starchy Roots,0.000304
Guatemala,2010,Starchy Roots,0.304739
Guinea,2010,Starchy Roots,0.000333
Guinea-Bissau,2010,Starchy Roots,0
Guyana,2010,Starchy Roots,0.000249
Haiti,2010,Starchy Roots,0
Honduras,2010,Starchy Roots,0.005264
Hungary,2010,Starchy Roots,0.04758
Iceland,2010,Starchy Roots,1.3e-05
India,2010,Starchy Roots,0.006187
Indonesia,2010,Starchy Roots,9.656515
Iran (Islamic Republic of),2010,Starchy Roots,0.0064
Ireland,2010,Starchy Roots,0.049988
Israel,2010,Starchy Roots,0.107183
Italy,2010,Starchy Roots,0.241705
Jamaica,2010,Starchy Roots,0.002787
Japan,2010,Starchy Roots,0.010077
Jordan,2010,Starchy Roots,0.034044
Kazakhstan,2010,Starchy Roots,0.059637
Kenya,2010,Starchy Roots,0.003441
Kiribati,2010,Starchy Roots,0.000189
Kyrgyzstan,2010,Starchy Roots,0
Land Locked Developing Countries,2010,Starchy Roots,1.342579
Lao People's Democratic Republic,2010,Starchy Roots,0.2
Latvia,2010,Starchy Roots,0.002741
Least Developed Countries,2010,Starchy Roots,6.987201
Lebanon,2010,Starchy Roots,0.048684
Lesotho,2010,Starchy Roots,0
Liberia,2010,Starchy Roots,0
Lithuania,2010,Starchy Roots,0.000238
Low Income Food Deficit Countries,2010,Starchy Roots,14.5251262418882
Luxembourg,2010,Starchy Roots,0.000188
Madagascar,2010,Starchy Roots,0.25355
Malawi,2010,Starchy Roots,0.900042
Malaysia,2010,Starchy Roots,0.96607
Maldives,2010,Starchy Roots,0.000555
Mali,2010,Starchy Roots,4e-06
Malta,2010,Starchy Roots,0.002599
Mauritania,2010,Starchy Roots,1.6e-05
Mauritius,2010,Starchy Roots,0.003803
Melanesia,2010,Starchy Roots,0.029112
Mexico,2010,Starchy Roots,0.191817
Micronesia,2010,Starchy Roots,0.000189
Middle Africa,2010,Starchy Roots,0.104300241888225
Mongolia,2010,Starchy Roots,0
Montenegro,2010,Starchy Roots,0.000327
Morocco,2010,Starchy Roots,0
Mozambique,2010,Starchy Roots,1.118027
Myanmar,2010,Starchy Roots,0
Namibia,2010,Starchy Roots,0
Nepal,2010,Starchy Roots,0
Net Food Importing Developing Countries,2010,Starchy Roots,7.176049
Netherlands,2010,Starchy Roots,0.552061
Netherlands Antilles (former),2010,Starchy Roots,0
New Caledonia,2010,Starchy Roots,0.000112
New Zealand,2010,Starchy Roots,0.017164
Nicaragua,2010,Starchy Roots,0.000724
Niger,2010,Starchy Roots,0
Nigeria,2010,Starchy Roots,8.889227
Northern Africa,2010,Starchy Roots,0.019673
Northern America,2010,Starchy Roots,0.762126
Northern Europe,2010,Starchy Roots,1.129697
Norway,2010,Starchy Roots,0.01276
Oceania,2010,Starchy Roots,0.09533
Oman,2010,Starchy Roots,3.53146778607375e-05
Pakistan,2010,Starchy Roots,0.022905
Panama,2010,Starchy Roots,0.000969
Paraguay,2010,Starchy Roots,0.119287
Peru,2010,Starchy Roots,0.003097
Philippines,2010,Starchy Roots,0.295325
Poland,2010,Starchy Roots,0.169456
Polynesia,2010,Starchy Roots,0.001385
Portugal,2010,Starchy Roots,0.038335
Republic of Korea,2010,Starchy Roots,0.0370492741984526
Republic of Moldova,2010,Starchy Roots,0.00444
Romania,2010,Starchy Roots,0.070149
Russian Federation,2010,Starchy Roots,0.16368
Rwanda,2010,Starchy Roots,0
Saint Kitts and Nevis,2010,Starchy Roots,0.000182
Saint Lucia,2010,Starchy Roots,0.000153
Saint Vincent and the Grenadines,2010,Starchy Roots,0
Saudi Arabia,2010,Starchy Roots,0
Senegal,2010,Starchy Roots,0.005031
Serbia,2010,Starchy Roots,0.000608
Sierra Leone,2010,Starchy Roots,0
Slovakia,2010,Starchy Roots,1.6e-05
Slovenia,2010,Starchy Roots,0
Small Island Developing States,2010,Starchy Roots,0.100811
Solomon Islands,2010,Starchy Roots,0
South Africa,2010,Starchy Roots,0.185186
South America,2010,Starchy Roots,2.119157
South-Eastern Asia,2010,Starchy Roots,14.91452
Southern Africa,2010,Starchy Roots,0.187042
Southern Asia,2010,Starchy Roots,0.186017
Southern Europe,2010,Starchy Roots,0.749714
Spain,2010,Starchy Roots,0.436468
Sri Lanka,2010,Starchy Roots,0.017631
Sudan (former),2010,Starchy Roots,0.0011
Suriname,2010,Starchy Roots,0.001809
Swaziland,2010,Starchy Roots,0.001344
Sweden,2010,Starchy Roots,0.384903
Switzerland,2010,Starchy Roots,0.006996
Tajikistan,2010,Starchy Roots,0
Thailand,2010,Starchy Roots,0.410241
The former Yugoslav Republic of Macedonia,2010,Starchy Roots,0.003413
Togo,2010,Starchy Roots,0.000975
Trinidad and Tobago,2010,Starchy Roots,0.00036
Tunisia,2010,Starchy Roots,0.001273
Turkey,2010,Starchy Roots,0.0745
Uganda,2010,Starchy Roots,0.000516
Ukraine,2010,Starchy Roots,0.306466
United Arab Emirates,2010,Starchy Roots,0.0497409392808879
United Kingdom,2010,Starchy Roots,0.454925
United Republic of Tanzania,2010,Starchy Roots,0.039312
United States of America,2010,Starchy Roots,0.743384
Uruguay,2010,Starchy Roots,0.017359
Vanuatu,2010,Starchy Roots,0
Venezuela (Bolivarian Republic of),2010,Starchy Roots,0.025931
Western Africa,2010,Starchy Roots,11.925243
Western Asia,2010,Starchy Roots,0.339951253958749
Western Europe,2010,Starchy Roots,1.128885
World,2010,Starchy Roots,44.0115266176332
Yemen,2010,Starchy Roots,0.000647
Zambia,2010,Starchy Roots,0.000136
Zimbabwe,2010,Starchy Roots,0.000905
Democratic People's Republic of Korea,2010,Starchy Roots,0
Kuwait,2010,Starchy Roots,0.000533
Samoa,2010,Starchy Roots,0.000156
Sao Tome and Principe,2010,Starchy Roots,0
Timor-Leste,2010,Starchy Roots,0
Viet Nam,2010,Starchy Roots,0
Kiribati,2010,OilcropsPulses,0.0001455109117946
Micronesia,2010,OilcropsPulses,0.0001455109117946
Samoa,2010,OilcropsPulses,0.000672061434944414
Vanuatu,2010,OilcropsPulses,0.000583343853858028
Afghanistan,2010,OilcropsPulses,0.151015880875542
Turkmenistan,2010,OilcropsPulses,0.127542733169263
Afghanistan,2010,Monogastrics,0
Africa,2010,Monogastrics,0.01564
Albania,2010,Monogastrics,0
Algeria,2010,Monogastrics,2e-06
Americas,2010,Monogastrics,0.649332
Angola,2010,Monogastrics,0
Antigua and Barbuda,2010,Monogastrics,0.002979
Argentina,2010,Monogastrics,0
Armenia,2010,Monogastrics,0.006882
Asia,2010,Monogastrics,1.022477
Australia,2010,Monogastrics,0
Australia & New Zealand,2010,Monogastrics,0
Austria,2010,Monogastrics,0
Azerbaijan,2010,Monogastrics,0.00107
Bahamas,2010,Monogastrics,0.013298
Bangladesh,2010,Monogastrics,0
Barbados,2010,Monogastrics,0.006076
Belarus,2010,Monogastrics,2.1e-05
Belgium,2010,Monogastrics,0
Belize,2010,Monogastrics,0.0058
Benin,2010,Monogastrics,0
Bermuda,2010,Monogastrics,0.002824
Bolivia (Plurinational State of),2010,Monogastrics,0
Bosnia and Herzegovina,2010,Monogastrics,0
Botswana,2010,Monogastrics,0
Brazil,2010,Monogastrics,0
Brunei Darussalam,2010,Monogastrics,0
Bulgaria,2010,Monogastrics,0
Burkina Faso,2010,Monogastrics,0
Cabo Verde,2010,Monogastrics,0
Cambodia,2010,Monogastrics,0
Cameroon,2010,Monogastrics,0
Canada,2010,Monogastrics,0
Caribbean,2010,Monogastrics,0.042935
Central African Republic,2010,Monogastrics,0
Central America,2010,Monogastrics,0.0348
Central Asia,2010,Monogastrics,0.10563
Chad,2010,Monogastrics,0
Chile,2010,Monogastrics,0
China,2010,Monogastrics,0.621034
China Hong Kong SAR,2010,Monogastrics,0.148248
China Macao SAR,2010,Monogastrics,0.000965
China Taiwan Province of,2010,Monogastrics,0.002157
China mainland,2010,Monogastrics,0.469664
Colombia,2010,Monogastrics,0
Congo,2010,Monogastrics,0
Costa Rica,2010,Monogastrics,0
Cote d'Ivoire,2010,Monogastrics,0
Croatia,2010,Monogastrics,0
Cuba,2010,Monogastrics,0
Cyprus,2010,Monogastrics,0.01614
Czechia,2010,Monogastrics,0
Democratic People's Republic of Korea,2010,Monogastrics,0
Denmark,2010,Monogastrics,0
Djibouti,2010,Monogastrics,0
Dominica,2010,Monogastrics,0.002221
Dominican Republic,2010,Monogastrics,0
Eastern Africa,2010,Monogastrics,0.001157
Eastern Asia,2010,Monogastrics,0.621034
Eastern Europe,2010,Monogastrics,0.297029
Ecuador,2010,Monogastrics,0
Egypt,2010,Monogastrics,0
El Salvador,2010,Monogastrics,0
Estonia,2010,Monogastrics,0.000125
Ethiopia,2010,Monogastrics,0
Europe,2010,Monogastrics,0.369185
European Union,2010,Monogastrics,0.212022
Fiji,2010,Monogastrics,0.001035
Finland,2010,Monogastrics,0
France,2010,Monogastrics,0.012
French Polynesia,2010,Monogastrics,0.002873
Gabon,2010,Monogastrics,0.0095
Gambia,2010,Monogastrics,0
Georgia,2010,Monogastrics,7e-04
Germany,2010,Monogastrics,0
Ghana,2010,Monogastrics,0
Greece,2010,Monogastrics,0.020146
Grenada,2010,Monogastrics,0.00257
Guatemala,2010,Monogastrics,0
Guinea,2010,Monogastrics,0
Guinea-Bissau,2010,Monogastrics,0
Guyana,2010,Monogastrics,0
Haiti,2010,Monogastrics,0
Honduras,2010,Monogastrics,0
Hungary,2010,Monogastrics,0
Iceland,2010,Monogastrics,0
India,2010,Monogastrics,0
Indonesia,2010,Monogastrics,0
Iran (Islamic Republic of),2010,Monogastrics,0
Iraq,2010,Monogastrics,0
Ireland,2010,Monogastrics,0
Israel,2010,Monogastrics,0.04
Italy,2010,Monogastrics,0
Jamaica,2010,Monogastrics,0
Japan,2010,Monogastrics,0
Jordan,2010,Monogastrics,0
Kazakhstan,2010,Monogastrics,0.002359
Kenya,2010,Monogastrics,0
Kiribati,2010,Monogastrics,0.000181
Kuwait,2010,Monogastrics,0.015
Kyrgyzstan,2010,Monogastrics,0.048234
Land Locked Developing Countries,2010,Monogastrics,0.113582
Lao People's Democratic Republic,2010,Monogastrics,0
Latvia,2010,Monogastrics,0
Least Developed Countries,2010,Monogastrics,0.000392
Lebanon,2010,Monogastrics,0.000635
Lesotho,2010,Monogastrics,0
Liberia,2010,Monogastrics,0
Lithuania,2010,Monogastrics,0.00024
Low Income Food Deficit Countries,2010,Monogastrics,0.093482
Luxembourg,2010,Monogastrics,0
Madagascar,2010,Monogastrics,0
Malawi,2010,Monogastrics,0
Malaysia,2010,Monogastrics,0.190555
Maldives,2010,Monogastrics,0.0042
Mali,2010,Monogastrics,0
Malta,2010,Monogastrics,0.004397
Mauritania,2010,Monogastrics,0
Mauritius,2010,Monogastrics,0.001157
Melanesia,2010,Monogastrics,0.005196
Mexico,2010,Monogastrics,0
Micronesia,2010,Monogastrics,0.000181
Middle Africa,2010,Monogastrics,0.0095
Mongolia,2010,Monogastrics,0
Montenegro,2010,Monogastrics,0
Morocco,2010,Monogastrics,0
Mozambique,2010,Monogastrics,0
Myanmar,2010,Monogastrics,0
Namibia,2010,Monogastrics,0
Nepal,2010,Monogastrics,0
Net Food Importing Developing Countries,2010,Monogastrics,0.536535
Netherlands,2010,Monogastrics,0
Netherlands Antilles (former),2010,Monogastrics,0.001894
New Caledonia,2010,Monogastrics,0.004161
New Zealand,2010,Monogastrics,0
Nicaragua,2010,Monogastrics,0
Niger,2010,Monogastrics,0
Nigeria,2010,Monogastrics,0
Northern Africa,2010,Monogastrics,0.004983
Northern America,2010,Monogastrics,0.072824
Northern Europe,2010,Monogastrics,0.013365
Norway,2010,Monogastrics,0.013
Oceania,2010,Monogastrics,0.009885
Oman,2010,Monogastrics,0.006545
Pakistan,2010,Monogastrics,0
Panama,2010,Monogastrics,0.029
Paraguay,2010,Monogastrics,0
Peru,2010,Monogastrics,0.488773
Philippines,2010,Monogastrics,0
Poland,2010,Monogastrics,0.114226
Polynesia,2010,Monogastrics,0.004508
Portugal,2010,Monogastrics,0.022249
Republic of Korea,2010,Monogastrics,0
Republic of Moldova,2010,Monogastrics,0
Romania,2010,Monogastrics,0.0225
Russian Federation,2010,Monogastrics,0.000482
Rwanda,2010,Monogastrics,0
Saint Kitts and Nevis,2010,Monogastrics,0.00138
Saint Lucia,2010,Monogastrics,0.000517
Saint Vincent and the Grenadines,2010,Monogastrics,0
Samoa,2010,Monogastrics,0.001636
Sao Tome and Principe,2010,Monogastrics,0
Saudi Arabia,2010,Monogastrics,0
Senegal,2010,Monogastrics,0
Serbia,2010,Monogastrics,0
Sierra Leone,2010,Monogastrics,0
Slovakia,2010,Monogastrics,0
Slovenia,2010,Monogastrics,0
Small Island Developing States,2010,Monogastrics,0.074907
Solomon Islands,2010,Monogastrics,0
South Africa,2010,Monogastrics,0
South America,2010,Monogastrics,0.498773
South-Eastern Asia,2010,Monogastrics,0.190555
Southern Africa,2010,Monogastrics,0
Southern Asia,2010,Monogastrics,0.0042
Southern Europe,2010,Monogastrics,0.046792
Spain,2010,Monogastrics,0
Sri Lanka,2010,Monogastrics,0
Sudan (former),2010,Monogastrics,0.000211
Suriname,2010,Monogastrics,0.01
Swaziland,2010,Monogastrics,0
Sweden,2010,Monogastrics,0
Switzerland,2010,Monogastrics,0
Tajikistan,2010,Monogastrics,0.005362
Thailand,2010,Monogastrics,0
The former Yugoslav Republic of Macedonia,2010,Monogastrics,0
Timor-Leste,2010,Monogastrics,0
Togo,2010,Monogastrics,0
Trinidad and Tobago,2010,Monogastrics,0.012
Tunisia,2010,Monogastrics,0.004771
Turkey,2010,Monogastrics,0
Turkmenistan,2010,Monogastrics,0.01
Uganda,2010,Monogastrics,0
Ukraine,2010,Monogastrics,0.1598
United Arab Emirates,2010,Monogastrics,0.014087
United Kingdom,2010,Monogastrics,0
United Republic of Tanzania,2010,Monogastrics,0
United States of America,2010,Monogastrics,0.07
Uruguay,2010,Monogastrics,0
Uzbekistan,2010,Monogastrics,0.039675
Vanuatu,2010,Monogastrics,0
Venezuela (Bolivarian Republic of),2010,Monogastrics,0
Viet Nam,2010,Monogastrics,0
Western Africa,2010,Monogastrics,0
Western Asia,2010,Monogastrics,0.101059
Western Europe,2010,Monogastrics,0.012
World,2010,Monogastrics,2.06652
Yemen,2010,Monogastrics,0
Zambia,2010,Monogastrics,0
Zimbabwe,2010,Monogastrics,0
Liberia,2010,OilcropsPulses,0.00309544995512017
Afghanistan,2010,Sugar,0
Africa,2010,Sugar,13.2432711255194
Albania,2010,Sugar,0.0503532909168441
Algeria,2010,Sugar,1.211338300029
Americas,2010,Sugar,474.29546478689
Angola,2010,Sugar,0.439405219838401
Antigua and Barbuda,2010,Sugar,0.00277016334245949
Argentina,2010,Sugar,0
Armenia,2010,Sugar,0.000171941172980244
Asia,2010,Sugar,57.1212929512894
Australia,2010,Sugar,6.30645834256939
Australia & New Zealand,2010,Sugar,6.30645834256939
Austria,2010,Sugar,0.415314351046392
Azerbaijan,2010,Sugar,0.180627145962777
Bahamas,2010,Sugar,0.0015793115147815
Bangladesh,2010,Sugar,2.76878144488405
Barbados,2010,Sugar,0.055664362704456
Belarus,2010,Sugar,0.00582052711496085
Belgium,2010,Sugar,0.686826159186089
Belize,2010,Sugar,0.0103801522947333
Benin,2010,Sugar,0.0152836598204661
Bermuda,2010,Sugar,0.000522191710532593
Bolivia (Plurinational State of),2010,Sugar,0.779785060423366
Bosnia and Herzegovina,2010,Sugar,0.43608102382745
Botswana,2010,Sugar,0.116697110920851
Brazil,2010,Sugar,447.801580026607
Brunei Darussalam,2010,Sugar,0.00795387129823425
Bulgaria,2010,Sugar,0.000694132883512837
Burkina Faso,2010,Sugar,0.147403043136978
Cabo Verde,2010,Sugar,0.05191349785685
Cambodia,2010,Sugar,0.14
Cameroon,2010,Sugar,0
Canada,2010,Sugar,0.000908
Caribbean,2010,Sugar,0.216060004328656
Central African Republic,2010,Sugar,0
Central America,2010,Sugar,7.92021557232814
Central Asia,2010,Sugar,3.31885673042957
Chad,2010,Sugar,0.0846969481717498
Chile,2010,Sugar,0
China,2010,Sugar,0.0504997593234568
China Hong Kong SAR,2010,Sugar,0.0390242780749235
China Macao SAR,2010,Sugar,0.000936124164003551
China Taiwan Province of,2010,Sugar,0.0105393570845298
China mainland,2010,Sugar,0
Colombia,2010,Sugar,2.78129760081544
Congo,2010,Sugar,0
Costa Rica,2010,Sugar,0.418638547057343
Cote d'Ivoire,2010,Sugar,0
Croatia,2010,Sugar,0
Cuba,2010,Sugar,0.0926762922363515
Cyprus,2010,Sugar,0.00718968830721094
Czechia,2010,Sugar,0
Democratic People's Republic of Korea,2010,Sugar,0
Denmark,2010,Sugar,0.138438117015464
Djibouti,2010,Sugar,0
Dominica,2010,Sugar,0.000694132883512837
Dominican Republic,2010,Sugar,0
Eastern Africa,2010,Sugar,2.20861015170137
Eastern Asia,2010,Sugar,1.85178096023086
Eastern Europe,2010,Sugar,0.157047735388593
Ecuador,2010,Sugar,5.39895885436195
Egypt,2010,Sugar,5.3472049067042
El Salvador,2010,Sugar,0.178468569361901
Estonia,2010,Sugar,0.00433673847405727
Ethiopia,2010,Sugar,0
Europe,2010,Sugar,11.2393847545676
European Union,2010,Sugar,10.7186832008675
Fiji,2010,Sugar,0.160440218965343
Finland,2010,Sugar,0.0269947641578983
France,2010,Sugar,5.108328
French Polynesia,2010,Sugar,0.0254663981758517
Gabon,2010,Sugar,0
Gambia,2010,Sugar,0.290720682551633
Georgia,2010,Sugar,0
Germany,2010,Sugar,2.62863665252197
Ghana,2010,Sugar,0
Greece,2010,Sugar,0.0346111213017639
Grenada,2010,Sugar,0.00420300645062819
Guatemala,2010,Sugar,2.13656619799995
Guinea,2010,Sugar,0.0865544427962263
Guyana,2010,Sugar,0.39030492803438
Haiti,2010,Sugar,0
Honduras,2010,Sugar,0.207660359618992
Hungary,2010,Sugar,0.00135181915918609
Iceland,2010,Sugar,0.00427305655813866
India,2010,Sugar,20.3782130939548
Indonesia,2010,Sugar,3.78503656368799
Iran (Islamic Republic of),2010,Sugar,0
Iraq,2010,Sugar,0.17305560650882
Ireland,2010,Sugar,0
Israel,2010,Sugar,1.66126377237716
Italy,2010,Sugar,0.338696797046754
Jamaica,2010,Sugar,0
Japan,2010,Sugar,0.103744209223006
Jordan,2010,Sugar,0
Kazakhstan,2010,Sugar,0.020471
Kenya,2010,Sugar,0
Kiribati,2010,Sugar,0.00308220473046067
Kuwait,2010,Sugar,0
Kyrgyzstan,2010,Sugar,0
Land Locked Developing Countries,2010,Sugar,7.57259149593217
Lao People's Democratic Republic,2010,Sugar,0.504095010349815
Latvia,2010,Sugar,0.00138826576702567
Least Developed Countries,2010,Sugar,8.49384830474726
Lebanon,2010,Sugar,0.144621631051161
Liberia,2010,Sugar,0.0136916119225009
Lithuania,2010,Sugar,0.00978154228509833
Low Income Food Deficit Countries,2010,Sugar,31.6123238042438
Luxembourg,2010,Sugar,0.0062854051011667
Madagascar,2010,Sugar,2.169
Malawi,2010,Sugar,0
Malaysia,2010,Sugar,0.00804939417211216
Mali,2010,Sugar,0.019
Malta,2010,Sugar,0.089358464416992
Mauritania,2010,Sugar,0.485396299514821
Mauritius,2010,Sugar,0.0138762894786649
Melanesia,2010,Sugar,0.188390211862021
Mexico,2010,Sugar,3.59407654828623
Micronesia,2010,Sugar,0.00308220473046067
Middle Africa,2010,Sugar,0.524102168010151
Mongolia,2010,Sugar,0
Montenegro,2010,Sugar,0.027695265233003
Morocco,2010,Sugar,0.205425124370249
Mozambique,2010,Sugar,0
Myanmar,2010,Sugar,0.5
Namibia,2010,Sugar,0
Nepal,2010,Sugar,0
Net Food Importing Developing Countries,2010,Sugar,18.265931494287
Netherlands,2010,Sugar,0.800589942353975
Netherlands Antilles (former),2010,Sugar,0.0415460819453004
New Caledonia,2010,Sugar,0.0277589471489216
New Zealand,2010,Sugar,0
Nicaragua,2010,Sugar,0.836809879938567
Niger,2010,Sugar,0
Nigeria,2010,Sugar,0.793991
Northern Africa,2010,Sugar,6.76397469929504
Northern America,2010,Sugar,6.19487223809917
Northern Europe,2010,Sugar,0.251212421915728
Norway,2010,Sugar,0
Oceania,2010,Sugar,6.54762175815316
Oman,2010,Sugar,0.00117547276636744
Pakistan,2010,Sugar,0
Panama,2010,Sugar,0.537615317770422
Paraguay,2010,Sugar,0.911914311602355
Peru,2010,Sugar,1.69151905063009
Philippines,2010,Sugar,0.247633498241103
Poland,2010,Sugar,0.145513177874021
Polynesia,2010,Sugar,0.0496909989912905
Portugal,2010,Sugar,0.101012255030097
Republic of Korea,2010,Sugar,1.6975369916844
Republic of Moldova,2010,Sugar,0
Romania,2010,Sugar,0
Russian Federation,2010,Sugar,0.00366807835691187
Rwanda,2010,Sugar,0.0257338622227099
Saint Kitts and Nevis,2010,Sugar,0.000668660117145393
Saint Lucia,2010,Sugar,0.00207603045894665
Saint Vincent and the Grenadines,2010,Sugar,0.0141883308666661
Samoa,2010,Sugar,0.0242246008154388
Saudi Arabia,2010,Sugar,0
Senegal,2010,Sugar,0.242265112729164
Serbia,2010,Sugar,0
Sierra Leone,2010,Sugar,0
Slovakia,2010,Sugar,0
Slovenia,2010,Sugar,0.0381136266772874
Small Island Developing States,2010,Sugar,0.931766786323944
Solomon Islands,2010,Sugar,0.000191045747755827
South Africa,2010,Sugar,0
South America,2010,Sugar,459.964323340325
South-Eastern Asia,2010,Sugar,21.7080525919926
Southern Africa,2010,Sugar,1.60030744245987
Southern Asia,2010,Sugar,23.3342384762144
Southern Europe,2010,Sugar,1.18514408705372
Spain,2010,Sugar,0.0692222426035279
Sri Lanka,2010,Sugar,0.179691262147539
Sudan (former),2010,Sugar,0
Suriname,2010,Sugar,0.0415333455621167
Swaziland,2010,Sugar,1.48361033153902
Sweden,2010,Sugar,0
Switzerland,2010,Sugar,0
Tajikistan,2010,Sugar,0.764819810182493
Thailand,2010,Sugar,9.55228738779133
The former Yugoslav Republic of Macedonia,2010,Sugar,0
Togo,2010,Sugar,5.09455327348871e-05
Trinidad and Tobago,2010,Sugar,0
Tunisia,2010,Sugar,0
Turkey,2010,Sugar,1.05229908321387
Turkmenistan,2010,Sugar,0.602341769907754
Uganda,2010,Sugar,0
Ukraine,2010,Sugar,0
United Arab Emirates,2010,Sugar,3.12945671207228
United Kingdom,2010,Sugar,0.0659999376580463
United Republic of Tanzania,2010,Sugar,0
United States of America,2010,Sugar,6.19344204638864
Uruguay,2010,Sugar,0
Uzbekistan,2010,Sugar,1.93122415033933
Vanuatu,2010,Sugar,0
Venezuela (Bolivarian Republic of),2010,Sugar,0.167430162288533
Viet Nam,2010,Sugar,6.96300323464357
Western Africa,2010,Sugar,2.14627666405297
Western Asia,2010,Sugar,6.90836419242201
Western Europe,2010,Sugar,9.64598051020959
World,2010,Sugar,562.447035376419
Yemen,2010,Sugar,0.558496770797792
Zambia,2010,Sugar,0
Zimbabwe,2010,Sugar,0
Netherlands Antilles (former),2010,OilcropsPulses,0.00050796292386394
Afghanistan,2010,Starchy Roots,0
Iraq,2010,Starchy Roots,0
Turkmenistan,2010,Starchy Roots,0
Uzbekistan,2010,Starchy Roots,0.01678
Guinea-Bissau,2010,Sugar,0
Lesotho,2010,Sugar,0
Maldives,2010,Sugar,0.00755267522794701
Sao Tome and Principe,2010,Sugar,0
Timor-Leste,2010,Sugar,0
