MODEL,SCENARIO,REGION,Variable,Unit,Year,value
PLUM,BAU,World,Agricultural Demand|Bioenergy|1st generation,million t DM/yr,2000,20
PLUM,BAU,World,Agricultural Demand|Bioenergy|1st generation,million t DM/yr,2005,23
PLUM,BAU,World,Agricultural Demand|Bioenergy|1st generation,million t DM/yr,2010,27
PLUM,BAU,World,Agricultural Demand|Bioenergy|1st generation,million t DM/yr,2015,30
PLUM,BAU,World,Agricultural Demand|Bioenergy|1st generation,million t DM/yr,2020,34
PLUM,BAU,World,Agricultural Demand|Bioenergy|1st generation,million t DM/yr,2025,38
PLUM,BAU,World,Agricultural Demand|Bioenergy|1st generation,million t DM/yr,2030,41
PLUM,BAU,World,Agricultural Demand|Bioenergy|1st generation,million t DM/yr,2035,43
PLUM,BAU,World,Agricultural Demand|Bioenergy|1st generation,million t DM/yr,2040,43
PLUM,BAU,World,Agricultural Demand|Bioenergy|1st generation,million t DM/yr,2045,41
PLUM,BAU,World,Agricultural Demand|Bioenergy|1st generation,million t DM/yr,2050,38
PLUM,BAU,World,Agricultural Demand|Bioenergy|1st generation,million t DM/yr,2055,32
PLUM,BAU,World,Agricultural Demand|Bioenergy|1st generation,million t DM/yr,2060,29
PLUM,BAU,World,Agricultural Demand|Bioenergy|1st generation,million t DM/yr,2065,26
PLUM,BAU,World,Agricultural Demand|Bioenergy|1st generation,million t DM/yr,2070,25
PLUM,BAU,World,Agricultural Demand|Bioenergy|1st generation,million t DM/yr,2075,24
PLUM,BAU,World,Agricultural Demand|Bioenergy|1st generation,million t DM/yr,2080,24
PLUM,BAU,World,Agricultural Demand|Bioenergy|1st generation,million t DM/yr,2085,23
PLUM,BAU,World,Agricultural Demand|Bioenergy|1st generation,million t DM/yr,2090,23
PLUM,BAU,World,Agricultural Demand|Bioenergy|1st generation,million t DM/yr,2095,22
PLUM,BAU,World,Agricultural Demand|Bioenergy|1st generation,million t DM/yr,2100,22
PLUM,BAU,World,Agricultural Demand|Bioenergy|2nd generation,million t DM/yr,2000,0
PLUM,BAU,World,Agricultural Demand|Bioenergy|2nd generation,million t DM/yr,2005,0
PLUM,BAU,World,Agricultural Demand|Bioenergy|2nd generation,million t DM/yr,2010,0
PLUM,BAU,World,Agricultural Demand|Bioenergy|2nd generation,million t DM/yr,2015,90
PLUM,BAU,World,Agricultural Demand|Bioenergy|2nd generation,million t DM/yr,2020,230
PLUM,BAU,World,Agricultural Demand|Bioenergy|2nd generation,million t DM/yr,2025,500
PLUM,BAU,World,Agricultural Demand|Bioenergy|2nd generation,million t DM/yr,2030,1000
PLUM,BAU,World,Agricultural Demand|Bioenergy|2nd generation,million t DM/yr,2035,1700
PLUM,BAU,World,Agricultural Demand|Bioenergy|2nd generation,million t DM/yr,2040,2500
PLUM,BAU,World,Agricultural Demand|Bioenergy|2nd generation,million t DM/yr,2045,2700
PLUM,BAU,World,Agricultural Demand|Bioenergy|2nd generation,million t DM/yr,2050,2900
PLUM,BAU,World,Agricultural Demand|Bioenergy|2nd generation,million t DM/yr,2055,2950
PLUM,BAU,World,Agricultural Demand|Bioenergy|2nd generation,million t DM/yr,2060,2800
PLUM,BAU,World,Agricultural Demand|Bioenergy|2nd generation,million t DM/yr,2065,3000
PLUM,BAU,World,Agricultural Demand|Bioenergy|2nd generation,million t DM/yr,2070,3100
PLUM,BAU,World,Agricultural Demand|Bioenergy|2nd generation,million t DM/yr,2075,3300
PLUM,BAU,World,Agricultural Demand|Bioenergy|2nd generation,million t DM/yr,2080,3700
PLUM,BAU,World,Agricultural Demand|Bioenergy|2nd generation,million t DM/yr,2085,3800
PLUM,BAU,World,Agricultural Demand|Bioenergy|2nd generation,million t DM/yr,2090,3900
PLUM,BAU,World,Agricultural Demand|Bioenergy|2nd generation,million t DM/yr,2095,4000
PLUM,BAU,World,Agricultural Demand|Bioenergy|2nd generation,million t DM/yr,2100,4000
