"Country","Region"
"Afghanistan","South Asia"
"Albania","Southern Europe"
"Algeria","North Africa"
"Angola","Central Africa"
"Antigua and Barbuda","Carribean"
"Argentina","South America"
"Armenia","West Asia"
"Armenia","Eastern Europe"
"Australia","Australia & NZ"
"Austria","Western Europe"
"Azerbaijan","Eastern Europe"
"Bahamas","Carribean"
"Bangladesh","South Asia"
"Barbados","Carribean"
"Belarus","Eastern Europe"
"Belgium","Western Europe"
"Belize","Central America"
"Benin","West Africa"
"Bermuda","North America"
"Bolivia (Plurinational State of)","South America"
"Bosnia and Herzegovina","Eastern Europe"
"Botswana","South Africa"
"Brazil","South America"
"Brunei Darussalam","South-East Asia"
"Bulgaria","Eastern Europe"
"Burkina Faso","West Africa"
"Cabo Verde","West Africa"
"Cambodia","South-East Asia"
"Cameroon","Central Africa"
"Canada","North America"
"Central African Republic","Central Africa"
"Chad","Central Africa"
"Chile","South America"
"China","East Asia"
"Colombia","South America"
"Congo","Central Africa"
"Costa Rica","Central America"
"Cote d'Ivoire","West Africa"
"Croatia","Eastern Europe"
"Cuba","Carribean"
"Cyprus","West Asia"
"Czechia","Eastern Europe"
"Democratic People's Republic of Korea","East Asia"
"Denmark","Northern Europe"
"Djibouti","East Africa"
"Dominica","Carribean"
"Dominican Republic","Carribean"
"Ecuador","South America"
"Egypt","North Africa"
"El Salvador","Central America"
"Eritrea","East Africa"
"Estonia","Eastern Europe"
"Ethiopia","East Africa"
"Fiji","Melanesia"
"Finland","Northern Europe"
"France","Western Europe"
"French Polynesia","Polynesia"
"Gabon","Central Africa"
"Gambia","West Africa"
"Georgia","Eastern Europe"
"Germany","Western Europe"
"Ghana","West Africa"
"Greece","Southern Europe"
"Grenada","Carribean"
"Guatemala","Central America"
"Guinea","West Africa"
"Guinea-Bissau","West Africa"
"Guyana","South America"
"Haiti","Carribean"
"Honduras","Central America"
"Hungary","Eastern Europe"
"India","South Asia"
"Indonesia","South-East Asia"
"Iran (Islamic Republic of)","South Asia"
"Iraq","West Asia"
"Ireland","Northern Europe"
"Israel","West Asia"
"Italy","Southern Europe"
"Jamaica","Carribean"
"Japan","East Asia"
"Jordan","West Asia"
"Kazakhstan","West Asia"
"Kenya","East Africa"
"Kiribati","Micronesia"
"Kuwait","West Asia"
"Kyrgyzstan","West Asia"
"Lao People's Democratic Republic","South-East Asia"
"Latvia","Eastern Europe"
"Lebanon","West Asia"
"Lesotho","South Africa"
"Liberia","West Africa"
"Lithuania","Eastern Europe"
"Luxembourg","Western Europe"
"Madagascar","East Africa"
"Malawi","East Africa"
"Malaysia","South-East Asia"
"Maldives","South Asia"
"Mali","West Africa"
"Malta","Southern Europe"
"Mauritania","West Africa"
"Mauritius","East Africa"
"Mexico","Central America"
"Mongolia","East Asia"
"Montenegro","Eastern Europe"
"Morocco","North Africa"
"Mozambique","East Africa"
"Myanmar","South-East Asia"
"Namibia","South Africa"
"Nepal","South Asia"
"Netherlands","Western Europe"
"New Caledonia","Melanesia"
"New Zealand","Australia & NZ"
"Nicaragua","Central America"
"Niger","West Africa"
"Nigeria","West Africa"
"Norway","Northern Europe"
"Oman","West Asia"
"Pakistan","South Asia"
"Panama","Central America"
"Paraguay","South America"
"Peru","South America"
"Philippines","South-East Asia"
"Poland","Eastern Europe"
"Portugal","Southern Europe"
"Republic of Korea","East Asia"
"Republic of Moldova","Eastern Europe"
"Romania","Eastern Europe"
"Russian Federation","Eastern Europe"
"Rwanda","East Africa"
"Saint Kitts and Nevis","Carribean"
"Saint Lucia","Carribean"
"Saint Vincent and the Grenadines","Carribean"
"Samoa","Polynesia"
"Sao Tome and Principe","Central Africa"
"Saudi Arabia","West Asia"
"Senegal","West Africa"
"Serbia","Eastern Europe"
"Sierra Leone","West Africa"
"Slovakia","Eastern Europe"
"Slovenia","Eastern Europe"
"Solomon Islands","Melanesia"
"Somalia","East Africa"
"South Africa","South Africa"
"South Sudan","East Africa"
"Spain","Southern Europe"
"Sri Lanka","South Asia"
"Sudan","North Africa"
"Suriname","South America"
"Swaziland","South Africa"
"Sweden","Northern Europe"
"Switzerland","Western Europe"
"Tajikistan","West Asia"
"Thailand","South-East Asia"
"The former Yugoslav Republic of Macedonia","Eastern Europe"
"Togo","West Africa"
"Trinidad and Tobago","Carribean"
"Tunisia","North Africa"
"Turkey","West Asia"
"Turkmenistan","West Asia"
"Uganda","East Africa"
"Ukraine","Eastern Europe"
"United Arab Emirates","West Asia"
"United Kingdom","Northern Europe"
"United Republic of Tanzania","East Africa"
"United States of America","North America"
"Uruguay","South America"
"Uzbekistan","West Asia"
"Vanuatu","Melanesia"
"Venezuela (Bolivarian Republic of)","South America"
"Viet Nam","South-East Asia"
"Yemen","West Asia"
"Zambia","East Africa"
"Zimbabwe","East Africa"
