CountryCode,numCode,Country,Region,IncomeGroup,PlumGroup,population
NZL,554,New Zealand,East Asia & Pacific,High income: OECD,Australia & NZ,4.3507
AUS,36,Australia,East Asia & Pacific,High income: OECD,Australia & NZ,22.03175
NCL,540,New Caledonia,East Asia & Pacific,High income: nonOECD,Australia & NZ,0
CHN,159,China,East Asia & Pacific,Upper middle income,China,1337.705
TUV,798,Tuvalu,East Asia & Pacific,Upper middle income,East Asia & Pacific_other,0.009827
PLW,585,Palau,East Asia & Pacific,Upper middle income,East Asia & Pacific_other,0.02047
MHL,584,Marshall Islands,East Asia & Pacific,Upper middle income,East Asia & Pacific_other,0.052428
KIR,296,Kiribati,East Asia & Pacific,Lower middle income,East Asia & Pacific_other,0.102648
FSM,583,Micronesia (Federated States of),East Asia & Pacific,Lower middle income,East Asia & Pacific_other,0.103619
TON,776,Tonga,East Asia & Pacific,Upper middle income,East Asia & Pacific_other,0.103947
WSM,882,Samoa,East Asia & Pacific,Lower middle income,East Asia & Pacific_other,0.186029
VUT,548,Vanuatu,East Asia & Pacific,Lower middle income,East Asia & Pacific_other,0.236299
BRN,96,Brunei Darussalam,East Asia & Pacific,High income: nonOECD,East Asia & Pacific_other,0.393302
SLB,90,Solomon Islands,East Asia & Pacific,Lower middle income,East Asia & Pacific_other,0.526177
MAC,446,Macau,East Asia & Pacific,High income: nonOECD,East Asia & Pacific_other,0.534626
FJI,242,Fiji,East Asia & Pacific,Upper middle income,East Asia & Pacific_other,0.859952
LAO,418,Lao People's Democratic Republic,East Asia & Pacific,Lower middle income,East Asia & Pacific_other,6.260544
PNG,598,Papua New Guinea,East Asia & Pacific,Lower middle income,East Asia & Pacific_other,6.847517
PYF,258,French Polynesia,East Asia & Pacific,High income: nonOECD,East Asia & Pacific_other,0
PRK,408,Democratic People's Republic of Korea,East Asia & Pacific,Low income,East Asia & Pacific_other,0
IDN,360,Indonesia,East Asia & Pacific,Lower middle income,Indonesia,241.613126
JPN,392,Japan,East Asia & Pacific,High income: OECD,Japan,128.07
MNG,496,Mongolia,East Asia & Pacific,Lower middle income,Mongolia,2.712657
MMR,104,Myanmar,East Asia & Pacific,Low income,Myanmar,51.733013
SGP,702,Singapore,East Asia & Pacific,High income: nonOECD,Philippines & Malaysia,5.076732
MYS,458,Malaysia,East Asia & Pacific,Upper middle income,Philippines & Malaysia,28.1195
PHL,608,Philippines,East Asia & Pacific,Lower middle income,Philippines & Malaysia,93.038902
KOR,410,Republic of Korea,East Asia & Pacific,High income: OECD,Republic of Korea,49.410366
THA,764,Thailand,East Asia & Pacific,Upper middle income,Thailand,66.692024
KHM,116,Cambodia,East Asia & Pacific,Low income,Viet Nam & Cambodia,14.363586
VNM,704,Viet Nam,East Asia & Pacific,Lower middle income,Viet Nam & Cambodia,86.9325
ALB,8,Albania,Europe & Central Asia,Upper middle income,Eastern Europe,2.913021
ARM,51,Armenia,Europe & Central Asia,Lower middle income,Eastern Europe,2.963496
SVK,703,Slovakia,Europe & Central Asia,High income: OECD,Eastern Europe,5.391428
SRB,688,Serbia,Europe & Central Asia,Upper middle income,Eastern Europe,7.291436
BGR,100,Bulgaria,Europe & Central Asia,Upper middle income,Eastern Europe,7.395599
HUN,348,Hungary,Europe & Central Asia,Upper middle income,Eastern Europe,10.000023
CZE,203,Czechia,Europe & Central Asia,High income: OECD,Eastern Europe,10.47441
ROU,642,Romania,Europe & Central Asia,Upper middle income,Eastern Europe,20.246871
MNE,499,Montenegro,Europe & Central Asia,Upper middle income,ex-Yugoslavia,0.619428
SVN,705,Slovenia,Europe & Central Asia,High income: OECD,ex-Yugoslavia,2.048583
MKD,807,The former Yugoslav Republic of Macedonia,Europe & Central Asia,Upper middle income,ex-Yugoslavia,2.062443
MDA,498,Republic of Moldova,Europe & Central Asia,Lower middle income,ex-Yugoslavia,3.562045
BIH,70,Bosnia and Herzegovina,Europe & Central Asia,Upper middle income,ex-Yugoslavia,3.835258
HRV,191,Croatia,Europe & Central Asia,High income: nonOECD,ex-Yugoslavia,4.417781
LUX,442,Luxembourg,Europe & Central Asia,High income: OECD,France Netherlands & Benlex,0.506953
IRL,372,Ireland,Europe & Central Asia,High income: OECD,Ireland,4.560155
BEL,56,Belgium,Europe & Central Asia,High income: OECD,France Netherlands & Benlex,10.895586
NLD,528,Netherlands,Europe & Central Asia,High income: OECD,France Netherlands & Benlex,16.615394
FRA,250,France,Europe & Central Asia,High income: OECD,France Netherlands & Benlex,65.027512
CHE,756,Switzerland,Europe & Central Asia,High income: OECD,Germany Austria & Switzerland,7.824909
AUT,40,Austria,Europe & Central Asia,High income: OECD,Germany Austria & Switzerland,8.363404
DEU,276,Germany,Europe & Central Asia,High income: OECD,Germany Austria & Switzerland,81.77693
ITA,380,Italy,Europe & Central Asia,High income: OECD,Italy,59.277417
GEO,268,Georgia,Europe & Central Asia,Lower middle income,Other former USSR,3.926
TKM,795,Turkmenistan,Europe & Central Asia,Upper middle income,Other former USSR,5.041995
KGZ,417,Kyrgyzstan,Europe & Central Asia,Low income,Other former USSR,5.4479
TJK,762,Tajikistan,Europe & Central Asia,Low income,Other former USSR,7.581696
AZE,31,Azerbaijan,Europe & Central Asia,Upper middle income,Other former USSR,9.054332
BLR,112,Belarus,Europe & Central Asia,Upper middle income,Other former USSR,9.49
KAZ,398,Kazakhstan,Europe & Central Asia,Upper middle income,Other former USSR,16.321581
UZB,860,Uzbekistan,Europe & Central Asia,Lower middle income,Other former USSR,28.5624
POL,616,Poland,Europe & Central Asia,High income: OECD,Poland,38.042794
EST,233,Estonia,Europe & Central Asia,High income: OECD,Scandinavia,1.331475
LVA,428,Latvia,Europe & Central Asia,High income: nonOECD,Scandinavia,2.097555
LTU,440,Lithuania,Europe & Central Asia,High income: nonOECD,Scandinavia,3.097282
RUS,643,Russian Federation,Europe & Central Asia,High income: nonOECD,Russian Federation,142.849449
GRL,304,Greenland,Europe & Central Asia,High income: nonOECD,Scandinavia,0.056905
ISL,352,Iceland,Europe & Central Asia,High income: OECD,Scandinavia,0.318041
NOR,578,Norway,Europe & Central Asia,High income: OECD,Scandinavia,4.889252
FIN,246,Finland,Europe & Central Asia,High income: OECD,Scandinavia,5.363352
DNK,208,Denmark,Europe & Central Asia,High income: OECD,Scandinavia,5.547683
SWE,752,Sweden,Europe & Central Asia,High income: OECD,Scandinavia,9.378126
PRT,620,Portugal,Europe & Central Asia,High income: OECD,Spain & Portugal,10.5731
ESP,724,Spain,Europe & Central Asia,High income: OECD,Spain & Portugal,46.576897
CYP,196,Cyprus,Europe & Central Asia,High income: nonOECD,Turkey Cyprus & Greece,1.103685
GRC,300,Greece,Europe & Central Asia,High income: OECD,Turkey Cyprus & Greece,11.121341
TUR,792,Turkey,Europe & Central Asia,Upper middle income,Turkey Cyprus & Greece,72.310416
UKR,804,Ukraine,Europe & Central Asia,Lower middle income,Ukraine,45.8707
GBR,826,United Kingdom,Europe & Central Asia,High income: OECD,United Kingdom,62.766365
ARG,32,Argentina,Latin America & Caribbean,Upper middle income,Argentina,41.222875
BOL,68,Bolivia (Plurinational State of),Latin America & Caribbean,Lower middle income,Bolivia and Chile,9.918245
CHL,152,Chile,Latin America & Caribbean,High income: OECD,Bolivia and Chile,17.015048
BRA,76,Brazil,Latin America & Caribbean,Upper middle income,Brazil,198.614208
KNA,659,Saint Kitts and Nevis,Latin America & Caribbean,High income: nonOECD,Caribbean,0.052352
DMA,212,Dominica,Latin America & Caribbean,Upper middle income,Caribbean,0.071167
ATG,28,Antigua and Barbuda,Latin America & Caribbean,High income: nonOECD,Caribbean,0.087233
ABW,533,Aruba,Latin America & Caribbean,High income: nonOECD,Caribbean,0.101597
GRD,308,Grenada,Latin America & Caribbean,Upper middle income,Caribbean,0.104677
VCT,670,Saint Vincent and the Grenadines,Latin America & Caribbean,Upper middle income,Caribbean,0.109316
LCA,662,Saint Lucia,Latin America & Caribbean,Upper middle income,Caribbean,0.177397
BRB,52,Barbados,Latin America & Caribbean,High income: nonOECD,Caribbean,0.279566
BHS,44,Bahamas,Latin America & Caribbean,High income: nonOECD,Caribbean,0.36083
TTO,780,Trinidad and Tobago,Latin America & Caribbean,High income: nonOECD,Caribbean,1.328095
JAM,388,Jamaica,Latin America & Caribbean,Upper middle income,Caribbean,2.690824
PRI,630,Puerto Rico,Latin America & Caribbean,High income: nonOECD,Caribbean,3.721526
DOM,214,Dominican Republic,Latin America & Caribbean,Upper middle income,Caribbean,9.897983
HTI,332,Haiti,Latin America & Caribbean,Low income,Caribbean,9.999617
CUB,192,Cuba,Latin America & Caribbean,Upper middle income,Caribbean,11.308133
BMU,60,Bermuda,Latin America & Caribbean,High income: nonOECD,Caribbean,0
BLZ,84,Belize,Latin America & Caribbean,Upper middle income,Central America,0.321609
PAN,591,Panama,Latin America & Caribbean,Upper middle income,Central America,3.620506
CRI,188,Costa Rica,Latin America & Caribbean,Upper middle income,Central America,4.545273
NIC,558,Nicaragua,Latin America & Caribbean,Lower middle income,Central America,5.737722
SLV,222,El Salvador,Latin America & Caribbean,Lower middle income,Central America,6.038306
HND,340,Honduras,Latin America & Caribbean,Lower middle income,Central America,7.503875
GTM,320,Guatemala,Latin America & Caribbean,Lower middle income,Central America,14.732261
COL,170,Colombia,Latin America & Caribbean,Upper middle income,Colombia,45.918101
MEX,484,Mexico,Latin America & Caribbean,Upper middle income,Mexico,118.617542
URY,858,Uruguay,Latin America & Caribbean,High income: nonOECD,Paraguay & Uruguay,3.374414
PRY,600,Paraguay,Latin America & Caribbean,Lower middle income,Paraguay & Uruguay,6.209877
ECU,218,Ecuador,Latin America & Caribbean,Upper middle income,Peru & Ecuador,14.934692
PER,604,Peru,Latin America & Caribbean,Upper middle income,Peru & Ecuador,29.373644
SUR,740,Suriname,Latin America & Caribbean,Upper middle income,Venezuela Guyana & Suriname,0.518141
GUY,328,Guyana,Latin America & Caribbean,Lower middle income,Venezuela Guyana & Suriname,0.753362
VEN,862,Venezuela (Bolivarian Republic of),Latin America & Caribbean,Upper middle income,Venezuela Guyana & Suriname,28.995745
DZA,12,Algeria,Middle East & North Africa,Upper middle income,Algeria,36.036159
EGY,818,Egypt,Middle East & North Africa,Lower middle income,Egypt,82.040994
IRN,364,Iran (Islamic Republic of),Middle East & North Africa,Upper middle income,Iran (Islamic Republic of),74.253373
IRQ,368,Iraq,Middle East & North Africa,Upper middle income,Iraq,30.868156
BHR,48,Bahrain,Middle East & North Africa,High income: nonOECD,Middle East other,1.261319
QAT,634,Qatar,Middle East & North Africa,High income: nonOECD,Middle East other,1.765513
OMN,512,Oman,Middle East & North Africa,High income: nonOECD,Middle East other,2.943747
KWT,414,Kuwait,Middle East & North Africa,High income: nonOECD,Middle East other,3.059473
LBN,422,Lebanon,Middle East & North Africa,Upper middle income,Middle East other,4.337156
JOR,400,Jordan,Middle East & North Africa,Upper middle income,Middle East other,6.517912
ISR,376,Israel,Middle East & North Africa,High income: OECD,Middle East other,7.6236
ARE,784,United Arab Emirates,Middle East & North Africa,High income: nonOECD,Middle East other,8.329453
YEM,887,Yemen,Middle East & North Africa,Lower middle income,Middle East other,23.591972
SAU,682,Saudi Arabia,Middle East & North Africa,High income: nonOECD,Middle East other,28.090647
MAR,504,Morocco,Middle East & North Africa,Lower middle income,Morocco,32.107739
MLT,470,Malta,Europe & Central Asia,High income: nonOECD,Turkey Cyprus & Greece,0.414508
DJI,262,Djibouti,Sub-Saharan Africa,Lower middle income,East Africa,0.830802
LBY,434,Libya,Middle East & North Africa,Upper middle income,North Africa other,6.265697
TUN,788,Tunisia,Middle East & North Africa,Upper middle income,North Africa other,10.5471
CAN,124,Canada,North America,High income: OECD,Canada,34.005274
USA,840,United States of America,North America,High income: OECD,United States of America,309.346863
AFG,4,Afghanistan,South Asia,Low income,Pakistan & Afghanistan,27.962207
BGD,50,Bangladesh,South Asia,Low income,Bangladesh,151.616777
MDV,462,Maldives,South Asia,Upper middle income,India  & Sri Lanka,0.367
LKA,144,Sri Lanka,South Asia,Lower middle income,India  & Sri Lanka,20.118
IND,356,India,South Asia,Lower middle income,India  & Sri Lanka,1230.984504
BTN,64,Bhutan,South Asia,Lower middle income,Nepal & Butan,0.720246
NPL,524,Nepal,South Asia,Low income,Nepal & Butan,26.87591
PAK,586,Pakistan,South Asia,Lower middle income,Pakistan & Afghanistan,170.043918
STP,678,Sao Tome and Principe,Sub-Saharan Africa,Lower middle income,Central Africa,0.17088
COM,174,Comoros,Sub-Saharan Africa,Low income,Central Africa,0.698695
GNQ,226,Equatorial Guinea,Sub-Saharan Africa,High income: nonOECD,Central Africa,0.72871
COG,178,Congo,Sub-Saharan Africa,Lower middle income,Central Africa,4.066078
CAF,140,Central African Republic,Sub-Saharan Africa,Low income,Central Africa,4.444973
BDI,108,Burundi,Sub-Saharan Africa,Low income,Central Africa,9.461117
RWA,646,Rwanda,Sub-Saharan Africa,Low income,Central Africa,10.293669
TCD,148,Chad,Sub-Saharan Africa,Low income,Central Africa,11.89638
CMR,120,Cameroon,Sub-Saharan Africa,Lower middle income,Central Africa,20.590666
COD,180,Democratic Republic of the Congo,Sub-Saharan Africa,Low income,Democratic Republic of the Congo,65.938712
ERI,232,Eritrea,Sub-Saharan Africa,Low income,East Africa,4.689664
SSD,728,South Sudan,Sub-Saharan Africa,Lower middle income,East Africa,10.056475
ETH,231,Ethiopia,Sub-Saharan Africa,Low income,Ethiopia,87.561814
KEN,404,Kenya,Sub-Saharan Africa,Low income,Kenya,40.328313
NGA,566,Nigeria,Sub-Saharan Africa,Lower middle income,Nigeria,159.424742
ZAF,710,South Africa,Sub-Saharan Africa,Upper middle income,South Africa,50.771826
SWZ,748,Swaziland,Sub-Saharan Africa,Lower middle income,Southern Africa other,1.193148
MUS,480,Mauritius,Sub-Saharan Africa,Upper middle income,Southern Africa other,1.2504
LSO,426,Lesotho,Sub-Saharan Africa,Lower middle income,Southern Africa other,2.010586
BWA,72,Botswana,Sub-Saharan Africa,Upper middle income,Southern Africa other,2.047831
NAM,516,Namibia,Sub-Saharan Africa,Upper middle income,Southern Africa other,2.193643
ZMB,894,Zambia,Sub-Saharan Africa,Lower middle income,Southern Africa other,13.917439
ZWE,716,Zimbabwe,Sub-Saharan Africa,Low income,Southern Africa other,13.973897
MWI,454,Malawi,Sub-Saharan Africa,Low income,Southern Africa other,14.769824
MDG,450,Madagascar,Sub-Saharan Africa,Low income,Southern Africa other,21.079532
AGO,24,Angola,Sub-Saharan Africa,Upper middle income,Central Africa,21.219954
MOZ,508,Mozambique,Sub-Saharan Africa,Low income,Southern Africa other,24.321457
SDN,729,Sudan,Sub-Saharan Africa,Lower middle income,Sudan,36.114885
UGA,800,Uganda,Sub-Saharan Africa,Low income,Uganda,33.149417
TZA,834,United Republic of Tanzania,Sub-Saharan Africa,Low income,United Republic of Tanzania,45.648525
CPV,132,Cabo Verde,Sub-Saharan Africa,Lower middle income,West Africa,0.490379
GAB,266,Gabon,Sub-Saharan Africa,Upper middle income,Central Africa,1.541936
GNB,624,Guinea-Bissau,Sub-Saharan Africa,Low income,West Africa,1.634196
GMB,270,Gambia,Sub-Saharan Africa,Low income,West Africa,1.693002
MRT,478,Mauritania,Sub-Saharan Africa,Lower middle income,West Africa,3.5914
LBR,430,Liberia,Sub-Saharan Africa,Low income,West Africa,3.95799
SLE,694,Sierra Leone,Sub-Saharan Africa,Low income,West Africa,5.775902
TGO,768,Togo,Sub-Saharan Africa,Low income,West Africa,6.390851
BEN,204,Benin,Sub-Saharan Africa,Low income,West Africa,9.509798
GIN,324,Guinea,Sub-Saharan Africa,Low income,West Africa,11.012406
SEN,686,Senegal,Sub-Saharan Africa,Lower middle income,West Africa,12.956791
MLI,466,Mali,Sub-Saharan Africa,Low income,West Africa,15.167286
BFA,854,Burkina Faso,Sub-Saharan Africa,Low income,West Africa,15.632066
NER,562,Niger,Sub-Saharan Africa,Low income,West Africa,16.29199
CIV,384,Cote d'Ivoire,Sub-Saharan Africa,Lower middle income,West Africa,20.131707
GHA,288,Ghana,Sub-Saharan Africa,Lower middle income,West Africa,24.317734
SOM,706,Somalia,Sub-Saharan Africa,Low income,East Africa,0