country,crop,rate
Afghanistan,FruitVeg,0.207562991039239
Afghanistan,MaizeMilletSorghum,0.207562991039239
Afghanistan,Monogastrics,0.207562991039239
Afghanistan,Oilcrops,0.207562991039239
Afghanistan,Pulses,0.207562991039239
Afghanistan,Rice (Paddy Equivalent),0.207562991039239
Afghanistan,Ruminants,0.207562991039239
Afghanistan,Starchy Roots,0.207562991039239
Afghanistan,Sugar,0.207562991039239
Afghanistan,WheatBarleyOats,0.207562991039239
Albania,FruitVeg,0.207562991039239
Albania,MaizeMilletSorghum,0.207562991039239
Albania,Monogastrics,0.207562991039239
Albania,Oilcrops,0.207562991039239
Albania,Pulses,0.207562991039239
Albania,Rice (Paddy Equivalent),0.207562991039239
Albania,Ruminants,0.207562991039239
Albania,Starchy Roots,0.207562991039239
Albania,Sugar,0.207562991039239
Albania,WheatBarleyOats,0.207562991039239
Algeria,FruitVeg,0.207562991039239
Algeria,MaizeMilletSorghum,0.207562991039239
Algeria,Monogastrics,0.207562991039239
Algeria,Oilcrops,0.207562991039239
Algeria,Pulses,0.207562991039239
Algeria,Rice (Paddy Equivalent),0.207562991039239
Algeria,Ruminants,0.207562991039239
Algeria,Starchy Roots,0.207562991039239
Algeria,Sugar,0.207562991039239
Algeria,WheatBarleyOats,0.207562991039239
Angola,FruitVeg,0.207562991039239
Angola,MaizeMilletSorghum,0.207562991039239
Angola,Monogastrics,0.207562991039239
Angola,Oilcrops,0.207562991039239
Angola,Pulses,0.207562991039239
Angola,Rice (Paddy Equivalent),0.207562991039239
Angola,Ruminants,0.207562991039239
Angola,Starchy Roots,0.207562991039239
Angola,Sugar,0.207562991039239
Angola,WheatBarleyOats,0.207562991039239
Antigua and Barbuda,FruitVeg,0.207562991039239
Antigua and Barbuda,MaizeMilletSorghum,0.207562991039239
Antigua and Barbuda,Monogastrics,0.207562991039239
Antigua and Barbuda,Oilcrops,0.207562991039239
Antigua and Barbuda,Pulses,0.207562991039239
Antigua and Barbuda,Rice (Paddy Equivalent),0.207562991039239
Antigua and Barbuda,Ruminants,0.207562991039239
Antigua and Barbuda,Starchy Roots,0.207562991039239
Antigua and Barbuda,Sugar,0.207562991039239
Antigua and Barbuda,WheatBarleyOats,0.207562991039239
Argentina,FruitVeg,0.207562991039239
Argentina,MaizeMilletSorghum,0.207562991039239
Argentina,Monogastrics,0.207562991039239
Argentina,Oilcrops,0.207562991039239
Argentina,Pulses,0.207562991039239
Argentina,Rice (Paddy Equivalent),0.207562991039239
Argentina,Ruminants,0.207562991039239
Argentina,Starchy Roots,0.207562991039239
Argentina,Sugar,0.207562991039239
Argentina,WheatBarleyOats,0.207562991039239
Armenia,FruitVeg,0.207562991039239
Armenia,MaizeMilletSorghum,0.207562991039239
Armenia,Monogastrics,0.207562991039239
Armenia,Oilcrops,0.207562991039239
Armenia,Pulses,0.207562991039239
Armenia,Rice (Paddy Equivalent),0.207562991039239
Armenia,Ruminants,0.207562991039239
Armenia,Starchy Roots,0.207562991039239
Armenia,Sugar,0.207562991039239
Armenia,WheatBarleyOats,0.207562991039239
Aruba,FruitVeg,0.207562991039239
Aruba,MaizeMilletSorghum,0.207562991039239
Aruba,Monogastrics,0.207562991039239
Aruba,Oilcrops,0.207562991039239
Aruba,Pulses,0.207562991039239
Aruba,Rice (Paddy Equivalent),0.207562991039239
Aruba,Ruminants,0.207562991039239
Aruba,Starchy Roots,0.207562991039239
Aruba,Sugar,0.207562991039239
Aruba,WheatBarleyOats,0.207562991039239
Australia,FruitVeg,0.0200386507825243
Australia,MaizeMilletSorghum,0.0200386507825243
Australia,Monogastrics,0.0200386507825243
Australia,Oilcrops,0.0200386507825243
Australia,Pulses,0.0200386507825243
Australia,Rice (Paddy Equivalent),0.0200386507825243
Australia,Ruminants,0.0200386507825243
Australia,Starchy Roots,0.0200386507825243
Australia,Sugar,0.0200386507825243
Australia,WheatBarleyOats,0.0200386507825243
Austria,FruitVeg,0.112056970911359
Austria,MaizeMilletSorghum,0.112056970911359
Austria,Monogastrics,0.112056970911359
Austria,Oilcrops,0.112056970911359
Austria,Pulses,0.112056970911359
Austria,Rice (Paddy Equivalent),0.112056970911359
Austria,Ruminants,0.112056970911359
Austria,Starchy Roots,0.112056970911359
Austria,Sugar,0.112056970911359
Austria,WheatBarleyOats,0.112056970911359
Azerbaijan,FruitVeg,0.207562991039239
Azerbaijan,MaizeMilletSorghum,0.207562991039239
Azerbaijan,Monogastrics,0.207562991039239
Azerbaijan,Oilcrops,0.207562991039239
Azerbaijan,Pulses,0.207562991039239
Azerbaijan,Rice (Paddy Equivalent),0.207562991039239
Azerbaijan,Ruminants,0.207562991039239
Azerbaijan,Starchy Roots,0.207562991039239
Azerbaijan,Sugar,0.207562991039239
Azerbaijan,WheatBarleyOats,0.207562991039239
Bahamas,FruitVeg,0.207562991039239
Bahamas,MaizeMilletSorghum,0.207562991039239
Bahamas,Monogastrics,0.207562991039239
Bahamas,Oilcrops,0.207562991039239
Bahamas,Pulses,0.207562991039239
Bahamas,Rice (Paddy Equivalent),0.207562991039239
Bahamas,Ruminants,0.207562991039239
Bahamas,Starchy Roots,0.207562991039239
Bahamas,Sugar,0.207562991039239
Bahamas,WheatBarleyOats,0.207562991039239
Bahrain,FruitVeg,0.207562991039239
Bahrain,MaizeMilletSorghum,0.207562991039239
Bahrain,Monogastrics,0.207562991039239
Bahrain,Oilcrops,0.207562991039239
Bahrain,Pulses,0.207562991039239
Bahrain,Rice (Paddy Equivalent),0.207562991039239
Bahrain,Ruminants,0.207562991039239
Bahrain,Starchy Roots,0.207562991039239
Bahrain,Sugar,0.207562991039239
Bahrain,WheatBarleyOats,0.207562991039239
Bangladesh,FruitVeg,0.207562991039239
Bangladesh,MaizeMilletSorghum,0.207562991039239
Bangladesh,Monogastrics,0.207562991039239
Bangladesh,Oilcrops,0.207562991039239
Bangladesh,Pulses,0.207562991039239
Bangladesh,Rice (Paddy Equivalent),0.207562991039239
Bangladesh,Ruminants,0.207562991039239
Bangladesh,Starchy Roots,0.207562991039239
Bangladesh,Sugar,0.207562991039239
Bangladesh,WheatBarleyOats,0.207562991039239
Barbados,FruitVeg,0.207562991039239
Barbados,MaizeMilletSorghum,0.207562991039239
Barbados,Monogastrics,0.207562991039239
Barbados,Oilcrops,0.207562991039239
Barbados,Pulses,0.207562991039239
Barbados,Rice (Paddy Equivalent),0.207562991039239
Barbados,Ruminants,0.207562991039239
Barbados,Starchy Roots,0.207562991039239
Barbados,Sugar,0.207562991039239
Barbados,WheatBarleyOats,0.207562991039239
Belarus,FruitVeg,0.207562991039239
Belarus,MaizeMilletSorghum,0.207562991039239
Belarus,Monogastrics,0.207562991039239
Belarus,Oilcrops,0.207562991039239
Belarus,Pulses,0.207562991039239
Belarus,Rice (Paddy Equivalent),0.207562991039239
Belarus,Ruminants,0.207562991039239
Belarus,Starchy Roots,0.207562991039239
Belarus,Sugar,0.207562991039239
Belarus,WheatBarleyOats,0.207562991039239
Belgium,FruitVeg,0.112056970911359
Belgium,MaizeMilletSorghum,0.112056970911359
Belgium,Monogastrics,0.112056970911359
Belgium,Oilcrops,0.112056970911359
Belgium,Pulses,0.112056970911359
Belgium,Rice (Paddy Equivalent),0.112056970911359
Belgium,Ruminants,0.112056970911359
Belgium,Starchy Roots,0.112056970911359
Belgium,Sugar,0.112056970911359
Belgium,WheatBarleyOats,0.112056970911359
Belize,FruitVeg,0.207562991039239
Belize,MaizeMilletSorghum,0.207562991039239
Belize,Monogastrics,0.207562991039239
Belize,Oilcrops,0.207562991039239
Belize,Pulses,0.207562991039239
Belize,Rice (Paddy Equivalent),0.207562991039239
Belize,Ruminants,0.207562991039239
Belize,Starchy Roots,0.207562991039239
Belize,Sugar,0.207562991039239
Belize,WheatBarleyOats,0.207562991039239
Benin,FruitVeg,0.207562991039239
Benin,MaizeMilletSorghum,0.207562991039239
Benin,Monogastrics,0.207562991039239
Benin,Oilcrops,0.207562991039239
Benin,Pulses,0.207562991039239
Benin,Rice (Paddy Equivalent),0.207562991039239
Benin,Ruminants,0.207562991039239
Benin,Starchy Roots,0.207562991039239
Benin,Sugar,0.207562991039239
Benin,WheatBarleyOats,0.207562991039239
Bermuda,FruitVeg,0.207562991039239
Bermuda,MaizeMilletSorghum,0.207562991039239
Bermuda,Monogastrics,0.207562991039239
Bermuda,Oilcrops,0.207562991039239
Bermuda,Pulses,0.207562991039239
Bermuda,Rice (Paddy Equivalent),0.207562991039239
Bermuda,Ruminants,0.207562991039239
Bermuda,Starchy Roots,0.207562991039239
Bermuda,Sugar,0.207562991039239
Bermuda,WheatBarleyOats,0.207562991039239
Bhutan,FruitVeg,0.207562991039239
Bhutan,MaizeMilletSorghum,0.207562991039239
Bhutan,Monogastrics,0.207562991039239
Bhutan,Oilcrops,0.207562991039239
Bhutan,Pulses,0.207562991039239
Bhutan,Rice (Paddy Equivalent),0.207562991039239
Bhutan,Ruminants,0.207562991039239
Bhutan,Starchy Roots,0.207562991039239
Bhutan,Sugar,0.207562991039239
Bhutan,WheatBarleyOats,0.207562991039239
Bolivia (Plurinational State of),FruitVeg,0.207562991039239
Bolivia (Plurinational State of),MaizeMilletSorghum,0.207562991039239
Bolivia (Plurinational State of),Monogastrics,0.207562991039239
Bolivia (Plurinational State of),Oilcrops,0.207562991039239
Bolivia (Plurinational State of),Pulses,0.207562991039239
Bolivia (Plurinational State of),Rice (Paddy Equivalent),0.207562991039239
Bolivia (Plurinational State of),Ruminants,0.207562991039239
Bolivia (Plurinational State of),Starchy Roots,0.207562991039239
Bolivia (Plurinational State of),Sugar,0.207562991039239
Bolivia (Plurinational State of),WheatBarleyOats,0.207562991039239
Bosnia and Herzegovina,FruitVeg,0.207562991039239
Bosnia and Herzegovina,MaizeMilletSorghum,0.207562991039239
Bosnia and Herzegovina,Monogastrics,0.207562991039239
Bosnia and Herzegovina,Oilcrops,0.207562991039239
Bosnia and Herzegovina,Pulses,0.207562991039239
Bosnia and Herzegovina,Rice (Paddy Equivalent),0.207562991039239
Bosnia and Herzegovina,Ruminants,0.207562991039239
Bosnia and Herzegovina,Starchy Roots,0.207562991039239
Bosnia and Herzegovina,Sugar,0.207562991039239
Bosnia and Herzegovina,WheatBarleyOats,0.207562991039239
Botswana,FruitVeg,0.207562991039239
Botswana,MaizeMilletSorghum,0.207562991039239
Botswana,Monogastrics,0.207562991039239
Botswana,Oilcrops,0.207562991039239
Botswana,Pulses,0.207562991039239
Botswana,Rice (Paddy Equivalent),0.207562991039239
Botswana,Ruminants,0.207562991039239
Botswana,Starchy Roots,0.207562991039239
Botswana,Sugar,0.207562991039239
Botswana,WheatBarleyOats,0.207562991039239
Brazil,FruitVeg,0.047372536294787
Brazil,MaizeMilletSorghum,0.047372536294787
Brazil,Monogastrics,0.047372536294787
Brazil,Oilcrops,0.047372536294787
Brazil,Pulses,0.047372536294787
Brazil,Rice (Paddy Equivalent),0.047372536294787
Brazil,Ruminants,0.047372536294787
Brazil,Starchy Roots,0.047372536294787
Brazil,Sugar,0.047372536294787
Brazil,WheatBarleyOats,0.047372536294787
Brunei Darussalam,FruitVeg,0.207562991039239
Brunei Darussalam,MaizeMilletSorghum,0.207562991039239
Brunei Darussalam,Monogastrics,0.207562991039239
Brunei Darussalam,Oilcrops,0.207562991039239
Brunei Darussalam,Pulses,0.207562991039239
Brunei Darussalam,Rice (Paddy Equivalent),0.207562991039239
Brunei Darussalam,Ruminants,0.207562991039239
Brunei Darussalam,Starchy Roots,0.207562991039239
Brunei Darussalam,Sugar,0.207562991039239
Brunei Darussalam,WheatBarleyOats,0.207562991039239
Bulgaria,FruitVeg,0.112056970911359
Bulgaria,MaizeMilletSorghum,0.112056970911359
Bulgaria,Monogastrics,0.112056970911359
Bulgaria,Oilcrops,0.112056970911359
Bulgaria,Pulses,0.112056970911359
Bulgaria,Rice (Paddy Equivalent),0.112056970911359
Bulgaria,Ruminants,0.112056970911359
Bulgaria,Starchy Roots,0.112056970911359
Bulgaria,Sugar,0.112056970911359
Bulgaria,WheatBarleyOats,0.112056970911359
Burkina Faso,FruitVeg,0.207562991039239
Burkina Faso,MaizeMilletSorghum,0.207562991039239
Burkina Faso,Monogastrics,0.207562991039239
Burkina Faso,Oilcrops,0.207562991039239
Burkina Faso,Pulses,0.207562991039239
Burkina Faso,Rice (Paddy Equivalent),0.207562991039239
Burkina Faso,Ruminants,0.207562991039239
Burkina Faso,Starchy Roots,0.207562991039239
Burkina Faso,Sugar,0.207562991039239
Burkina Faso,WheatBarleyOats,0.207562991039239
Burundi,FruitVeg,0.207562991039239
Burundi,MaizeMilletSorghum,0.207562991039239
Burundi,Monogastrics,0.207562991039239
Burundi,Oilcrops,0.207562991039239
Burundi,Pulses,0.207562991039239
Burundi,Rice (Paddy Equivalent),0.207562991039239
Burundi,Ruminants,0.207562991039239
Burundi,Starchy Roots,0.207562991039239
Burundi,Sugar,0.207562991039239
Burundi,WheatBarleyOats,0.207562991039239
Cabo Verde,FruitVeg,0.207562991039239
Cabo Verde,MaizeMilletSorghum,0.207562991039239
Cabo Verde,Monogastrics,0.207562991039239
Cabo Verde,Oilcrops,0.207562991039239
Cabo Verde,Pulses,0.207562991039239
Cabo Verde,Rice (Paddy Equivalent),0.207562991039239
Cabo Verde,Ruminants,0.207562991039239
Cabo Verde,Starchy Roots,0.207562991039239
Cabo Verde,Sugar,0.207562991039239
Cabo Verde,WheatBarleyOats,0.207562991039239
Cambodia,FruitVeg,0.207562991039239
Cambodia,MaizeMilletSorghum,0.207562991039239
Cambodia,Monogastrics,0.207562991039239
Cambodia,Oilcrops,0.207562991039239
Cambodia,Pulses,0.207562991039239
Cambodia,Rice (Paddy Equivalent),0.207562991039239
Cambodia,Ruminants,0.207562991039239
Cambodia,Starchy Roots,0.207562991039239
Cambodia,Sugar,0.207562991039239
Cambodia,WheatBarleyOats,0.207562991039239
Cameroon,FruitVeg,0.207562991039239
Cameroon,MaizeMilletSorghum,0.207562991039239
Cameroon,Monogastrics,0.207562991039239
Cameroon,Oilcrops,0.207562991039239
Cameroon,Pulses,0.207562991039239
Cameroon,Rice (Paddy Equivalent),0.207562991039239
Cameroon,Ruminants,0.207562991039239
Cameroon,Starchy Roots,0.207562991039239
Cameroon,Sugar,0.207562991039239
Cameroon,WheatBarleyOats,0.207562991039239
Canada,FruitVeg,0.32236610491491
Canada,MaizeMilletSorghum,0.32236610491491
Canada,Monogastrics,0.32236610491491
Canada,Oilcrops,0.32236610491491
Canada,Pulses,0.32236610491491
Canada,Rice (Paddy Equivalent),0.32236610491491
Canada,Ruminants,0.32236610491491
Canada,Starchy Roots,0.32236610491491
Canada,Sugar,0.32236610491491
Canada,WheatBarleyOats,0.32236610491491
Central African Republic,FruitVeg,0.207562991039239
Central African Republic,MaizeMilletSorghum,0.207562991039239
Central African Republic,Monogastrics,0.207562991039239
Central African Republic,Oilcrops,0.207562991039239
Central African Republic,Pulses,0.207562991039239
Central African Republic,Rice (Paddy Equivalent),0.207562991039239
Central African Republic,Ruminants,0.207562991039239
Central African Republic,Starchy Roots,0.207562991039239
Central African Republic,Sugar,0.207562991039239
Central African Republic,WheatBarleyOats,0.207562991039239
Chad,FruitVeg,0.207562991039239
Chad,MaizeMilletSorghum,0.207562991039239
Chad,Monogastrics,0.207562991039239
Chad,Oilcrops,0.207562991039239
Chad,Pulses,0.207562991039239
Chad,Rice (Paddy Equivalent),0.207562991039239
Chad,Ruminants,0.207562991039239
Chad,Starchy Roots,0.207562991039239
Chad,Sugar,0.207562991039239
Chad,WheatBarleyOats,0.207562991039239
Chile,FruitVeg,0.106413924068651
Chile,MaizeMilletSorghum,0.106413924068651
Chile,Monogastrics,0.106413924068651
Chile,Oilcrops,0.106413924068651
Chile,Pulses,0.106413924068651
Chile,Rice (Paddy Equivalent),0.106413924068651
Chile,Ruminants,0.106413924068651
Chile,Starchy Roots,0.106413924068651
Chile,Sugar,0.106413924068651
Chile,WheatBarleyOats,0.106413924068651
China,FruitVeg,0.408610854378248
China,MaizeMilletSorghum,0.408610854378248
China,Monogastrics,0.408610854378248
China,Oilcrops,0.408610854378248
China,Pulses,0.408610854378248
China,Rice (Paddy Equivalent),0.408610854378248
China,Ruminants,0.408610854378248
China,Starchy Roots,0.408610854378248
China,Sugar,0.408610854378248
China,WheatBarleyOats,0.408610854378248
Colombia,FruitVeg,0.358386762595974
Colombia,MaizeMilletSorghum,0.358386762595974
Colombia,Monogastrics,0.358386762595974
Colombia,Oilcrops,0.358386762595974
Colombia,Pulses,0.358386762595974
Colombia,Rice (Paddy Equivalent),0.358386762595974
Colombia,Ruminants,0.358386762595974
Colombia,Starchy Roots,0.358386762595974
Colombia,Sugar,0.358386762595974
Colombia,WheatBarleyOats,0.358386762595974
Comoros,FruitVeg,0.207562991039239
Comoros,MaizeMilletSorghum,0.207562991039239
Comoros,Monogastrics,0.207562991039239
Comoros,Oilcrops,0.207562991039239
Comoros,Pulses,0.207562991039239
Comoros,Rice (Paddy Equivalent),0.207562991039239
Comoros,Ruminants,0.207562991039239
Comoros,Starchy Roots,0.207562991039239
Comoros,Sugar,0.207562991039239
Comoros,WheatBarleyOats,0.207562991039239
Congo,FruitVeg,0.207562991039239
Congo,MaizeMilletSorghum,0.207562991039239
Congo,Monogastrics,0.207562991039239
Congo,Oilcrops,0.207562991039239
Congo,Pulses,0.207562991039239
Congo,Rice (Paddy Equivalent),0.207562991039239
Congo,Ruminants,0.207562991039239
Congo,Starchy Roots,0.207562991039239
Congo,Sugar,0.207562991039239
Congo,WheatBarleyOats,0.207562991039239
Costa Rica,FruitVeg,0.378166137381476
Costa Rica,MaizeMilletSorghum,0.378166137381476
Costa Rica,Monogastrics,0.378166137381476
Costa Rica,Oilcrops,0.378166137381476
Costa Rica,Pulses,0.378166137381476
Costa Rica,Rice (Paddy Equivalent),0.378166137381476
Costa Rica,Ruminants,0.378166137381476
Costa Rica,Starchy Roots,0.378166137381476
Costa Rica,Sugar,0.378166137381476
Costa Rica,WheatBarleyOats,0.378166137381476
Cote d'Ivoire,FruitVeg,0.207562991039239
Cote d'Ivoire,MaizeMilletSorghum,0.207562991039239
Cote d'Ivoire,Monogastrics,0.207562991039239
Cote d'Ivoire,Oilcrops,0.207562991039239
Cote d'Ivoire,Pulses,0.207562991039239
Cote d'Ivoire,Rice (Paddy Equivalent),0.207562991039239
Cote d'Ivoire,Ruminants,0.207562991039239
Cote d'Ivoire,Starchy Roots,0.207562991039239
Cote d'Ivoire,Sugar,0.207562991039239
Cote d'Ivoire,WheatBarleyOats,0.207562991039239
Croatia,FruitVeg,0.112056970911359
Croatia,MaizeMilletSorghum,0.112056970911359
Croatia,Monogastrics,0.112056970911359
Croatia,Oilcrops,0.112056970911359
Croatia,Pulses,0.112056970911359
Croatia,Rice (Paddy Equivalent),0.112056970911359
Croatia,Ruminants,0.112056970911359
Croatia,Starchy Roots,0.112056970911359
Croatia,Sugar,0.112056970911359
Croatia,WheatBarleyOats,0.112056970911359
Cuba,FruitVeg,0.207562991039239
Cuba,MaizeMilletSorghum,0.207562991039239
Cuba,Monogastrics,0.207562991039239
Cuba,Oilcrops,0.207562991039239
Cuba,Pulses,0.207562991039239
Cuba,Rice (Paddy Equivalent),0.207562991039239
Cuba,Ruminants,0.207562991039239
Cuba,Starchy Roots,0.207562991039239
Cuba,Sugar,0.207562991039239
Cuba,WheatBarleyOats,0.207562991039239
Cyprus,FruitVeg,0.112056970911359
Cyprus,MaizeMilletSorghum,0.112056970911359
Cyprus,Monogastrics,0.112056970911359
Cyprus,Oilcrops,0.112056970911359
Cyprus,Pulses,0.112056970911359
Cyprus,Rice (Paddy Equivalent),0.112056970911359
Cyprus,Ruminants,0.112056970911359
Cyprus,Starchy Roots,0.112056970911359
Cyprus,Sugar,0.112056970911359
Cyprus,WheatBarleyOats,0.112056970911359
Czechia,FruitVeg,0.207562991039239
Czechia,MaizeMilletSorghum,0.207562991039239
Czechia,Monogastrics,0.207562991039239
Czechia,Oilcrops,0.207562991039239
Czechia,Pulses,0.207562991039239
Czechia,Rice (Paddy Equivalent),0.207562991039239
Czechia,Ruminants,0.207562991039239
Czechia,Starchy Roots,0.207562991039239
Czechia,Sugar,0.207562991039239
Czechia,WheatBarleyOats,0.207562991039239
Democratic People's Republic of Korea,FruitVeg,0.207562991039239
Democratic People's Republic of Korea,MaizeMilletSorghum,0.207562991039239
Democratic People's Republic of Korea,Monogastrics,0.207562991039239
Democratic People's Republic of Korea,Oilcrops,0.207562991039239
Democratic People's Republic of Korea,Pulses,0.207562991039239
Democratic People's Republic of Korea,Rice (Paddy Equivalent),0.207562991039239
Democratic People's Republic of Korea,Ruminants,0.207562991039239
Democratic People's Republic of Korea,Starchy Roots,0.207562991039239
Democratic People's Republic of Korea,Sugar,0.207562991039239
Democratic People's Republic of Korea,WheatBarleyOats,0.207562991039239
Democratic Republic of the Congo,FruitVeg,0.207562991039239
Democratic Republic of the Congo,MaizeMilletSorghum,0.207562991039239
Democratic Republic of the Congo,Monogastrics,0.207562991039239
Democratic Republic of the Congo,Oilcrops,0.207562991039239
Democratic Republic of the Congo,Pulses,0.207562991039239
Democratic Republic of the Congo,Rice (Paddy Equivalent),0.207562991039239
Democratic Republic of the Congo,Ruminants,0.207562991039239
Democratic Republic of the Congo,Starchy Roots,0.207562991039239
Democratic Republic of the Congo,Sugar,0.207562991039239
Democratic Republic of the Congo,WheatBarleyOats,0.207562991039239
Denmark,FruitVeg,0.112056970911359
Denmark,MaizeMilletSorghum,0.112056970911359
Denmark,Monogastrics,0.112056970911359
Denmark,Oilcrops,0.112056970911359
Denmark,Pulses,0.112056970911359
Denmark,Rice (Paddy Equivalent),0.112056970911359
Denmark,Ruminants,0.112056970911359
Denmark,Starchy Roots,0.112056970911359
Denmark,Sugar,0.112056970911359
Denmark,WheatBarleyOats,0.112056970911359
Djibouti,FruitVeg,0.207562991039239
Djibouti,MaizeMilletSorghum,0.207562991039239
Djibouti,Monogastrics,0.207562991039239
Djibouti,Oilcrops,0.207562991039239
Djibouti,Pulses,0.207562991039239
Djibouti,Rice (Paddy Equivalent),0.207562991039239
Djibouti,Ruminants,0.207562991039239
Djibouti,Starchy Roots,0.207562991039239
Djibouti,Sugar,0.207562991039239
Djibouti,WheatBarleyOats,0.207562991039239
Dominica,FruitVeg,0.207562991039239
Dominica,MaizeMilletSorghum,0.207562991039239
Dominica,Monogastrics,0.207562991039239
Dominica,Oilcrops,0.207562991039239
Dominica,Pulses,0.207562991039239
Dominica,Rice (Paddy Equivalent),0.207562991039239
Dominica,Ruminants,0.207562991039239
Dominica,Starchy Roots,0.207562991039239
Dominica,Sugar,0.207562991039239
Dominica,WheatBarleyOats,0.207562991039239
Dominican Republic,FruitVeg,0.207562991039239
Dominican Republic,MaizeMilletSorghum,0.207562991039239
Dominican Republic,Monogastrics,0.207562991039239
Dominican Republic,Oilcrops,0.207562991039239
Dominican Republic,Pulses,0.207562991039239
Dominican Republic,Rice (Paddy Equivalent),0.207562991039239
Dominican Republic,Ruminants,0.207562991039239
Dominican Republic,Starchy Roots,0.207562991039239
Dominican Republic,Sugar,0.207562991039239
Dominican Republic,WheatBarleyOats,0.207562991039239
Ecuador,FruitVeg,0.207562991039239
Ecuador,MaizeMilletSorghum,0.207562991039239
Ecuador,Monogastrics,0.207562991039239
Ecuador,Oilcrops,0.207562991039239
Ecuador,Pulses,0.207562991039239
Ecuador,Rice (Paddy Equivalent),0.207562991039239
Ecuador,Ruminants,0.207562991039239
Ecuador,Starchy Roots,0.207562991039239
Ecuador,Sugar,0.207562991039239
Ecuador,WheatBarleyOats,0.207562991039239
Egypt,FruitVeg,0.207562991039239
Egypt,MaizeMilletSorghum,0.207562991039239
Egypt,Monogastrics,0.207562991039239
Egypt,Oilcrops,0.207562991039239
Egypt,Pulses,0.207562991039239
Egypt,Rice (Paddy Equivalent),0.207562991039239
Egypt,Ruminants,0.207562991039239
Egypt,Starchy Roots,0.207562991039239
Egypt,Sugar,0.207562991039239
Egypt,WheatBarleyOats,0.207562991039239
El Salvador,FruitVeg,0.207562991039239
El Salvador,MaizeMilletSorghum,0.207562991039239
El Salvador,Monogastrics,0.207562991039239
El Salvador,Oilcrops,0.207562991039239
El Salvador,Pulses,0.207562991039239
El Salvador,Rice (Paddy Equivalent),0.207562991039239
El Salvador,Ruminants,0.207562991039239
El Salvador,Starchy Roots,0.207562991039239
El Salvador,Sugar,0.207562991039239
El Salvador,WheatBarleyOats,0.207562991039239
Equatorial Guinea,FruitVeg,0.207562991039239
Equatorial Guinea,MaizeMilletSorghum,0.207562991039239
Equatorial Guinea,Monogastrics,0.207562991039239
Equatorial Guinea,Oilcrops,0.207562991039239
Equatorial Guinea,Pulses,0.207562991039239
Equatorial Guinea,Rice (Paddy Equivalent),0.207562991039239
Equatorial Guinea,Ruminants,0.207562991039239
Equatorial Guinea,Starchy Roots,0.207562991039239
Equatorial Guinea,Sugar,0.207562991039239
Equatorial Guinea,WheatBarleyOats,0.207562991039239
Eritrea,FruitVeg,0.207562991039239
Eritrea,MaizeMilletSorghum,0.207562991039239
Eritrea,Monogastrics,0.207562991039239
Eritrea,Oilcrops,0.207562991039239
Eritrea,Pulses,0.207562991039239
Eritrea,Rice (Paddy Equivalent),0.207562991039239
Eritrea,Ruminants,0.207562991039239
Eritrea,Starchy Roots,0.207562991039239
Eritrea,Sugar,0.207562991039239
Eritrea,WheatBarleyOats,0.207562991039239
Estonia,FruitVeg,0.112056970911359
Estonia,MaizeMilletSorghum,0.112056970911359
Estonia,Monogastrics,0.112056970911359
Estonia,Oilcrops,0.112056970911359
Estonia,Pulses,0.112056970911359
Estonia,Rice (Paddy Equivalent),0.112056970911359
Estonia,Ruminants,0.112056970911359
Estonia,Starchy Roots,0.112056970911359
Estonia,Sugar,0.112056970911359
Estonia,WheatBarleyOats,0.112056970911359
Ethiopia,FruitVeg,0.207562991039239
Ethiopia,MaizeMilletSorghum,0.207562991039239
Ethiopia,Monogastrics,0.207562991039239
Ethiopia,Oilcrops,0.207562991039239
Ethiopia,Pulses,0.207562991039239
Ethiopia,Rice (Paddy Equivalent),0.207562991039239
Ethiopia,Ruminants,0.207562991039239
Ethiopia,Starchy Roots,0.207562991039239
Ethiopia,Sugar,0.207562991039239
Ethiopia,WheatBarleyOats,0.207562991039239
Fiji,FruitVeg,0.207562991039239
Fiji,MaizeMilletSorghum,0.207562991039239
Fiji,Monogastrics,0.207562991039239
Fiji,Oilcrops,0.207562991039239
Fiji,Pulses,0.207562991039239
Fiji,Rice (Paddy Equivalent),0.207562991039239
Fiji,Ruminants,0.207562991039239
Fiji,Starchy Roots,0.207562991039239
Fiji,Sugar,0.207562991039239
Fiji,WheatBarleyOats,0.207562991039239
Finland,FruitVeg,0.112056970911359
Finland,MaizeMilletSorghum,0.112056970911359
Finland,Monogastrics,0.112056970911359
Finland,Oilcrops,0.112056970911359
Finland,Pulses,0.112056970911359
Finland,Rice (Paddy Equivalent),0.112056970911359
Finland,Ruminants,0.112056970911359
Finland,Starchy Roots,0.112056970911359
Finland,Sugar,0.112056970911359
Finland,WheatBarleyOats,0.112056970911359
France,FruitVeg,0.112056970911359
France,MaizeMilletSorghum,0.112056970911359
France,Monogastrics,0.112056970911359
France,Oilcrops,0.112056970911359
France,Pulses,0.112056970911359
France,Rice (Paddy Equivalent),0.112056970911359
France,Ruminants,0.112056970911359
France,Starchy Roots,0.112056970911359
France,Sugar,0.112056970911359
France,WheatBarleyOats,0.112056970911359
French Polynesia,FruitVeg,0.207562991039239
French Polynesia,MaizeMilletSorghum,0.207562991039239
French Polynesia,Monogastrics,0.207562991039239
French Polynesia,Oilcrops,0.207562991039239
French Polynesia,Pulses,0.207562991039239
French Polynesia,Rice (Paddy Equivalent),0.207562991039239
French Polynesia,Ruminants,0.207562991039239
French Polynesia,Starchy Roots,0.207562991039239
French Polynesia,Sugar,0.207562991039239
French Polynesia,WheatBarleyOats,0.207562991039239
Gabon,FruitVeg,0.207562991039239
Gabon,MaizeMilletSorghum,0.207562991039239
Gabon,Monogastrics,0.207562991039239
Gabon,Oilcrops,0.207562991039239
Gabon,Pulses,0.207562991039239
Gabon,Rice (Paddy Equivalent),0.207562991039239
Gabon,Ruminants,0.207562991039239
Gabon,Starchy Roots,0.207562991039239
Gabon,Sugar,0.207562991039239
Gabon,WheatBarleyOats,0.207562991039239
Gambia,FruitVeg,0.207562991039239
Gambia,MaizeMilletSorghum,0.207562991039239
Gambia,Monogastrics,0.207562991039239
Gambia,Oilcrops,0.207562991039239
Gambia,Pulses,0.207562991039239
Gambia,Rice (Paddy Equivalent),0.207562991039239
Gambia,Ruminants,0.207562991039239
Gambia,Starchy Roots,0.207562991039239
Gambia,Sugar,0.207562991039239
Gambia,WheatBarleyOats,0.207562991039239
Georgia,FruitVeg,0.207562991039239
Georgia,MaizeMilletSorghum,0.207562991039239
Georgia,Monogastrics,0.207562991039239
Georgia,Oilcrops,0.207562991039239
Georgia,Pulses,0.207562991039239
Georgia,Rice (Paddy Equivalent),0.207562991039239
Georgia,Ruminants,0.207562991039239
Georgia,Starchy Roots,0.207562991039239
Georgia,Sugar,0.207562991039239
Georgia,WheatBarleyOats,0.207562991039239
Germany,FruitVeg,0.112056970911359
Germany,MaizeMilletSorghum,0.112056970911359
Germany,Monogastrics,0.112056970911359
Germany,Oilcrops,0.112056970911359
Germany,Pulses,0.112056970911359
Germany,Rice (Paddy Equivalent),0.112056970911359
Germany,Ruminants,0.112056970911359
Germany,Starchy Roots,0.112056970911359
Germany,Sugar,0.112056970911359
Germany,WheatBarleyOats,0.112056970911359
Ghana,FruitVeg,0.207562991039239
Ghana,MaizeMilletSorghum,0.207562991039239
Ghana,Monogastrics,0.207562991039239
Ghana,Oilcrops,0.207562991039239
Ghana,Pulses,0.207562991039239
Ghana,Rice (Paddy Equivalent),0.207562991039239
Ghana,Ruminants,0.207562991039239
Ghana,Starchy Roots,0.207562991039239
Ghana,Sugar,0.207562991039239
Ghana,WheatBarleyOats,0.207562991039239
Greece,FruitVeg,0.112056970911359
Greece,MaizeMilletSorghum,0.112056970911359
Greece,Monogastrics,0.112056970911359
Greece,Oilcrops,0.112056970911359
Greece,Pulses,0.112056970911359
Greece,Rice (Paddy Equivalent),0.112056970911359
Greece,Ruminants,0.112056970911359
Greece,Starchy Roots,0.112056970911359
Greece,Sugar,0.112056970911359
Greece,WheatBarleyOats,0.112056970911359
Greenland,FruitVeg,0.207562991039239
Greenland,MaizeMilletSorghum,0.207562991039239
Greenland,Monogastrics,0.207562991039239
Greenland,Oilcrops,0.207562991039239
Greenland,Pulses,0.207562991039239
Greenland,Rice (Paddy Equivalent),0.207562991039239
Greenland,Ruminants,0.207562991039239
Greenland,Starchy Roots,0.207562991039239
Greenland,Sugar,0.207562991039239
Greenland,WheatBarleyOats,0.207562991039239
Grenada,FruitVeg,0.207562991039239
Grenada,MaizeMilletSorghum,0.207562991039239
Grenada,Monogastrics,0.207562991039239
Grenada,Oilcrops,0.207562991039239
Grenada,Pulses,0.207562991039239
Grenada,Rice (Paddy Equivalent),0.207562991039239
Grenada,Ruminants,0.207562991039239
Grenada,Starchy Roots,0.207562991039239
Grenada,Sugar,0.207562991039239
Grenada,WheatBarleyOats,0.207562991039239
Guatemala,FruitVeg,0.207562991039239
Guatemala,MaizeMilletSorghum,0.207562991039239
Guatemala,Monogastrics,0.207562991039239
Guatemala,Oilcrops,0.207562991039239
Guatemala,Pulses,0.207562991039239
Guatemala,Rice (Paddy Equivalent),0.207562991039239
Guatemala,Ruminants,0.207562991039239
Guatemala,Starchy Roots,0.207562991039239
Guatemala,Sugar,0.207562991039239
Guatemala,WheatBarleyOats,0.207562991039239
Guinea,FruitVeg,0.207562991039239
Guinea,MaizeMilletSorghum,0.207562991039239
Guinea,Monogastrics,0.207562991039239
Guinea,Oilcrops,0.207562991039239
Guinea,Pulses,0.207562991039239
Guinea,Rice (Paddy Equivalent),0.207562991039239
Guinea,Ruminants,0.207562991039239
Guinea,Starchy Roots,0.207562991039239
Guinea,Sugar,0.207562991039239
Guinea,WheatBarleyOats,0.207562991039239
Guinea-Bissau,FruitVeg,0.207562991039239
Guinea-Bissau,MaizeMilletSorghum,0.207562991039239
Guinea-Bissau,Monogastrics,0.207562991039239
Guinea-Bissau,Oilcrops,0.207562991039239
Guinea-Bissau,Pulses,0.207562991039239
Guinea-Bissau,Rice (Paddy Equivalent),0.207562991039239
Guinea-Bissau,Ruminants,0.207562991039239
Guinea-Bissau,Starchy Roots,0.207562991039239
Guinea-Bissau,Sugar,0.207562991039239
Guinea-Bissau,WheatBarleyOats,0.207562991039239
Guyana,FruitVeg,0.207562991039239
Guyana,MaizeMilletSorghum,0.207562991039239
Guyana,Monogastrics,0.207562991039239
Guyana,Oilcrops,0.207562991039239
Guyana,Pulses,0.207562991039239
Guyana,Rice (Paddy Equivalent),0.207562991039239
Guyana,Ruminants,0.207562991039239
Guyana,Starchy Roots,0.207562991039239
Guyana,Sugar,0.207562991039239
Guyana,WheatBarleyOats,0.207562991039239
Haiti,FruitVeg,0.207562991039239
Haiti,MaizeMilletSorghum,0.207562991039239
Haiti,Monogastrics,0.207562991039239
Haiti,Oilcrops,0.207562991039239
Haiti,Pulses,0.207562991039239
Haiti,Rice (Paddy Equivalent),0.207562991039239
Haiti,Ruminants,0.207562991039239
Haiti,Starchy Roots,0.207562991039239
Haiti,Sugar,0.207562991039239
Haiti,WheatBarleyOats,0.207562991039239
Honduras,FruitVeg,0.207562991039239
Honduras,MaizeMilletSorghum,0.207562991039239
Honduras,Monogastrics,0.207562991039239
Honduras,Oilcrops,0.207562991039239
Honduras,Pulses,0.207562991039239
Honduras,Rice (Paddy Equivalent),0.207562991039239
Honduras,Ruminants,0.207562991039239
Honduras,Starchy Roots,0.207562991039239
Honduras,Sugar,0.207562991039239
Honduras,WheatBarleyOats,0.207562991039239
Hungary,FruitVeg,0.112056970911359
Hungary,MaizeMilletSorghum,0.112056970911359
Hungary,Monogastrics,0.112056970911359
Hungary,Oilcrops,0.112056970911359
Hungary,Pulses,0.112056970911359
Hungary,Rice (Paddy Equivalent),0.112056970911359
Hungary,Ruminants,0.112056970911359
Hungary,Starchy Roots,0.112056970911359
Hungary,Sugar,0.112056970911359
Hungary,WheatBarleyOats,0.112056970911359
Iceland,FruitVeg,0.171226980984514
Iceland,MaizeMilletSorghum,0.171226980984514
Iceland,Monogastrics,0.171226980984514
Iceland,Oilcrops,0.171226980984514
Iceland,Pulses,0.171226980984514
Iceland,Rice (Paddy Equivalent),0.171226980984514
Iceland,Ruminants,0.171226980984514
Iceland,Starchy Roots,0.171226980984514
Iceland,Sugar,0.171226980984514
Iceland,WheatBarleyOats,0.171226980984514
India,FruitVeg,0.250536820828921
India,MaizeMilletSorghum,0.250536820828921
India,Monogastrics,0.250536820828921
India,Oilcrops,0.250536820828921
India,Pulses,0.250536820828921
India,Rice (Paddy Equivalent),0.250536820828921
India,Ruminants,0.250536820828921
India,Starchy Roots,0.250536820828921
India,Sugar,0.250536820828921
India,WheatBarleyOats,0.250536820828921
Indonesia,FruitVeg,0.0588236522704165
Indonesia,MaizeMilletSorghum,0.0588236522704165
Indonesia,Monogastrics,0.0588236522704165
Indonesia,Oilcrops,0.0588236522704165
Indonesia,Pulses,0.0588236522704165
Indonesia,Rice (Paddy Equivalent),0.0588236522704165
Indonesia,Ruminants,0.0588236522704165
Indonesia,Starchy Roots,0.0588236522704165
Indonesia,Sugar,0.0588236522704165
Indonesia,WheatBarleyOats,0.0588236522704165
Iran (Islamic Republic of),FruitVeg,0.207562991039239
Iran (Islamic Republic of),MaizeMilletSorghum,0.207562991039239
Iran (Islamic Republic of),Monogastrics,0.207562991039239
Iran (Islamic Republic of),Oilcrops,0.207562991039239
Iran (Islamic Republic of),Pulses,0.207562991039239
Iran (Islamic Republic of),Rice (Paddy Equivalent),0.207562991039239
Iran (Islamic Republic of),Ruminants,0.207562991039239
Iran (Islamic Republic of),Starchy Roots,0.207562991039239
Iran (Islamic Republic of),Sugar,0.207562991039239
Iran (Islamic Republic of),WheatBarleyOats,0.207562991039239
Iraq,FruitVeg,0.207562991039239
Iraq,MaizeMilletSorghum,0.207562991039239
Iraq,Monogastrics,0.207562991039239
Iraq,Oilcrops,0.207562991039239
Iraq,Pulses,0.207562991039239
Iraq,Rice (Paddy Equivalent),0.207562991039239
Iraq,Ruminants,0.207562991039239
Iraq,Starchy Roots,0.207562991039239
Iraq,Sugar,0.207562991039239
Iraq,WheatBarleyOats,0.207562991039239
Ireland,FruitVeg,0.112056970911359
Ireland,MaizeMilletSorghum,0.112056970911359
Ireland,Monogastrics,0.112056970911359
Ireland,Oilcrops,0.112056970911359
Ireland,Pulses,0.112056970911359
Ireland,Rice (Paddy Equivalent),0.112056970911359
Ireland,Ruminants,0.112056970911359
Ireland,Starchy Roots,0.112056970911359
Ireland,Sugar,0.112056970911359
Ireland,WheatBarleyOats,0.112056970911359
Israel,FruitVeg,0.244523079056479
Israel,MaizeMilletSorghum,0.244523079056479
Israel,Monogastrics,0.244523079056479
Israel,Oilcrops,0.244523079056479
Israel,Pulses,0.244523079056479
Israel,Rice (Paddy Equivalent),0.244523079056479
Israel,Ruminants,0.244523079056479
Israel,Starchy Roots,0.244523079056479
Israel,Sugar,0.244523079056479
Israel,WheatBarleyOats,0.244523079056479
Italy,FruitVeg,0.112056970911359
Italy,MaizeMilletSorghum,0.112056970911359
Italy,Monogastrics,0.112056970911359
Italy,Oilcrops,0.112056970911359
Italy,Pulses,0.112056970911359
Italy,Rice (Paddy Equivalent),0.112056970911359
Italy,Ruminants,0.112056970911359
Italy,Starchy Roots,0.112056970911359
Italy,Sugar,0.112056970911359
Italy,WheatBarleyOats,0.112056970911359
Jamaica,FruitVeg,0.207562991039239
Jamaica,MaizeMilletSorghum,0.207562991039239
Jamaica,Monogastrics,0.207562991039239
Jamaica,Oilcrops,0.207562991039239
Jamaica,Pulses,0.207562991039239
Jamaica,Rice (Paddy Equivalent),0.207562991039239
Jamaica,Ruminants,0.207562991039239
Jamaica,Starchy Roots,0.207562991039239
Jamaica,Sugar,0.207562991039239
Jamaica,WheatBarleyOats,0.207562991039239
Japan,FruitVeg,0.244523079056479
Japan,MaizeMilletSorghum,0.244523079056479
Japan,Monogastrics,0.244523079056479
Japan,Oilcrops,0.244523079056479
Japan,Pulses,0.244523079056479
Japan,Rice (Paddy Equivalent),0.244523079056479
Japan,Ruminants,0.244523079056479
Japan,Starchy Roots,0.244523079056479
Japan,Sugar,0.244523079056479
Japan,WheatBarleyOats,0.244523079056479
Jordan,FruitVeg,0.207562991039239
Jordan,MaizeMilletSorghum,0.207562991039239
Jordan,Monogastrics,0.207562991039239
Jordan,Oilcrops,0.207562991039239
Jordan,Pulses,0.207562991039239
Jordan,Rice (Paddy Equivalent),0.207562991039239
Jordan,Ruminants,0.207562991039239
Jordan,Starchy Roots,0.207562991039239
Jordan,Sugar,0.207562991039239
Jordan,WheatBarleyOats,0.207562991039239
Kazakhstan,FruitVeg,0.207562991039239
Kazakhstan,MaizeMilletSorghum,0.207562991039239
Kazakhstan,Monogastrics,0.207562991039239
Kazakhstan,Oilcrops,0.207562991039239
Kazakhstan,Pulses,0.207562991039239
Kazakhstan,Rice (Paddy Equivalent),0.207562991039239
Kazakhstan,Ruminants,0.207562991039239
Kazakhstan,Starchy Roots,0.207562991039239
Kazakhstan,Sugar,0.207562991039239
Kazakhstan,WheatBarleyOats,0.207562991039239
Kenya,FruitVeg,0.207562991039239
Kenya,MaizeMilletSorghum,0.207562991039239
Kenya,Monogastrics,0.207562991039239
Kenya,Oilcrops,0.207562991039239
Kenya,Pulses,0.207562991039239
Kenya,Rice (Paddy Equivalent),0.207562991039239
Kenya,Ruminants,0.207562991039239
Kenya,Starchy Roots,0.207562991039239
Kenya,Sugar,0.207562991039239
Kenya,WheatBarleyOats,0.207562991039239
Kiribati,FruitVeg,0.207562991039239
Kiribati,MaizeMilletSorghum,0.207562991039239
Kiribati,Monogastrics,0.207562991039239
Kiribati,Oilcrops,0.207562991039239
Kiribati,Pulses,0.207562991039239
Kiribati,Rice (Paddy Equivalent),0.207562991039239
Kiribati,Ruminants,0.207562991039239
Kiribati,Starchy Roots,0.207562991039239
Kiribati,Sugar,0.207562991039239
Kiribati,WheatBarleyOats,0.207562991039239
Kosovo,FruitVeg,0.207562991039239
Kosovo,MaizeMilletSorghum,0.207562991039239
Kosovo,Monogastrics,0.207562991039239
Kosovo,Oilcrops,0.207562991039239
Kosovo,Pulses,0.207562991039239
Kosovo,Rice (Paddy Equivalent),0.207562991039239
Kosovo,Ruminants,0.207562991039239
Kosovo,Starchy Roots,0.207562991039239
Kosovo,Sugar,0.207562991039239
Kosovo,WheatBarleyOats,0.207562991039239
Kuwait,FruitVeg,0.207562991039239
Kuwait,MaizeMilletSorghum,0.207562991039239
Kuwait,Monogastrics,0.207562991039239
Kuwait,Oilcrops,0.207562991039239
Kuwait,Pulses,0.207562991039239
Kuwait,Rice (Paddy Equivalent),0.207562991039239
Kuwait,Ruminants,0.207562991039239
Kuwait,Starchy Roots,0.207562991039239
Kuwait,Sugar,0.207562991039239
Kuwait,WheatBarleyOats,0.207562991039239
Kyrgyzstan,FruitVeg,0.207562991039239
Kyrgyzstan,MaizeMilletSorghum,0.207562991039239
Kyrgyzstan,Monogastrics,0.207562991039239
Kyrgyzstan,Oilcrops,0.207562991039239
Kyrgyzstan,Pulses,0.207562991039239
Kyrgyzstan,Rice (Paddy Equivalent),0.207562991039239
Kyrgyzstan,Ruminants,0.207562991039239
Kyrgyzstan,Starchy Roots,0.207562991039239
Kyrgyzstan,Sugar,0.207562991039239
Kyrgyzstan,WheatBarleyOats,0.207562991039239
Lao People's Democratic Republic,FruitVeg,0.207562991039239
Lao People's Democratic Republic,MaizeMilletSorghum,0.207562991039239
Lao People's Democratic Republic,Monogastrics,0.207562991039239
Lao People's Democratic Republic,Oilcrops,0.207562991039239
Lao People's Democratic Republic,Pulses,0.207562991039239
Lao People's Democratic Republic,Rice (Paddy Equivalent),0.207562991039239
Lao People's Democratic Republic,Ruminants,0.207562991039239
Lao People's Democratic Republic,Starchy Roots,0.207562991039239
Lao People's Democratic Republic,Sugar,0.207562991039239
Lao People's Democratic Republic,WheatBarleyOats,0.207562991039239
Latvia,FruitVeg,0.112056970911359
Latvia,MaizeMilletSorghum,0.112056970911359
Latvia,Monogastrics,0.112056970911359
Latvia,Oilcrops,0.112056970911359
Latvia,Pulses,0.112056970911359
Latvia,Rice (Paddy Equivalent),0.112056970911359
Latvia,Ruminants,0.112056970911359
Latvia,Starchy Roots,0.112056970911359
Latvia,Sugar,0.112056970911359
Latvia,WheatBarleyOats,0.112056970911359
Lebanon,FruitVeg,0.207562991039239
Lebanon,MaizeMilletSorghum,0.207562991039239
Lebanon,Monogastrics,0.207562991039239
Lebanon,Oilcrops,0.207562991039239
Lebanon,Pulses,0.207562991039239
Lebanon,Rice (Paddy Equivalent),0.207562991039239
Lebanon,Ruminants,0.207562991039239
Lebanon,Starchy Roots,0.207562991039239
Lebanon,Sugar,0.207562991039239
Lebanon,WheatBarleyOats,0.207562991039239
Lesotho,FruitVeg,0.207562991039239
Lesotho,MaizeMilletSorghum,0.207562991039239
Lesotho,Monogastrics,0.207562991039239
Lesotho,Oilcrops,0.207562991039239
Lesotho,Pulses,0.207562991039239
Lesotho,Rice (Paddy Equivalent),0.207562991039239
Lesotho,Ruminants,0.207562991039239
Lesotho,Starchy Roots,0.207562991039239
Lesotho,Sugar,0.207562991039239
Lesotho,WheatBarleyOats,0.207562991039239
Liberia,FruitVeg,0.207562991039239
Liberia,MaizeMilletSorghum,0.207562991039239
Liberia,Monogastrics,0.207562991039239
Liberia,Oilcrops,0.207562991039239
Liberia,Pulses,0.207562991039239
Liberia,Rice (Paddy Equivalent),0.207562991039239
Liberia,Ruminants,0.207562991039239
Liberia,Starchy Roots,0.207562991039239
Liberia,Sugar,0.207562991039239
Liberia,WheatBarleyOats,0.207562991039239
Libya,FruitVeg,0.207562991039239
Libya,MaizeMilletSorghum,0.207562991039239
Libya,Monogastrics,0.207562991039239
Libya,Oilcrops,0.207562991039239
Libya,Pulses,0.207562991039239
Libya,Rice (Paddy Equivalent),0.207562991039239
Libya,Ruminants,0.207562991039239
Libya,Starchy Roots,0.207562991039239
Libya,Sugar,0.207562991039239
Libya,WheatBarleyOats,0.207562991039239
Lithuania,FruitVeg,0.112056970911359
Lithuania,MaizeMilletSorghum,0.112056970911359
Lithuania,Monogastrics,0.112056970911359
Lithuania,Oilcrops,0.112056970911359
Lithuania,Pulses,0.112056970911359
Lithuania,Rice (Paddy Equivalent),0.112056970911359
Lithuania,Ruminants,0.112056970911359
Lithuania,Starchy Roots,0.112056970911359
Lithuania,Sugar,0.112056970911359
Lithuania,WheatBarleyOats,0.112056970911359
Luxembourg,FruitVeg,0.112056970911359
Luxembourg,MaizeMilletSorghum,0.112056970911359
Luxembourg,Monogastrics,0.112056970911359
Luxembourg,Oilcrops,0.112056970911359
Luxembourg,Pulses,0.112056970911359
Luxembourg,Rice (Paddy Equivalent),0.112056970911359
Luxembourg,Ruminants,0.112056970911359
Luxembourg,Starchy Roots,0.112056970911359
Luxembourg,Sugar,0.112056970911359
Luxembourg,WheatBarleyOats,0.112056970911359
Macau,FruitVeg,0.207562991039239
Macau,MaizeMilletSorghum,0.207562991039239
Macau,Monogastrics,0.207562991039239
Macau,Oilcrops,0.207562991039239
Macau,Pulses,0.207562991039239
Macau,Rice (Paddy Equivalent),0.207562991039239
Macau,Ruminants,0.207562991039239
Macau,Starchy Roots,0.207562991039239
Macau,Sugar,0.207562991039239
Macau,WheatBarleyOats,0.207562991039239
Madagascar,FruitVeg,0.207562991039239
Madagascar,MaizeMilletSorghum,0.207562991039239
Madagascar,Monogastrics,0.207562991039239
Madagascar,Oilcrops,0.207562991039239
Madagascar,Pulses,0.207562991039239
Madagascar,Rice (Paddy Equivalent),0.207562991039239
Madagascar,Ruminants,0.207562991039239
Madagascar,Starchy Roots,0.207562991039239
Madagascar,Sugar,0.207562991039239
Madagascar,WheatBarleyOats,0.207562991039239
Malawi,FruitVeg,0.207562991039239
Malawi,MaizeMilletSorghum,0.207562991039239
Malawi,Monogastrics,0.207562991039239
Malawi,Oilcrops,0.207562991039239
Malawi,Pulses,0.207562991039239
Malawi,Rice (Paddy Equivalent),0.207562991039239
Malawi,Ruminants,0.207562991039239
Malawi,Starchy Roots,0.207562991039239
Malawi,Sugar,0.207562991039239
Malawi,WheatBarleyOats,0.207562991039239
Malaysia,FruitVeg,0.207562991039239
Malaysia,MaizeMilletSorghum,0.207562991039239
Malaysia,Monogastrics,0.207562991039239
Malaysia,Oilcrops,0.207562991039239
Malaysia,Pulses,0.207562991039239
Malaysia,Rice (Paddy Equivalent),0.207562991039239
Malaysia,Ruminants,0.207562991039239
Malaysia,Starchy Roots,0.207562991039239
Malaysia,Sugar,0.207562991039239
Malaysia,WheatBarleyOats,0.207562991039239
Maldives,FruitVeg,0.207562991039239
Maldives,MaizeMilletSorghum,0.207562991039239
Maldives,Monogastrics,0.207562991039239
Maldives,Oilcrops,0.207562991039239
Maldives,Pulses,0.207562991039239
Maldives,Rice (Paddy Equivalent),0.207562991039239
Maldives,Ruminants,0.207562991039239
Maldives,Starchy Roots,0.207562991039239
Maldives,Sugar,0.207562991039239
Maldives,WheatBarleyOats,0.207562991039239
Mali,FruitVeg,0.207562991039239
Mali,MaizeMilletSorghum,0.207562991039239
Mali,Monogastrics,0.207562991039239
Mali,Oilcrops,0.207562991039239
Mali,Pulses,0.207562991039239
Mali,Rice (Paddy Equivalent),0.207562991039239
Mali,Ruminants,0.207562991039239
Mali,Starchy Roots,0.207562991039239
Mali,Sugar,0.207562991039239
Mali,WheatBarleyOats,0.207562991039239
Malta,FruitVeg,0.112056970911359
Malta,MaizeMilletSorghum,0.112056970911359
Malta,Monogastrics,0.112056970911359
Malta,Oilcrops,0.112056970911359
Malta,Pulses,0.112056970911359
Malta,Rice (Paddy Equivalent),0.112056970911359
Malta,Ruminants,0.112056970911359
Malta,Starchy Roots,0.112056970911359
Malta,Sugar,0.112056970911359
Malta,WheatBarleyOats,0.112056970911359
Marshall Islands,FruitVeg,0.207562991039239
Marshall Islands,MaizeMilletSorghum,0.207562991039239
Marshall Islands,Monogastrics,0.207562991039239
Marshall Islands,Oilcrops,0.207562991039239
Marshall Islands,Pulses,0.207562991039239
Marshall Islands,Rice (Paddy Equivalent),0.207562991039239
Marshall Islands,Ruminants,0.207562991039239
Marshall Islands,Starchy Roots,0.207562991039239
Marshall Islands,Sugar,0.207562991039239
Marshall Islands,WheatBarleyOats,0.207562991039239
Mauritania,FruitVeg,0.207562991039239
Mauritania,MaizeMilletSorghum,0.207562991039239
Mauritania,Monogastrics,0.207562991039239
Mauritania,Oilcrops,0.207562991039239
Mauritania,Pulses,0.207562991039239
Mauritania,Rice (Paddy Equivalent),0.207562991039239
Mauritania,Ruminants,0.207562991039239
Mauritania,Starchy Roots,0.207562991039239
Mauritania,Sugar,0.207562991039239
Mauritania,WheatBarleyOats,0.207562991039239
Mauritius,FruitVeg,0.207562991039239
Mauritius,MaizeMilletSorghum,0.207562991039239
Mauritius,Monogastrics,0.207562991039239
Mauritius,Oilcrops,0.207562991039239
Mauritius,Pulses,0.207562991039239
Mauritius,Rice (Paddy Equivalent),0.207562991039239
Mauritius,Ruminants,0.207562991039239
Mauritius,Starchy Roots,0.207562991039239
Mauritius,Sugar,0.207562991039239
Mauritius,WheatBarleyOats,0.207562991039239
Mexico,FruitVeg,0.162155981868606
Mexico,MaizeMilletSorghum,0.162155981868606
Mexico,Monogastrics,0.162155981868606
Mexico,Oilcrops,0.162155981868606
Mexico,Pulses,0.162155981868606
Mexico,Rice (Paddy Equivalent),0.162155981868606
Mexico,Ruminants,0.162155981868606
Mexico,Starchy Roots,0.162155981868606
Mexico,Sugar,0.162155981868606
Mexico,WheatBarleyOats,0.162155981868606
Micronesia (Federated States of),FruitVeg,0.207562991039239
Micronesia (Federated States of),MaizeMilletSorghum,0.207562991039239
Micronesia (Federated States of),Monogastrics,0.207562991039239
Micronesia (Federated States of),Oilcrops,0.207562991039239
Micronesia (Federated States of),Pulses,0.207562991039239
Micronesia (Federated States of),Rice (Paddy Equivalent),0.207562991039239
Micronesia (Federated States of),Ruminants,0.207562991039239
Micronesia (Federated States of),Starchy Roots,0.207562991039239
Micronesia (Federated States of),Sugar,0.207562991039239
Micronesia (Federated States of),WheatBarleyOats,0.207562991039239
Mongolia,FruitVeg,0.207562991039239
Mongolia,MaizeMilletSorghum,0.207562991039239
Mongolia,Monogastrics,0.207562991039239
Mongolia,Oilcrops,0.207562991039239
Mongolia,Pulses,0.207562991039239
Mongolia,Rice (Paddy Equivalent),0.207562991039239
Mongolia,Ruminants,0.207562991039239
Mongolia,Starchy Roots,0.207562991039239
Mongolia,Sugar,0.207562991039239
Mongolia,WheatBarleyOats,0.207562991039239
Montenegro,FruitVeg,0.207562991039239
Montenegro,MaizeMilletSorghum,0.207562991039239
Montenegro,Monogastrics,0.207562991039239
Montenegro,Oilcrops,0.207562991039239
Montenegro,Pulses,0.207562991039239
Montenegro,Rice (Paddy Equivalent),0.207562991039239
Montenegro,Ruminants,0.207562991039239
Montenegro,Starchy Roots,0.207562991039239
Montenegro,Sugar,0.207562991039239
Montenegro,WheatBarleyOats,0.207562991039239
Morocco,FruitVeg,0.207562991039239
Morocco,MaizeMilletSorghum,0.207562991039239
Morocco,Monogastrics,0.207562991039239
Morocco,Oilcrops,0.207562991039239
Morocco,Pulses,0.207562991039239
Morocco,Rice (Paddy Equivalent),0.207562991039239
Morocco,Ruminants,0.207562991039239
Morocco,Starchy Roots,0.207562991039239
Morocco,Sugar,0.207562991039239
Morocco,WheatBarleyOats,0.207562991039239
Mozambique,FruitVeg,0.207562991039239
Mozambique,MaizeMilletSorghum,0.207562991039239
Mozambique,Monogastrics,0.207562991039239
Mozambique,Oilcrops,0.207562991039239
Mozambique,Pulses,0.207562991039239
Mozambique,Rice (Paddy Equivalent),0.207562991039239
Mozambique,Ruminants,0.207562991039239
Mozambique,Starchy Roots,0.207562991039239
Mozambique,Sugar,0.207562991039239
Mozambique,WheatBarleyOats,0.207562991039239
Myanmar,FruitVeg,0.207562991039239
Myanmar,MaizeMilletSorghum,0.207562991039239
Myanmar,Monogastrics,0.207562991039239
Myanmar,Oilcrops,0.207562991039239
Myanmar,Pulses,0.207562991039239
Myanmar,Rice (Paddy Equivalent),0.207562991039239
Myanmar,Ruminants,0.207562991039239
Myanmar,Starchy Roots,0.207562991039239
Myanmar,Sugar,0.207562991039239
Myanmar,WheatBarleyOats,0.207562991039239
Namibia,FruitVeg,0.207562991039239
Namibia,MaizeMilletSorghum,0.207562991039239
Namibia,Monogastrics,0.207562991039239
Namibia,Oilcrops,0.207562991039239
Namibia,Pulses,0.207562991039239
Namibia,Rice (Paddy Equivalent),0.207562991039239
Namibia,Ruminants,0.207562991039239
Namibia,Starchy Roots,0.207562991039239
Namibia,Sugar,0.207562991039239
Namibia,WheatBarleyOats,0.207562991039239
Nepal,FruitVeg,0.207562991039239
Nepal,MaizeMilletSorghum,0.207562991039239
Nepal,Monogastrics,0.207562991039239
Nepal,Oilcrops,0.207562991039239
Nepal,Pulses,0.207562991039239
Nepal,Rice (Paddy Equivalent),0.207562991039239
Nepal,Ruminants,0.207562991039239
Nepal,Starchy Roots,0.207562991039239
Nepal,Sugar,0.207562991039239
Nepal,WheatBarleyOats,0.207562991039239
Netherlands,FruitVeg,0.112056970911359
Netherlands,MaizeMilletSorghum,0.112056970911359
Netherlands,Monogastrics,0.112056970911359
Netherlands,Oilcrops,0.112056970911359
Netherlands,Pulses,0.112056970911359
Netherlands,Rice (Paddy Equivalent),0.112056970911359
Netherlands,Ruminants,0.112056970911359
Netherlands,Starchy Roots,0.112056970911359
Netherlands,Sugar,0.112056970911359
Netherlands,WheatBarleyOats,0.112056970911359
New Caledonia,FruitVeg,0.207562991039239
New Caledonia,MaizeMilletSorghum,0.207562991039239
New Caledonia,Monogastrics,0.207562991039239
New Caledonia,Oilcrops,0.207562991039239
New Caledonia,Pulses,0.207562991039239
New Caledonia,Rice (Paddy Equivalent),0.207562991039239
New Caledonia,Ruminants,0.207562991039239
New Caledonia,Starchy Roots,0.207562991039239
New Caledonia,Sugar,0.207562991039239
New Caledonia,WheatBarleyOats,0.207562991039239
New Zealand,FruitVeg,0.0645442213852613
New Zealand,MaizeMilletSorghum,0.0645442213852613
New Zealand,Monogastrics,0.0645442213852613
New Zealand,Oilcrops,0.0645442213852613
New Zealand,Pulses,0.0645442213852613
New Zealand,Rice (Paddy Equivalent),0.0645442213852613
New Zealand,Ruminants,0.0645442213852613
New Zealand,Starchy Roots,0.0645442213852613
New Zealand,Sugar,0.0645442213852613
New Zealand,WheatBarleyOats,0.0645442213852613
Nicaragua,FruitVeg,0.207562991039239
Nicaragua,MaizeMilletSorghum,0.207562991039239
Nicaragua,Monogastrics,0.207562991039239
Nicaragua,Oilcrops,0.207562991039239
Nicaragua,Pulses,0.207562991039239
Nicaragua,Rice (Paddy Equivalent),0.207562991039239
Nicaragua,Ruminants,0.207562991039239
Nicaragua,Starchy Roots,0.207562991039239
Nicaragua,Sugar,0.207562991039239
Nicaragua,WheatBarleyOats,0.207562991039239
Niger,FruitVeg,0.207562991039239
Niger,MaizeMilletSorghum,0.207562991039239
Niger,Monogastrics,0.207562991039239
Niger,Oilcrops,0.207562991039239
Niger,Pulses,0.207562991039239
Niger,Rice (Paddy Equivalent),0.207562991039239
Niger,Ruminants,0.207562991039239
Niger,Starchy Roots,0.207562991039239
Niger,Sugar,0.207562991039239
Niger,WheatBarleyOats,0.207562991039239
Nigeria,FruitVeg,0.207562991039239
Nigeria,MaizeMilletSorghum,0.207562991039239
Nigeria,Monogastrics,0.207562991039239
Nigeria,Oilcrops,0.207562991039239
Nigeria,Pulses,0.207562991039239
Nigeria,Rice (Paddy Equivalent),0.207562991039239
Nigeria,Ruminants,0.207562991039239
Nigeria,Starchy Roots,0.207562991039239
Nigeria,Sugar,0.207562991039239
Nigeria,WheatBarleyOats,0.207562991039239
Norway,FruitVeg,0.244523079056479
Norway,MaizeMilletSorghum,0.244523079056479
Norway,Monogastrics,0.244523079056479
Norway,Oilcrops,0.244523079056479
Norway,Pulses,0.244523079056479
Norway,Rice (Paddy Equivalent),0.244523079056479
Norway,Ruminants,0.244523079056479
Norway,Starchy Roots,0.244523079056479
Norway,Sugar,0.244523079056479
Norway,WheatBarleyOats,0.244523079056479
Oman,FruitVeg,0.207562991039239
Oman,MaizeMilletSorghum,0.207562991039239
Oman,Monogastrics,0.207562991039239
Oman,Oilcrops,0.207562991039239
Oman,Pulses,0.207562991039239
Oman,Rice (Paddy Equivalent),0.207562991039239
Oman,Ruminants,0.207562991039239
Oman,Starchy Roots,0.207562991039239
Oman,Sugar,0.207562991039239
Oman,WheatBarleyOats,0.207562991039239
Pakistan,FruitVeg,0.207562991039239
Pakistan,MaizeMilletSorghum,0.207562991039239
Pakistan,Monogastrics,0.207562991039239
Pakistan,Oilcrops,0.207562991039239
Pakistan,Pulses,0.207562991039239
Pakistan,Rice (Paddy Equivalent),0.207562991039239
Pakistan,Ruminants,0.207562991039239
Pakistan,Starchy Roots,0.207562991039239
Pakistan,Sugar,0.207562991039239
Pakistan,WheatBarleyOats,0.207562991039239
Palau,FruitVeg,0.207562991039239
Palau,MaizeMilletSorghum,0.207562991039239
Palau,Monogastrics,0.207562991039239
Palau,Oilcrops,0.207562991039239
Palau,Pulses,0.207562991039239
Palau,Rice (Paddy Equivalent),0.207562991039239
Palau,Ruminants,0.207562991039239
Palau,Starchy Roots,0.207562991039239
Palau,Sugar,0.207562991039239
Palau,WheatBarleyOats,0.207562991039239
Panama,FruitVeg,0.207562991039239
Panama,MaizeMilletSorghum,0.207562991039239
Panama,Monogastrics,0.207562991039239
Panama,Oilcrops,0.207562991039239
Panama,Pulses,0.207562991039239
Panama,Rice (Paddy Equivalent),0.207562991039239
Panama,Ruminants,0.207562991039239
Panama,Starchy Roots,0.207562991039239
Panama,Sugar,0.207562991039239
Panama,WheatBarleyOats,0.207562991039239
Papua New Guinea,FruitVeg,0.207562991039239
Papua New Guinea,MaizeMilletSorghum,0.207562991039239
Papua New Guinea,Monogastrics,0.207562991039239
Papua New Guinea,Oilcrops,0.207562991039239
Papua New Guinea,Pulses,0.207562991039239
Papua New Guinea,Rice (Paddy Equivalent),0.207562991039239
Papua New Guinea,Ruminants,0.207562991039239
Papua New Guinea,Starchy Roots,0.207562991039239
Papua New Guinea,Sugar,0.207562991039239
Papua New Guinea,WheatBarleyOats,0.207562991039239
Paraguay,FruitVeg,0.207562991039239
Paraguay,MaizeMilletSorghum,0.207562991039239
Paraguay,Monogastrics,0.207562991039239
Paraguay,Oilcrops,0.207562991039239
Paraguay,Pulses,0.207562991039239
Paraguay,Rice (Paddy Equivalent),0.207562991039239
Paraguay,Ruminants,0.207562991039239
Paraguay,Starchy Roots,0.207562991039239
Paraguay,Sugar,0.207562991039239
Paraguay,WheatBarleyOats,0.207562991039239
Peru,FruitVeg,0.207562991039239
Peru,MaizeMilletSorghum,0.207562991039239
Peru,Monogastrics,0.207562991039239
Peru,Oilcrops,0.207562991039239
Peru,Pulses,0.207562991039239
Peru,Rice (Paddy Equivalent),0.207562991039239
Peru,Ruminants,0.207562991039239
Peru,Starchy Roots,0.207562991039239
Peru,Sugar,0.207562991039239
Peru,WheatBarleyOats,0.207562991039239
Philippines,FruitVeg,0.207562991039239
Philippines,MaizeMilletSorghum,0.207562991039239
Philippines,Monogastrics,0.207562991039239
Philippines,Oilcrops,0.207562991039239
Philippines,Pulses,0.207562991039239
Philippines,Rice (Paddy Equivalent),0.207562991039239
Philippines,Ruminants,0.207562991039239
Philippines,Starchy Roots,0.207562991039239
Philippines,Sugar,0.207562991039239
Philippines,WheatBarleyOats,0.207562991039239
Poland,FruitVeg,0.112056970911359
Poland,MaizeMilletSorghum,0.112056970911359
Poland,Monogastrics,0.112056970911359
Poland,Oilcrops,0.112056970911359
Poland,Pulses,0.112056970911359
Poland,Rice (Paddy Equivalent),0.112056970911359
Poland,Ruminants,0.112056970911359
Poland,Starchy Roots,0.112056970911359
Poland,Sugar,0.112056970911359
Poland,WheatBarleyOats,0.112056970911359
Portugal,FruitVeg,0.112056970911359
Portugal,MaizeMilletSorghum,0.112056970911359
Portugal,Monogastrics,0.112056970911359
Portugal,Oilcrops,0.112056970911359
Portugal,Pulses,0.112056970911359
Portugal,Rice (Paddy Equivalent),0.112056970911359
Portugal,Ruminants,0.112056970911359
Portugal,Starchy Roots,0.112056970911359
Portugal,Sugar,0.112056970911359
Portugal,WheatBarleyOats,0.112056970911359
Puerto Rico,FruitVeg,0.207562991039239
Puerto Rico,MaizeMilletSorghum,0.207562991039239
Puerto Rico,Monogastrics,0.207562991039239
Puerto Rico,Oilcrops,0.207562991039239
Puerto Rico,Pulses,0.207562991039239
Puerto Rico,Rice (Paddy Equivalent),0.207562991039239
Puerto Rico,Ruminants,0.207562991039239
Puerto Rico,Starchy Roots,0.207562991039239
Puerto Rico,Sugar,0.207562991039239
Puerto Rico,WheatBarleyOats,0.207562991039239
Qatar,FruitVeg,0.207562991039239
Qatar,MaizeMilletSorghum,0.207562991039239
Qatar,Monogastrics,0.207562991039239
Qatar,Oilcrops,0.207562991039239
Qatar,Pulses,0.207562991039239
Qatar,Rice (Paddy Equivalent),0.207562991039239
Qatar,Ruminants,0.207562991039239
Qatar,Starchy Roots,0.207562991039239
Qatar,Sugar,0.207562991039239
Qatar,WheatBarleyOats,0.207562991039239
Republic of Korea,FruitVeg,0.244523079056479
Republic of Korea,MaizeMilletSorghum,0.244523079056479
Republic of Korea,Monogastrics,0.244523079056479
Republic of Korea,Oilcrops,0.244523079056479
Republic of Korea,Pulses,0.244523079056479
Republic of Korea,Rice (Paddy Equivalent),0.244523079056479
Republic of Korea,Ruminants,0.244523079056479
Republic of Korea,Starchy Roots,0.244523079056479
Republic of Korea,Sugar,0.244523079056479
Republic of Korea,WheatBarleyOats,0.244523079056479
Republic of Moldova,FruitVeg,0.207562991039239
Republic of Moldova,MaizeMilletSorghum,0.207562991039239
Republic of Moldova,Monogastrics,0.207562991039239
Republic of Moldova,Oilcrops,0.207562991039239
Republic of Moldova,Pulses,0.207562991039239
Republic of Moldova,Rice (Paddy Equivalent),0.207562991039239
Republic of Moldova,Ruminants,0.207562991039239
Republic of Moldova,Starchy Roots,0.207562991039239
Republic of Moldova,Sugar,0.207562991039239
Republic of Moldova,WheatBarleyOats,0.207562991039239
Romania,FruitVeg,0.112056970911359
Romania,MaizeMilletSorghum,0.112056970911359
Romania,Monogastrics,0.112056970911359
Romania,Oilcrops,0.112056970911359
Romania,Pulses,0.112056970911359
Romania,Rice (Paddy Equivalent),0.112056970911359
Romania,Ruminants,0.112056970911359
Romania,Starchy Roots,0.112056970911359
Romania,Sugar,0.112056970911359
Romania,WheatBarleyOats,0.112056970911359
Russian Federation,FruitVeg,0.198512674910563
Russian Federation,MaizeMilletSorghum,0.198512674910563
Russian Federation,Monogastrics,0.198512674910563
Russian Federation,Oilcrops,0.198512674910563
Russian Federation,Pulses,0.198512674910563
Russian Federation,Rice (Paddy Equivalent),0.198512674910563
Russian Federation,Ruminants,0.198512674910563
Russian Federation,Starchy Roots,0.198512674910563
Russian Federation,Sugar,0.198512674910563
Russian Federation,WheatBarleyOats,0.198512674910563
Rwanda,FruitVeg,0.207562991039239
Rwanda,MaizeMilletSorghum,0.207562991039239
Rwanda,Monogastrics,0.207562991039239
Rwanda,Oilcrops,0.207562991039239
Rwanda,Pulses,0.207562991039239
Rwanda,Rice (Paddy Equivalent),0.207562991039239
Rwanda,Ruminants,0.207562991039239
Rwanda,Starchy Roots,0.207562991039239
Rwanda,Sugar,0.207562991039239
Rwanda,WheatBarleyOats,0.207562991039239
Saint Kitts and Nevis,FruitVeg,0.207562991039239
Saint Kitts and Nevis,MaizeMilletSorghum,0.207562991039239
Saint Kitts and Nevis,Monogastrics,0.207562991039239
Saint Kitts and Nevis,Oilcrops,0.207562991039239
Saint Kitts and Nevis,Pulses,0.207562991039239
Saint Kitts and Nevis,Rice (Paddy Equivalent),0.207562991039239
Saint Kitts and Nevis,Ruminants,0.207562991039239
Saint Kitts and Nevis,Starchy Roots,0.207562991039239
Saint Kitts and Nevis,Sugar,0.207562991039239
Saint Kitts and Nevis,WheatBarleyOats,0.207562991039239
Saint Lucia,FruitVeg,0.207562991039239
Saint Lucia,MaizeMilletSorghum,0.207562991039239
Saint Lucia,Monogastrics,0.207562991039239
Saint Lucia,Oilcrops,0.207562991039239
Saint Lucia,Pulses,0.207562991039239
Saint Lucia,Rice (Paddy Equivalent),0.207562991039239
Saint Lucia,Ruminants,0.207562991039239
Saint Lucia,Starchy Roots,0.207562991039239
Saint Lucia,Sugar,0.207562991039239
Saint Lucia,WheatBarleyOats,0.207562991039239
Saint Vincent and the Grenadines,FruitVeg,0.207562991039239
Saint Vincent and the Grenadines,MaizeMilletSorghum,0.207562991039239
Saint Vincent and the Grenadines,Monogastrics,0.207562991039239
Saint Vincent and the Grenadines,Oilcrops,0.207562991039239
Saint Vincent and the Grenadines,Pulses,0.207562991039239
Saint Vincent and the Grenadines,Rice (Paddy Equivalent),0.207562991039239
Saint Vincent and the Grenadines,Ruminants,0.207562991039239
Saint Vincent and the Grenadines,Starchy Roots,0.207562991039239
Saint Vincent and the Grenadines,Sugar,0.207562991039239
Saint Vincent and the Grenadines,WheatBarleyOats,0.207562991039239
Samoa,FruitVeg,0.207562991039239
Samoa,MaizeMilletSorghum,0.207562991039239
Samoa,Monogastrics,0.207562991039239
Samoa,Oilcrops,0.207562991039239
Samoa,Pulses,0.207562991039239
Samoa,Rice (Paddy Equivalent),0.207562991039239
Samoa,Ruminants,0.207562991039239
Samoa,Starchy Roots,0.207562991039239
Samoa,Sugar,0.207562991039239
Samoa,WheatBarleyOats,0.207562991039239
Sao Tome and Principe,FruitVeg,0.207562991039239
Sao Tome and Principe,MaizeMilletSorghum,0.207562991039239
Sao Tome and Principe,Monogastrics,0.207562991039239
Sao Tome and Principe,Oilcrops,0.207562991039239
Sao Tome and Principe,Pulses,0.207562991039239
Sao Tome and Principe,Rice (Paddy Equivalent),0.207562991039239
Sao Tome and Principe,Ruminants,0.207562991039239
Sao Tome and Principe,Starchy Roots,0.207562991039239
Sao Tome and Principe,Sugar,0.207562991039239
Sao Tome and Principe,WheatBarleyOats,0.207562991039239
Saudi Arabia,FruitVeg,0.207562991039239
Saudi Arabia,MaizeMilletSorghum,0.207562991039239
Saudi Arabia,Monogastrics,0.207562991039239
Saudi Arabia,Oilcrops,0.207562991039239
Saudi Arabia,Pulses,0.207562991039239
Saudi Arabia,Rice (Paddy Equivalent),0.207562991039239
Saudi Arabia,Ruminants,0.207562991039239
Saudi Arabia,Starchy Roots,0.207562991039239
Saudi Arabia,Sugar,0.207562991039239
Saudi Arabia,WheatBarleyOats,0.207562991039239
Senegal,FruitVeg,0.207562991039239
Senegal,MaizeMilletSorghum,0.207562991039239
Senegal,Monogastrics,0.207562991039239
Senegal,Oilcrops,0.207562991039239
Senegal,Pulses,0.207562991039239
Senegal,Rice (Paddy Equivalent),0.207562991039239
Senegal,Ruminants,0.207562991039239
Senegal,Starchy Roots,0.207562991039239
Senegal,Sugar,0.207562991039239
Senegal,WheatBarleyOats,0.207562991039239
Serbia,FruitVeg,0.207562991039239
Serbia,MaizeMilletSorghum,0.207562991039239
Serbia,Monogastrics,0.207562991039239
Serbia,Oilcrops,0.207562991039239
Serbia,Pulses,0.207562991039239
Serbia,Rice (Paddy Equivalent),0.207562991039239
Serbia,Ruminants,0.207562991039239
Serbia,Starchy Roots,0.207562991039239
Serbia,Sugar,0.207562991039239
Serbia,WheatBarleyOats,0.207562991039239
Sierra Leone,FruitVeg,0.207562991039239
Sierra Leone,MaizeMilletSorghum,0.207562991039239
Sierra Leone,Monogastrics,0.207562991039239
Sierra Leone,Oilcrops,0.207562991039239
Sierra Leone,Pulses,0.207562991039239
Sierra Leone,Rice (Paddy Equivalent),0.207562991039239
Sierra Leone,Ruminants,0.207562991039239
Sierra Leone,Starchy Roots,0.207562991039239
Sierra Leone,Sugar,0.207562991039239
Sierra Leone,WheatBarleyOats,0.207562991039239
Singapore,FruitVeg,0.207562991039239
Singapore,MaizeMilletSorghum,0.207562991039239
Singapore,Monogastrics,0.207562991039239
Singapore,Oilcrops,0.207562991039239
Singapore,Pulses,0.207562991039239
Singapore,Rice (Paddy Equivalent),0.207562991039239
Singapore,Ruminants,0.207562991039239
Singapore,Starchy Roots,0.207562991039239
Singapore,Sugar,0.207562991039239
Singapore,WheatBarleyOats,0.207562991039239
Slovakia,FruitVeg,0.112056970911359
Slovakia,MaizeMilletSorghum,0.112056970911359
Slovakia,Monogastrics,0.112056970911359
Slovakia,Oilcrops,0.112056970911359
Slovakia,Pulses,0.112056970911359
Slovakia,Rice (Paddy Equivalent),0.112056970911359
Slovakia,Ruminants,0.112056970911359
Slovakia,Starchy Roots,0.112056970911359
Slovakia,Sugar,0.112056970911359
Slovakia,WheatBarleyOats,0.112056970911359
Slovenia,FruitVeg,0.112056970911359
Slovenia,MaizeMilletSorghum,0.112056970911359
Slovenia,Monogastrics,0.112056970911359
Slovenia,Oilcrops,0.112056970911359
Slovenia,Pulses,0.112056970911359
Slovenia,Rice (Paddy Equivalent),0.112056970911359
Slovenia,Ruminants,0.112056970911359
Slovenia,Starchy Roots,0.112056970911359
Slovenia,Sugar,0.112056970911359
Slovenia,WheatBarleyOats,0.112056970911359
Solomon Islands,FruitVeg,0.207562991039239
Solomon Islands,MaizeMilletSorghum,0.207562991039239
Solomon Islands,Monogastrics,0.207562991039239
Solomon Islands,Oilcrops,0.207562991039239
Solomon Islands,Pulses,0.207562991039239
Solomon Islands,Rice (Paddy Equivalent),0.207562991039239
Solomon Islands,Ruminants,0.207562991039239
Solomon Islands,Starchy Roots,0.207562991039239
Solomon Islands,Sugar,0.207562991039239
Solomon Islands,WheatBarleyOats,0.207562991039239
Somalia,FruitVeg,0.207562991039239
Somalia,MaizeMilletSorghum,0.207562991039239
Somalia,Monogastrics,0.207562991039239
Somalia,Oilcrops,0.207562991039239
Somalia,Pulses,0.207562991039239
Somalia,Rice (Paddy Equivalent),0.207562991039239
Somalia,Ruminants,0.207562991039239
Somalia,Starchy Roots,0.207562991039239
Somalia,Sugar,0.207562991039239
Somalia,WheatBarleyOats,0.207562991039239
South Africa,FruitVeg,0.0348754119090886
South Africa,MaizeMilletSorghum,0.0348754119090886
South Africa,Monogastrics,0.0348754119090886
South Africa,Oilcrops,0.0348754119090886
South Africa,Pulses,0.0348754119090886
South Africa,Rice (Paddy Equivalent),0.0348754119090886
South Africa,Ruminants,0.0348754119090886
South Africa,Starchy Roots,0.0348754119090886
South Africa,Sugar,0.0348754119090886
South Africa,WheatBarleyOats,0.0348754119090886
South Sudan,FruitVeg,0.207562991039239
South Sudan,MaizeMilletSorghum,0.207562991039239
South Sudan,Monogastrics,0.207562991039239
South Sudan,Oilcrops,0.207562991039239
South Sudan,Pulses,0.207562991039239
South Sudan,Rice (Paddy Equivalent),0.207562991039239
South Sudan,Ruminants,0.207562991039239
South Sudan,Starchy Roots,0.207562991039239
South Sudan,Sugar,0.207562991039239
South Sudan,WheatBarleyOats,0.207562991039239
Spain,FruitVeg,0.112056970911359
Spain,MaizeMilletSorghum,0.112056970911359
Spain,Monogastrics,0.112056970911359
Spain,Oilcrops,0.112056970911359
Spain,Pulses,0.112056970911359
Spain,Rice (Paddy Equivalent),0.112056970911359
Spain,Ruminants,0.112056970911359
Spain,Starchy Roots,0.112056970911359
Spain,Sugar,0.112056970911359
Spain,WheatBarleyOats,0.112056970911359
Sri Lanka,FruitVeg,0.207562991039239
Sri Lanka,MaizeMilletSorghum,0.207562991039239
Sri Lanka,Monogastrics,0.207562991039239
Sri Lanka,Oilcrops,0.207562991039239
Sri Lanka,Pulses,0.207562991039239
Sri Lanka,Rice (Paddy Equivalent),0.207562991039239
Sri Lanka,Ruminants,0.207562991039239
Sri Lanka,Starchy Roots,0.207562991039239
Sri Lanka,Sugar,0.207562991039239
Sri Lanka,WheatBarleyOats,0.207562991039239
Sudan,FruitVeg,0.207562991039239
Sudan,MaizeMilletSorghum,0.207562991039239
Sudan,Monogastrics,0.207562991039239
Sudan,Oilcrops,0.207562991039239
Sudan,Pulses,0.207562991039239
Sudan,Rice (Paddy Equivalent),0.207562991039239
Sudan,Ruminants,0.207562991039239
Sudan,Starchy Roots,0.207562991039239
Sudan,Sugar,0.207562991039239
Sudan,WheatBarleyOats,0.207562991039239
Suriname,FruitVeg,0.207562991039239
Suriname,MaizeMilletSorghum,0.207562991039239
Suriname,Monogastrics,0.207562991039239
Suriname,Oilcrops,0.207562991039239
Suriname,Pulses,0.207562991039239
Suriname,Rice (Paddy Equivalent),0.207562991039239
Suriname,Ruminants,0.207562991039239
Suriname,Starchy Roots,0.207562991039239
Suriname,Sugar,0.207562991039239
Suriname,WheatBarleyOats,0.207562991039239
Swaziland,FruitVeg,0.207562991039239
Swaziland,MaizeMilletSorghum,0.207562991039239
Swaziland,Monogastrics,0.207562991039239
Swaziland,Oilcrops,0.207562991039239
Swaziland,Pulses,0.207562991039239
Swaziland,Rice (Paddy Equivalent),0.207562991039239
Swaziland,Ruminants,0.207562991039239
Swaziland,Starchy Roots,0.207562991039239
Swaziland,Sugar,0.207562991039239
Swaziland,WheatBarleyOats,0.207562991039239
Sweden,FruitVeg,0.112056970911359
Sweden,MaizeMilletSorghum,0.112056970911359
Sweden,Monogastrics,0.112056970911359
Sweden,Oilcrops,0.112056970911359
Sweden,Pulses,0.112056970911359
Sweden,Rice (Paddy Equivalent),0.112056970911359
Sweden,Ruminants,0.112056970911359
Sweden,Starchy Roots,0.112056970911359
Sweden,Sugar,0.112056970911359
Sweden,WheatBarleyOats,0.112056970911359
Switzerland,FruitVeg,0.244523079056479
Switzerland,MaizeMilletSorghum,0.244523079056479
Switzerland,Monogastrics,0.244523079056479
Switzerland,Oilcrops,0.244523079056479
Switzerland,Pulses,0.244523079056479
Switzerland,Rice (Paddy Equivalent),0.244523079056479
Switzerland,Ruminants,0.244523079056479
Switzerland,Starchy Roots,0.244523079056479
Switzerland,Sugar,0.244523079056479
Switzerland,WheatBarleyOats,0.244523079056479
Tajikistan,FruitVeg,0.207562991039239
Tajikistan,MaizeMilletSorghum,0.207562991039239
Tajikistan,Monogastrics,0.207562991039239
Tajikistan,Oilcrops,0.207562991039239
Tajikistan,Pulses,0.207562991039239
Tajikistan,Rice (Paddy Equivalent),0.207562991039239
Tajikistan,Ruminants,0.207562991039239
Tajikistan,Starchy Roots,0.207562991039239
Tajikistan,Sugar,0.207562991039239
Tajikistan,WheatBarleyOats,0.207562991039239
Thailand,FruitVeg,0.207562991039239
Thailand,MaizeMilletSorghum,0.207562991039239
Thailand,Monogastrics,0.207562991039239
Thailand,Oilcrops,0.207562991039239
Thailand,Pulses,0.207562991039239
Thailand,Rice (Paddy Equivalent),0.207562991039239
Thailand,Ruminants,0.207562991039239
Thailand,Starchy Roots,0.207562991039239
Thailand,Sugar,0.207562991039239
Thailand,WheatBarleyOats,0.207562991039239
The former Yugoslav Republic of Macedonia,FruitVeg,0.207562991039239
The former Yugoslav Republic of Macedonia,MaizeMilletSorghum,0.207562991039239
The former Yugoslav Republic of Macedonia,Monogastrics,0.207562991039239
The former Yugoslav Republic of Macedonia,Oilcrops,0.207562991039239
The former Yugoslav Republic of Macedonia,Pulses,0.207562991039239
The former Yugoslav Republic of Macedonia,Rice (Paddy Equivalent),0.207562991039239
The former Yugoslav Republic of Macedonia,Ruminants,0.207562991039239
The former Yugoslav Republic of Macedonia,Starchy Roots,0.207562991039239
The former Yugoslav Republic of Macedonia,Sugar,0.207562991039239
The former Yugoslav Republic of Macedonia,WheatBarleyOats,0.207562991039239
Togo,FruitVeg,0.207562991039239
Togo,MaizeMilletSorghum,0.207562991039239
Togo,Monogastrics,0.207562991039239
Togo,Oilcrops,0.207562991039239
Togo,Pulses,0.207562991039239
Togo,Rice (Paddy Equivalent),0.207562991039239
Togo,Ruminants,0.207562991039239
Togo,Starchy Roots,0.207562991039239
Togo,Sugar,0.207562991039239
Togo,WheatBarleyOats,0.207562991039239
Tonga,FruitVeg,0.207562991039239
Tonga,MaizeMilletSorghum,0.207562991039239
Tonga,Monogastrics,0.207562991039239
Tonga,Oilcrops,0.207562991039239
Tonga,Pulses,0.207562991039239
Tonga,Rice (Paddy Equivalent),0.207562991039239
Tonga,Ruminants,0.207562991039239
Tonga,Starchy Roots,0.207562991039239
Tonga,Sugar,0.207562991039239
Tonga,WheatBarleyOats,0.207562991039239
Trinidad and Tobago,FruitVeg,0.207562991039239
Trinidad and Tobago,MaizeMilletSorghum,0.207562991039239
Trinidad and Tobago,Monogastrics,0.207562991039239
Trinidad and Tobago,Oilcrops,0.207562991039239
Trinidad and Tobago,Pulses,0.207562991039239
Trinidad and Tobago,Rice (Paddy Equivalent),0.207562991039239
Trinidad and Tobago,Ruminants,0.207562991039239
Trinidad and Tobago,Starchy Roots,0.207562991039239
Trinidad and Tobago,Sugar,0.207562991039239
Trinidad and Tobago,WheatBarleyOats,0.207562991039239
Tunisia,FruitVeg,0.207562991039239
Tunisia,MaizeMilletSorghum,0.207562991039239
Tunisia,Monogastrics,0.207562991039239
Tunisia,Oilcrops,0.207562991039239
Tunisia,Pulses,0.207562991039239
Tunisia,Rice (Paddy Equivalent),0.207562991039239
Tunisia,Ruminants,0.207562991039239
Tunisia,Starchy Roots,0.207562991039239
Tunisia,Sugar,0.207562991039239
Tunisia,WheatBarleyOats,0.207562991039239
Turkey,FruitVeg,0.244523079056479
Turkey,MaizeMilletSorghum,0.244523079056479
Turkey,Monogastrics,0.244523079056479
Turkey,Oilcrops,0.244523079056479
Turkey,Pulses,0.244523079056479
Turkey,Rice (Paddy Equivalent),0.244523079056479
Turkey,Ruminants,0.244523079056479
Turkey,Starchy Roots,0.244523079056479
Turkey,Sugar,0.244523079056479
Turkey,WheatBarleyOats,0.244523079056479
Turkmenistan,FruitVeg,0.207562991039239
Turkmenistan,MaizeMilletSorghum,0.207562991039239
Turkmenistan,Monogastrics,0.207562991039239
Turkmenistan,Oilcrops,0.207562991039239
Turkmenistan,Pulses,0.207562991039239
Turkmenistan,Rice (Paddy Equivalent),0.207562991039239
Turkmenistan,Ruminants,0.207562991039239
Turkmenistan,Starchy Roots,0.207562991039239
Turkmenistan,Sugar,0.207562991039239
Turkmenistan,WheatBarleyOats,0.207562991039239
Tuvalu,FruitVeg,0.207562991039239
Tuvalu,MaizeMilletSorghum,0.207562991039239
Tuvalu,Monogastrics,0.207562991039239
Tuvalu,Oilcrops,0.207562991039239
Tuvalu,Pulses,0.207562991039239
Tuvalu,Rice (Paddy Equivalent),0.207562991039239
Tuvalu,Ruminants,0.207562991039239
Tuvalu,Starchy Roots,0.207562991039239
Tuvalu,Sugar,0.207562991039239
Tuvalu,WheatBarleyOats,0.207562991039239
Uganda,FruitVeg,0.207562991039239
Uganda,MaizeMilletSorghum,0.207562991039239
Uganda,Monogastrics,0.207562991039239
Uganda,Oilcrops,0.207562991039239
Uganda,Pulses,0.207562991039239
Uganda,Rice (Paddy Equivalent),0.207562991039239
Uganda,Ruminants,0.207562991039239
Uganda,Starchy Roots,0.207562991039239
Uganda,Sugar,0.207562991039239
Uganda,WheatBarleyOats,0.207562991039239
Ukraine,FruitVeg,0.207562991039239
Ukraine,MaizeMilletSorghum,0.207562991039239
Ukraine,Monogastrics,0.207562991039239
Ukraine,Oilcrops,0.207562991039239
Ukraine,Pulses,0.207562991039239
Ukraine,Rice (Paddy Equivalent),0.207562991039239
Ukraine,Ruminants,0.207562991039239
Ukraine,Starchy Roots,0.207562991039239
Ukraine,Sugar,0.207562991039239
Ukraine,WheatBarleyOats,0.207562991039239
United Arab Emirates,FruitVeg,0.207562991039239
United Arab Emirates,MaizeMilletSorghum,0.207562991039239
United Arab Emirates,Monogastrics,0.207562991039239
United Arab Emirates,Oilcrops,0.207562991039239
United Arab Emirates,Pulses,0.207562991039239
United Arab Emirates,Rice (Paddy Equivalent),0.207562991039239
United Arab Emirates,Ruminants,0.207562991039239
United Arab Emirates,Starchy Roots,0.207562991039239
United Arab Emirates,Sugar,0.207562991039239
United Arab Emirates,WheatBarleyOats,0.207562991039239
United Kingdom,FruitVeg,0.112056970911359
United Kingdom,MaizeMilletSorghum,0.112056970911359
United Kingdom,Monogastrics,0.112056970911359
United Kingdom,Oilcrops,0.112056970911359
United Kingdom,Pulses,0.112056970911359
United Kingdom,Rice (Paddy Equivalent),0.112056970911359
United Kingdom,Ruminants,0.112056970911359
United Kingdom,Starchy Roots,0.112056970911359
United Kingdom,Sugar,0.112056970911359
United Kingdom,WheatBarleyOats,0.112056970911359
United Republic of Tanzania,FruitVeg,0.207562991039239
United Republic of Tanzania,MaizeMilletSorghum,0.207562991039239
United Republic of Tanzania,Monogastrics,0.207562991039239
United Republic of Tanzania,Oilcrops,0.207562991039239
United Republic of Tanzania,Pulses,0.207562991039239
United Republic of Tanzania,Rice (Paddy Equivalent),0.207562991039239
United Republic of Tanzania,Ruminants,0.207562991039239
United Republic of Tanzania,Starchy Roots,0.207562991039239
United Republic of Tanzania,Sugar,0.207562991039239
United Republic of Tanzania,WheatBarleyOats,0.207562991039239
United States of America,FruitVeg,0.204476614113542
United States of America,MaizeMilletSorghum,0.204476614113542
United States of America,Monogastrics,0.204476614113542
United States of America,Oilcrops,0.204476614113542
United States of America,Pulses,0.204476614113542
United States of America,Rice (Paddy Equivalent),0.204476614113542
United States of America,Ruminants,0.204476614113542
United States of America,Starchy Roots,0.204476614113542
United States of America,Sugar,0.204476614113542
United States of America,WheatBarleyOats,0.204476614113542
Uruguay,FruitVeg,0.207562991039239
Uruguay,MaizeMilletSorghum,0.207562991039239
Uruguay,Monogastrics,0.207562991039239
Uruguay,Oilcrops,0.207562991039239
Uruguay,Pulses,0.207562991039239
Uruguay,Rice (Paddy Equivalent),0.207562991039239
Uruguay,Ruminants,0.207562991039239
Uruguay,Starchy Roots,0.207562991039239
Uruguay,Sugar,0.207562991039239
Uruguay,WheatBarleyOats,0.207562991039239
Uzbekistan,FruitVeg,0.207562991039239
Uzbekistan,MaizeMilletSorghum,0.207562991039239
Uzbekistan,Monogastrics,0.207562991039239
Uzbekistan,Oilcrops,0.207562991039239
Uzbekistan,Pulses,0.207562991039239
Uzbekistan,Rice (Paddy Equivalent),0.207562991039239
Uzbekistan,Ruminants,0.207562991039239
Uzbekistan,Starchy Roots,0.207562991039239
Uzbekistan,Sugar,0.207562991039239
Uzbekistan,WheatBarleyOats,0.207562991039239
Vanuatu,FruitVeg,0.207562991039239
Vanuatu,MaizeMilletSorghum,0.207562991039239
Vanuatu,Monogastrics,0.207562991039239
Vanuatu,Oilcrops,0.207562991039239
Vanuatu,Pulses,0.207562991039239
Vanuatu,Rice (Paddy Equivalent),0.207562991039239
Vanuatu,Ruminants,0.207562991039239
Vanuatu,Starchy Roots,0.207562991039239
Vanuatu,Sugar,0.207562991039239
Vanuatu,WheatBarleyOats,0.207562991039239
Venezuela (Bolivarian Republic of),FruitVeg,0.207562991039239
Venezuela (Bolivarian Republic of),MaizeMilletSorghum,0.207562991039239
Venezuela (Bolivarian Republic of),Monogastrics,0.207562991039239
Venezuela (Bolivarian Republic of),Oilcrops,0.207562991039239
Venezuela (Bolivarian Republic of),Pulses,0.207562991039239
Venezuela (Bolivarian Republic of),Rice (Paddy Equivalent),0.207562991039239
Venezuela (Bolivarian Republic of),Ruminants,0.207562991039239
Venezuela (Bolivarian Republic of),Starchy Roots,0.207562991039239
Venezuela (Bolivarian Republic of),Sugar,0.207562991039239
Venezuela (Bolivarian Republic of),WheatBarleyOats,0.207562991039239
Viet Nam,FruitVeg,0.207562991039239
Viet Nam,MaizeMilletSorghum,0.207562991039239
Viet Nam,Monogastrics,0.207562991039239
Viet Nam,Oilcrops,0.207562991039239
Viet Nam,Pulses,0.207562991039239
Viet Nam,Rice (Paddy Equivalent),0.207562991039239
Viet Nam,Ruminants,0.207562991039239
Viet Nam,Starchy Roots,0.207562991039239
Viet Nam,Sugar,0.207562991039239
Viet Nam,WheatBarleyOats,0.207562991039239
Yemen,FruitVeg,0.207562991039239
Yemen,MaizeMilletSorghum,0.207562991039239
Yemen,Monogastrics,0.207562991039239
Yemen,Oilcrops,0.207562991039239
Yemen,Pulses,0.207562991039239
Yemen,Rice (Paddy Equivalent),0.207562991039239
Yemen,Ruminants,0.207562991039239
Yemen,Starchy Roots,0.207562991039239
Yemen,Sugar,0.207562991039239
Yemen,WheatBarleyOats,0.207562991039239
Zambia,FruitVeg,0.207562991039239
Zambia,MaizeMilletSorghum,0.207562991039239
Zambia,Monogastrics,0.207562991039239
Zambia,Oilcrops,0.207562991039239
Zambia,Pulses,0.207562991039239
Zambia,Rice (Paddy Equivalent),0.207562991039239
Zambia,Ruminants,0.207562991039239
Zambia,Starchy Roots,0.207562991039239
Zambia,Sugar,0.207562991039239
Zambia,WheatBarleyOats,0.207562991039239
Zimbabwe,FruitVeg,0.207562991039239
Zimbabwe,MaizeMilletSorghum,0.207562991039239
Zimbabwe,Monogastrics,0.207562991039239
Zimbabwe,Oilcrops,0.207562991039239
Zimbabwe,Pulses,0.207562991039239
Zimbabwe,Rice (Paddy Equivalent),0.207562991039239
Zimbabwe,Ruminants,0.207562991039239
Zimbabwe,Starchy Roots,0.207562991039239
Zimbabwe,Sugar,0.207562991039239
Zimbabwe,WheatBarleyOats,0.207562991039239
