Country,Item,add_distortion
Afghanistan,MaizeMilletSorghum,0
Afghanistan,Monogastrics,0
Afghanistan,Oilcrops,0
Afghanistan,Pulses,0
Afghanistan,Rice (Paddy Equivalent),0
Afghanistan,Ruminants,0
Afghanistan,Starchy Roots,0
Afghanistan,WheatBarleyOats,0
Albania,MaizeMilletSorghum,0
Albania,Monogastrics,0
Albania,Oilcrops,0
Albania,Pulses,0
Albania,Rice (Paddy Equivalent),0
Albania,Ruminants,0
Albania,Starchy Roots,0
Albania,WheatBarleyOats,0
Algeria,MaizeMilletSorghum,0
Algeria,Monogastrics,0
Algeria,Oilcrops,0
Algeria,Pulses,0
Algeria,Rice (Paddy Equivalent),0
Algeria,Ruminants,0
Algeria,Starchy Roots,0
Algeria,WheatBarleyOats,0
Angola,MaizeMilletSorghum,0
Angola,Monogastrics,0
Angola,Oilcrops,0
Angola,Pulses,0
Angola,Rice (Paddy Equivalent),0
Angola,Ruminants,0
Angola,Starchy Roots,0
Angola,WheatBarleyOats,0
Antigua and Barbuda,MaizeMilletSorghum,0
Antigua and Barbuda,Monogastrics,0
Antigua and Barbuda,Oilcrops,0
Antigua and Barbuda,Pulses,0
Antigua and Barbuda,Rice (Paddy Equivalent),0
Antigua and Barbuda,Ruminants,0
Antigua and Barbuda,Starchy Roots,0
Antigua and Barbuda,WheatBarleyOats,0
Argentina,MaizeMilletSorghum,-0.4856019699
Argentina,Monogastrics,-0.190790275868734
Argentina,Oilcrops,-0.43854532582
Argentina,Pulses,0
Argentina,Rice (Paddy Equivalent),0
Argentina,Ruminants,-0.0678899092194338
Argentina,Starchy Roots,0
Argentina,WheatBarleyOats,-0.47001387026
Armenia,MaizeMilletSorghum,0
Armenia,Monogastrics,0
Armenia,Oilcrops,0
Armenia,Pulses,0
Armenia,Rice (Paddy Equivalent),0
Armenia,Ruminants,0
Armenia,Starchy Roots,0
Armenia,WheatBarleyOats,0
Australia,MaizeMilletSorghum,-0.02652110787
Australia,Monogastrics,-0.02652110787
Australia,Oilcrops,-0.02652110787
Australia,Pulses,0
Australia,Rice (Paddy Equivalent),-0.02652110787
Australia,Ruminants,-0.0264795660852799
Australia,Starchy Roots,0
Australia,WheatBarleyOats,-0.02652110787
Austria,MaizeMilletSorghum,-0.0637220925636364
Austria,Monogastrics,0.000921314997301997
Austria,Oilcrops,-0.1170237319
Austria,Pulses,0
Austria,Rice (Paddy Equivalent),-0.0256367238554545
Austria,Ruminants,-0.0302836866850389
Austria,Starchy Roots,-0.0206443068154546
Austria,WheatBarleyOats,-0.103353065067978
Azerbaijan,MaizeMilletSorghum,0
Azerbaijan,Monogastrics,0
Azerbaijan,Oilcrops,0
Azerbaijan,Pulses,0
Azerbaijan,Rice (Paddy Equivalent),0
Azerbaijan,Ruminants,0
Azerbaijan,Starchy Roots,0
Azerbaijan,WheatBarleyOats,0
Bahamas,MaizeMilletSorghum,0
Bahamas,Monogastrics,0
Bahamas,Oilcrops,0
Bahamas,Pulses,0
Bahamas,Rice (Paddy Equivalent),0
Bahamas,Ruminants,0
Bahamas,Starchy Roots,0
Bahamas,WheatBarleyOats,0
Bangladesh,MaizeMilletSorghum,0
Bangladesh,Monogastrics,0
Bangladesh,Oilcrops,0
Bangladesh,Pulses,0
Bangladesh,Rice (Paddy Equivalent),0
Bangladesh,Ruminants,0
Bangladesh,Starchy Roots,0
Bangladesh,WheatBarleyOats,0
Barbados,MaizeMilletSorghum,0
Barbados,Monogastrics,0
Barbados,Oilcrops,0
Barbados,Pulses,0
Barbados,Rice (Paddy Equivalent),0
Barbados,Ruminants,0
Barbados,Starchy Roots,0
Barbados,WheatBarleyOats,0
Belarus,MaizeMilletSorghum,0
Belarus,Monogastrics,0
Belarus,Oilcrops,0
Belarus,Pulses,0
Belarus,Rice (Paddy Equivalent),0
Belarus,Ruminants,0
Belarus,Starchy Roots,0
Belarus,WheatBarleyOats,0
Belgium,MaizeMilletSorghum,-0.0637220925636364
Belgium,Monogastrics,0.000921314997301997
Belgium,Oilcrops,-0.1170237319
Belgium,Pulses,0
Belgium,Rice (Paddy Equivalent),-0.0256367238554545
Belgium,Ruminants,-0.0302836866850389
Belgium,Starchy Roots,-0.0206443068154546
Belgium,WheatBarleyOats,-0.103353065067978
Belize,MaizeMilletSorghum,0.311040437
Belize,Monogastrics,1.06696021684133
Belize,Oilcrops,0
Belize,Pulses,-0.0846959318275
Belize,Rice (Paddy Equivalent),-0.513886383
Belize,Ruminants,-0.048118829155
Belize,Starchy Roots,0
Belize,WheatBarleyOats,0
Benin,MaizeMilletSorghum,-0.113893102386
Benin,Monogastrics,0
Benin,Oilcrops,0
Benin,Pulses,0
Benin,Rice (Paddy Equivalent),0.027126421458
Benin,Ruminants,0
Benin,Starchy Roots,0
Benin,WheatBarleyOats,0
Bermuda,MaizeMilletSorghum,0
Bermuda,Monogastrics,0
Bermuda,Oilcrops,0
Bermuda,Pulses,0
Bermuda,Rice (Paddy Equivalent),0
Bermuda,Ruminants,0
Bermuda,Starchy Roots,0
Bermuda,WheatBarleyOats,0
Bolivia (Plurinational State of),MaizeMilletSorghum,-0.1158745001
Bolivia (Plurinational State of),Monogastrics,-0.109861396947343
Bolivia (Plurinational State of),Oilcrops,0.18085497475
Bolivia (Plurinational State of),Pulses,0
Bolivia (Plurinational State of),Rice (Paddy Equivalent),-0.1158745001
Bolivia (Plurinational State of),Ruminants,-0.1158745001
Bolivia (Plurinational State of),Starchy Roots,0.508384443475
Bolivia (Plurinational State of),WheatBarleyOats,0
Bosnia and Herzegovina,MaizeMilletSorghum,0
Bosnia and Herzegovina,Monogastrics,0
Bosnia and Herzegovina,Oilcrops,0
Bosnia and Herzegovina,Pulses,0
Bosnia and Herzegovina,Rice (Paddy Equivalent),0
Bosnia and Herzegovina,Ruminants,0
Bosnia and Herzegovina,Starchy Roots,0
Bosnia and Herzegovina,WheatBarleyOats,0
Botswana,MaizeMilletSorghum,0
Botswana,Monogastrics,0
Botswana,Oilcrops,0
Botswana,Pulses,0
Botswana,Rice (Paddy Equivalent),0
Botswana,Ruminants,0
Botswana,Starchy Roots,0
Botswana,WheatBarleyOats,0
Brazil,MaizeMilletSorghum,-0.0803320887272727
Brazil,Monogastrics,-0.105332962287129
Brazil,Oilcrops,-0.101733878234545
Brazil,Pulses,0
Brazil,Rice (Paddy Equivalent),0.154529967479091
Brazil,Ruminants,-0.0451772374875465
Brazil,Starchy Roots,0
Brazil,WheatBarleyOats,-0.0294788252163636
Brunei Darussalam,MaizeMilletSorghum,0
Brunei Darussalam,Monogastrics,0
Brunei Darussalam,Oilcrops,0
Brunei Darussalam,Pulses,0
Brunei Darussalam,Rice (Paddy Equivalent),0
Brunei Darussalam,Ruminants,0
Brunei Darussalam,Starchy Roots,0
Brunei Darussalam,WheatBarleyOats,0
Bulgaria,MaizeMilletSorghum,-0.0637220925636364
Bulgaria,Monogastrics,0.000921314997301997
Bulgaria,Oilcrops,-0.1170237319
Bulgaria,Pulses,0
Bulgaria,Rice (Paddy Equivalent),-0.0256367238554545
Bulgaria,Ruminants,-0.0302836866850389
Bulgaria,Starchy Roots,-0.0206443068154546
Bulgaria,WheatBarleyOats,-0.103353065067978
Burkina Faso,MaizeMilletSorghum,0.230735751904751
Burkina Faso,Monogastrics,0
Burkina Faso,Oilcrops,-0.180789972957953
Burkina Faso,Pulses,0
Burkina Faso,Rice (Paddy Equivalent),-0.065716110326
Burkina Faso,Ruminants,-0.42132559506
Burkina Faso,Starchy Roots,0
Burkina Faso,WheatBarleyOats,0
Cabo Verde,MaizeMilletSorghum,0
Cabo Verde,Monogastrics,0
Cabo Verde,Oilcrops,0
Cabo Verde,Pulses,0
Cabo Verde,Rice (Paddy Equivalent),0
Cabo Verde,Ruminants,0
Cabo Verde,Starchy Roots,0
Cabo Verde,WheatBarleyOats,0
Cambodia,MaizeMilletSorghum,0
Cambodia,Monogastrics,0
Cambodia,Oilcrops,0
Cambodia,Pulses,0
Cambodia,Rice (Paddy Equivalent),0
Cambodia,Ruminants,0
Cambodia,Starchy Roots,0
Cambodia,WheatBarleyOats,0
Cameroon,MaizeMilletSorghum,0
Cameroon,Monogastrics,0
Cameroon,Oilcrops,0
Cameroon,Pulses,0
Cameroon,Rice (Paddy Equivalent),0
Cameroon,Ruminants,0
Cameroon,Starchy Roots,0
Cameroon,WheatBarleyOats,0
Canada,MaizeMilletSorghum,-0.1221451393
Canada,Monogastrics,-0.0647062482160412
Canada,Oilcrops,-0.1221451393
Canada,Pulses,-0.1221451393
Canada,Rice (Paddy Equivalent),0
Canada,Ruminants,0.565516329318653
Canada,Starchy Roots,-0.1221451393
Canada,WheatBarleyOats,-0.1221451393
Central African Republic,MaizeMilletSorghum,0
Central African Republic,Monogastrics,0
Central African Republic,Oilcrops,0
Central African Republic,Pulses,0
Central African Republic,Rice (Paddy Equivalent),0
Central African Republic,Ruminants,0
Central African Republic,Starchy Roots,0
Central African Republic,WheatBarleyOats,0
Chad,MaizeMilletSorghum,0
Chad,Monogastrics,0
Chad,Oilcrops,0
Chad,Pulses,0
Chad,Rice (Paddy Equivalent),0
Chad,Ruminants,0
Chad,Starchy Roots,0
Chad,WheatBarleyOats,0
Chile,MaizeMilletSorghum,-0.0610238921381818
Chile,Monogastrics,-0.06166824467
Chile,Oilcrops,0
Chile,Pulses,0
Chile,Rice (Paddy Equivalent),0
Chile,Ruminants,-0.0528524490740212
Chile,Starchy Roots,0
Chile,WheatBarleyOats,-0.03983228575
China,MaizeMilletSorghum,0.149328163696364
China,Monogastrics,-0.00905885134088492
China,Oilcrops,0.0985928169877285
China,Pulses,0
China,Rice (Paddy Equivalent),0.03145147657
China,Ruminants,0.127664786955751
China,Starchy Roots,0
China,WheatBarleyOats,0.348350808025455
Colombia,MaizeMilletSorghum,0.344201661436364
Colombia,Monogastrics,0.179392399890242
Colombia,Oilcrops,-0.0745642893327273
Colombia,Pulses,0
Colombia,Rice (Paddy Equivalent),0.237982918236364
Colombia,Ruminants,0.0970031669827683
Colombia,Starchy Roots,0
Colombia,WheatBarleyOats,0
Congo,MaizeMilletSorghum,0
Congo,Monogastrics,0
Congo,Oilcrops,0
Congo,Pulses,0
Congo,Rice (Paddy Equivalent),0
Congo,Ruminants,0
Congo,Starchy Roots,0
Congo,WheatBarleyOats,0
Costa Rica,MaizeMilletSorghum,0
Costa Rica,Monogastrics,0.60992322637495
Costa Rica,Oilcrops,-0.1125068468
Costa Rica,Pulses,0
Costa Rica,Rice (Paddy Equivalent),1.36987239931818
Costa Rica,Ruminants,-0.0219236303266301
Costa Rica,Starchy Roots,0
Costa Rica,WheatBarleyOats,0
Cote d'Ivoire,MaizeMilletSorghum,0
Cote d'Ivoire,Monogastrics,0
Cote d'Ivoire,Oilcrops,0
Cote d'Ivoire,Pulses,0
Cote d'Ivoire,Rice (Paddy Equivalent),0
Cote d'Ivoire,Ruminants,0
Cote d'Ivoire,Starchy Roots,0
Cote d'Ivoire,WheatBarleyOats,0
Croatia,MaizeMilletSorghum,-0.0637220925636364
Croatia,Monogastrics,0.000921314997301997
Croatia,Oilcrops,-0.1170237319
Croatia,Pulses,0
Croatia,Rice (Paddy Equivalent),-0.0256367238554545
Croatia,Ruminants,-0.0302836866850389
Croatia,Starchy Roots,-0.0206443068154546
Croatia,WheatBarleyOats,-0.103353065067978
Cuba,MaizeMilletSorghum,0
Cuba,Monogastrics,0
Cuba,Oilcrops,0
Cuba,Pulses,0
Cuba,Rice (Paddy Equivalent),0
Cuba,Ruminants,0
Cuba,Starchy Roots,0
Cuba,WheatBarleyOats,0
Cyprus,MaizeMilletSorghum,-0.0637220925636364
Cyprus,Monogastrics,0.000921314997301997
Cyprus,Oilcrops,-0.1170237319
Cyprus,Pulses,0
Cyprus,Rice (Paddy Equivalent),-0.0256367238554545
Cyprus,Ruminants,-0.0302836866850389
Cyprus,Starchy Roots,-0.0206443068154546
Cyprus,WheatBarleyOats,-0.103353065067978
Czechia,MaizeMilletSorghum,-0.0637220925636364
Czechia,Monogastrics,0.000921314997301997
Czechia,Oilcrops,-0.1170237319
Czechia,Pulses,0
Czechia,Rice (Paddy Equivalent),-0.0256367238554545
Czechia,Ruminants,-0.0302836866850389
Czechia,Starchy Roots,-0.0206443068154546
Czechia,WheatBarleyOats,-0.103353065067978
Democratic People's Republic of Korea,MaizeMilletSorghum,0
Democratic People's Republic of Korea,Monogastrics,0
Democratic People's Republic of Korea,Oilcrops,0
Democratic People's Republic of Korea,Pulses,0
Democratic People's Republic of Korea,Rice (Paddy Equivalent),0
Democratic People's Republic of Korea,Ruminants,0
Democratic People's Republic of Korea,Starchy Roots,0
Democratic People's Republic of Korea,WheatBarleyOats,0
Democratic Republic of the Congo,MaizeMilletSorghum,0
Democratic Republic of the Congo,Monogastrics,0
Democratic Republic of the Congo,Oilcrops,0
Democratic Republic of the Congo,Pulses,0
Democratic Republic of the Congo,Rice (Paddy Equivalent),0
Democratic Republic of the Congo,Ruminants,0
Democratic Republic of the Congo,Starchy Roots,0
Democratic Republic of the Congo,WheatBarleyOats,0
Denmark,MaizeMilletSorghum,-0.0637220925636364
Denmark,Monogastrics,0.000921314997301997
Denmark,Oilcrops,-0.1170237319
Denmark,Pulses,0
Denmark,Rice (Paddy Equivalent),-0.0256367238554545
Denmark,Ruminants,-0.0302836866850389
Denmark,Starchy Roots,-0.0206443068154546
Denmark,WheatBarleyOats,-0.103353065067978
Djibouti,MaizeMilletSorghum,0
Djibouti,Monogastrics,0
Djibouti,Oilcrops,0
Djibouti,Pulses,0
Djibouti,Rice (Paddy Equivalent),0
Djibouti,Ruminants,0
Djibouti,Starchy Roots,0
Djibouti,WheatBarleyOats,0
Dominica,MaizeMilletSorghum,0
Dominica,Monogastrics,0
Dominica,Oilcrops,0
Dominica,Pulses,0
Dominica,Rice (Paddy Equivalent),0
Dominica,Ruminants,0
Dominica,Starchy Roots,0
Dominica,WheatBarleyOats,0
Dominican Republic,MaizeMilletSorghum,0
Dominican Republic,Monogastrics,2.57328820200416
Dominican Republic,Oilcrops,0
Dominican Republic,Pulses,1.69378866406
Dominican Republic,Rice (Paddy Equivalent),0.57181371841
Dominican Republic,Ruminants,0.589482301406974
Dominican Republic,Starchy Roots,0
Dominican Republic,WheatBarleyOats,0
Ecuador,MaizeMilletSorghum,0
Ecuador,Monogastrics,0.229873667771429
Ecuador,Oilcrops,0
Ecuador,Pulses,0
Ecuador,Rice (Paddy Equivalent),-0.0546125593242857
Ecuador,Ruminants,-0.0345761335228081
Ecuador,Starchy Roots,0
Ecuador,WheatBarleyOats,0
Egypt,MaizeMilletSorghum,0
Egypt,Monogastrics,0
Egypt,Oilcrops,0
Egypt,Pulses,0
Egypt,Rice (Paddy Equivalent),0
Egypt,Ruminants,0
Egypt,Starchy Roots,0
Egypt,WheatBarleyOats,0
El Salvador,MaizeMilletSorghum,0.0784056884860151
El Salvador,Monogastrics,0.149332622031868
El Salvador,Oilcrops,0
El Salvador,Pulses,0.1457926937775
El Salvador,Rice (Paddy Equivalent),0.515597895225
El Salvador,Ruminants,0.704823129857232
El Salvador,Starchy Roots,0
El Salvador,WheatBarleyOats,0
Estonia,MaizeMilletSorghum,-0.0637220925636364
Estonia,Monogastrics,0.000921314997301997
Estonia,Oilcrops,-0.1170237319
Estonia,Pulses,0
Estonia,Rice (Paddy Equivalent),-0.0256367238554545
Estonia,Ruminants,-0.0302836866850389
Estonia,Starchy Roots,-0.0206443068154546
Estonia,WheatBarleyOats,-0.103353065067978
Ethiopia,MaizeMilletSorghum,-0.609607465370975
Ethiopia,Monogastrics,0
Ethiopia,Oilcrops,0.120572384718
Ethiopia,Pulses,0.25635182996404
Ethiopia,Rice (Paddy Equivalent),0
Ethiopia,Ruminants,-0.4219265521375
Ethiopia,Starchy Roots,0
Ethiopia,WheatBarleyOats,-0.140714488960834
Fiji,MaizeMilletSorghum,0
Fiji,Monogastrics,0
Fiji,Oilcrops,0
Fiji,Pulses,0
Fiji,Rice (Paddy Equivalent),0
Fiji,Ruminants,0
Fiji,Starchy Roots,0
Fiji,WheatBarleyOats,0
Finland,MaizeMilletSorghum,-0.0637220925636364
Finland,Monogastrics,0.000921314997301997
Finland,Oilcrops,-0.1170237319
Finland,Pulses,0
Finland,Rice (Paddy Equivalent),-0.0256367238554545
Finland,Ruminants,-0.0302836866850389
Finland,Starchy Roots,-0.0206443068154546
Finland,WheatBarleyOats,-0.103353065067978
France,MaizeMilletSorghum,-0.0637220925636364
France,Monogastrics,0.000921314997301997
France,Oilcrops,-0.1170237319
France,Pulses,0
France,Rice (Paddy Equivalent),-0.0256367238554545
France,Ruminants,-0.0302836866850389
France,Starchy Roots,-0.0206443068154546
France,WheatBarleyOats,-0.103353065067978
French Polynesia,MaizeMilletSorghum,0
French Polynesia,Monogastrics,0
French Polynesia,Oilcrops,0
French Polynesia,Pulses,0
French Polynesia,Rice (Paddy Equivalent),0
French Polynesia,Ruminants,0
French Polynesia,Starchy Roots,0
French Polynesia,WheatBarleyOats,0
Gabon,MaizeMilletSorghum,0
Gabon,Monogastrics,0
Gabon,Oilcrops,0
Gabon,Pulses,0
Gabon,Rice (Paddy Equivalent),0
Gabon,Ruminants,0
Gabon,Starchy Roots,0
Gabon,WheatBarleyOats,0
Gambia,MaizeMilletSorghum,0
Gambia,Monogastrics,0
Gambia,Oilcrops,0
Gambia,Pulses,0
Gambia,Rice (Paddy Equivalent),0
Gambia,Ruminants,0
Gambia,Starchy Roots,0
Gambia,WheatBarleyOats,0
Georgia,MaizeMilletSorghum,0
Georgia,Monogastrics,0
Georgia,Oilcrops,0
Georgia,Pulses,0
Georgia,Rice (Paddy Equivalent),0
Georgia,Ruminants,0
Georgia,Starchy Roots,0
Georgia,WheatBarleyOats,0
Germany,MaizeMilletSorghum,-0.0637220925636364
Germany,Monogastrics,0.000921314997301997
Germany,Oilcrops,-0.1170237319
Germany,Pulses,0
Germany,Rice (Paddy Equivalent),-0.0256367238554545
Germany,Ruminants,-0.0302836866850389
Germany,Starchy Roots,-0.0206443068154546
Germany,WheatBarleyOats,-0.103353065067978
Ghana,MaizeMilletSorghum,-0.60485246935
Ghana,Monogastrics,0
Ghana,Oilcrops,-0.280316065130349
Ghana,Pulses,0
Ghana,Rice (Paddy Equivalent),-0.219345910436
Ghana,Ruminants,0
Ghana,Starchy Roots,0.124552847368696
Ghana,WheatBarleyOats,0
Greece,MaizeMilletSorghum,-0.0637220925636364
Greece,Monogastrics,0.000921314997301997
Greece,Oilcrops,-0.1170237319
Greece,Pulses,0
Greece,Rice (Paddy Equivalent),-0.0256367238554545
Greece,Ruminants,-0.0302836866850389
Greece,Starchy Roots,-0.0206443068154546
Greece,WheatBarleyOats,-0.103353065067978
Grenada,MaizeMilletSorghum,0
Grenada,Monogastrics,0
Grenada,Oilcrops,0
Grenada,Pulses,0
Grenada,Rice (Paddy Equivalent),0
Grenada,Ruminants,0
Grenada,Starchy Roots,0
Grenada,WheatBarleyOats,0
Guatemala,MaizeMilletSorghum,0.52026605637
Guatemala,Monogastrics,1.17360154294403
Guatemala,Oilcrops,0
Guatemala,Pulses,0.52968371023
Guatemala,Rice (Paddy Equivalent),-0.133019329296
Guatemala,Ruminants,-0.204617846535437
Guatemala,Starchy Roots,2.87269238675
Guatemala,WheatBarleyOats,0
Guinea,MaizeMilletSorghum,0
Guinea,Monogastrics,0
Guinea,Oilcrops,0
Guinea,Pulses,0
Guinea,Rice (Paddy Equivalent),0
Guinea,Ruminants,0
Guinea,Starchy Roots,0
Guinea,WheatBarleyOats,0
Guinea-Bissau,MaizeMilletSorghum,0
Guinea-Bissau,Monogastrics,0
Guinea-Bissau,Oilcrops,0
Guinea-Bissau,Pulses,0
Guinea-Bissau,Rice (Paddy Equivalent),0
Guinea-Bissau,Ruminants,0
Guinea-Bissau,Starchy Roots,0
Guinea-Bissau,WheatBarleyOats,0
Guyana,MaizeMilletSorghum,0
Guyana,Monogastrics,0.81589603864
Guyana,Oilcrops,0.10572022098
Guyana,Pulses,1.172004330325
Guyana,Rice (Paddy Equivalent),-0.150799910158
Guyana,Ruminants,-0.64384045322
Guyana,Starchy Roots,0
Guyana,WheatBarleyOats,0
Haiti,MaizeMilletSorghum,0.252242570274622
Haiti,Monogastrics,0
Haiti,Oilcrops,0
Haiti,Pulses,0.826284939926051
Haiti,Rice (Paddy Equivalent),0.265972176497479
Haiti,Ruminants,0.194924481200337
Haiti,Starchy Roots,-0.0523961515635454
Haiti,WheatBarleyOats,0
Honduras,MaizeMilletSorghum,0.01576471575
Honduras,Monogastrics,0.39420867979728
Honduras,Oilcrops,0
Honduras,Pulses,0.8878697937
Honduras,Rice (Paddy Equivalent),2.2190206757
Honduras,Ruminants,0.053004400695699
Honduras,Starchy Roots,0
Honduras,WheatBarleyOats,0
Hungary,MaizeMilletSorghum,-0.0637220925636364
Hungary,Monogastrics,0.000921314997301997
Hungary,Oilcrops,-0.1170237319
Hungary,Pulses,0
Hungary,Rice (Paddy Equivalent),-0.0256367238554545
Hungary,Ruminants,-0.0302836866850389
Hungary,Starchy Roots,-0.0206443068154546
Hungary,WheatBarleyOats,-0.103353065067978
Iceland,MaizeMilletSorghum,0
Iceland,Monogastrics,2.02132821837118
Iceland,Oilcrops,0
Iceland,Pulses,0
Iceland,Rice (Paddy Equivalent),0
Iceland,Ruminants,0.443027876750963
Iceland,Starchy Roots,0
Iceland,WheatBarleyOats,0
India,MaizeMilletSorghum,-0.534555811352
India,Monogastrics,0
India,Oilcrops,-0.615243488310415
India,Pulses,-0.610687102326
India,Rice (Paddy Equivalent),-0.678500338331
India,Ruminants,-0.532358842764246
India,Starchy Roots,-0.692419876307
India,WheatBarleyOats,-0.547756325391
Indonesia,MaizeMilletSorghum,0.293780829948182
Indonesia,Monogastrics,0.390804758234056
Indonesia,Oilcrops,-0.165306694950228
Indonesia,Pulses,0
Indonesia,Rice (Paddy Equivalent),0.314773884718182
Indonesia,Ruminants,0.072125008126936
Indonesia,Starchy Roots,-0.07032583627
Indonesia,WheatBarleyOats,0
Iran (Islamic Republic of),MaizeMilletSorghum,0
Iran (Islamic Republic of),Monogastrics,0
Iran (Islamic Republic of),Oilcrops,0
Iran (Islamic Republic of),Pulses,0
Iran (Islamic Republic of),Rice (Paddy Equivalent),0
Iran (Islamic Republic of),Ruminants,0
Iran (Islamic Republic of),Starchy Roots,0
Iran (Islamic Republic of),WheatBarleyOats,0
Iraq,MaizeMilletSorghum,0
Iraq,Monogastrics,0
Iraq,Oilcrops,0
Iraq,Pulses,0
Iraq,Rice (Paddy Equivalent),0
Iraq,Ruminants,0
Iraq,Starchy Roots,0
Iraq,WheatBarleyOats,0
Ireland,MaizeMilletSorghum,-0.0637220925636364
Ireland,Monogastrics,0.000921314997301997
Ireland,Oilcrops,-0.1170237319
Ireland,Pulses,0
Ireland,Rice (Paddy Equivalent),-0.0256367238554545
Ireland,Ruminants,-0.0302836866850389
Ireland,Starchy Roots,-0.0206443068154546
Ireland,WheatBarleyOats,-0.103353065067978
Israel,MaizeMilletSorghum,0
Israel,Monogastrics,-0.129460818717417
Israel,Oilcrops,-0.155453768731092
Israel,Pulses,0
Israel,Rice (Paddy Equivalent),0
Israel,Ruminants,0.246906810946159
Israel,Starchy Roots,-0.155453768731092
Israel,WheatBarleyOats,-0.0483326210883647
Italy,MaizeMilletSorghum,-0.0637220925636364
Italy,Monogastrics,0.000921314997301997
Italy,Oilcrops,-0.1170237319
Italy,Pulses,0
Italy,Rice (Paddy Equivalent),-0.0256367238554545
Italy,Ruminants,-0.0302836866850389
Italy,Starchy Roots,-0.0206443068154546
Italy,WheatBarleyOats,-0.103353065067978
Jamaica,MaizeMilletSorghum,0
Jamaica,Monogastrics,1.24220827147359
Jamaica,Oilcrops,0
Jamaica,Pulses,0
Jamaica,Rice (Paddy Equivalent),0
Jamaica,Ruminants,-0.0660732699210811
Jamaica,Starchy Roots,-0.15826084055
Jamaica,WheatBarleyOats,0
Japan,MaizeMilletSorghum,0
Japan,Monogastrics,0.424948751798343
Japan,Oilcrops,-0.1439549568
Japan,Pulses,0
Japan,Rice (Paddy Equivalent),2.31283037938182
Japan,Ruminants,0.840040034898812
Japan,Starchy Roots,0
Japan,WheatBarleyOats,0.0386306941827794
Jordan,MaizeMilletSorghum,0
Jordan,Monogastrics,0
Jordan,Oilcrops,0
Jordan,Pulses,0
Jordan,Rice (Paddy Equivalent),0
Jordan,Ruminants,0
Jordan,Starchy Roots,0
Jordan,WheatBarleyOats,0
Kazakhstan,MaizeMilletSorghum,-0.261314291434545
Kazakhstan,Monogastrics,0.108500745360065
Kazakhstan,Oilcrops,-0.231367226521818
Kazakhstan,Pulses,0
Kazakhstan,Rice (Paddy Equivalent),-0.472156042583636
Kazakhstan,Ruminants,-0.0611121207922
Kazakhstan,Starchy Roots,-0.106688629105455
Kazakhstan,WheatBarleyOats,-0.0719969525209511
Kenya,MaizeMilletSorghum,-0.291971405727042
Kenya,Monogastrics,0
Kenya,Oilcrops,0
Kenya,Pulses,-0.51939176006
Kenya,Rice (Paddy Equivalent),-0.0416360667744445
Kenya,Ruminants,0
Kenya,Starchy Roots,-0.204264666117709
Kenya,WheatBarleyOats,-0.161787962732
Kiribati,MaizeMilletSorghum,0
Kiribati,Monogastrics,0
Kiribati,Oilcrops,0
Kiribati,Pulses,0
Kiribati,Rice (Paddy Equivalent),0
Kiribati,Ruminants,0
Kiribati,Starchy Roots,0
Kiribati,WheatBarleyOats,0
Kuwait,MaizeMilletSorghum,0
Kuwait,Monogastrics,0
Kuwait,Oilcrops,0
Kuwait,Pulses,0
Kuwait,Rice (Paddy Equivalent),0
Kuwait,Ruminants,0
Kuwait,Starchy Roots,0
Kuwait,WheatBarleyOats,0
Kyrgyzstan,MaizeMilletSorghum,0
Kyrgyzstan,Monogastrics,0
Kyrgyzstan,Oilcrops,0
Kyrgyzstan,Pulses,0
Kyrgyzstan,Rice (Paddy Equivalent),0
Kyrgyzstan,Ruminants,0
Kyrgyzstan,Starchy Roots,0
Kyrgyzstan,WheatBarleyOats,0
Lao People's Democratic Republic,MaizeMilletSorghum,0
Lao People's Democratic Republic,Monogastrics,0
Lao People's Democratic Republic,Oilcrops,0
Lao People's Democratic Republic,Pulses,0
Lao People's Democratic Republic,Rice (Paddy Equivalent),0
Lao People's Democratic Republic,Ruminants,0
Lao People's Democratic Republic,Starchy Roots,0
Lao People's Democratic Republic,WheatBarleyOats,0
Latvia,MaizeMilletSorghum,-0.0637220925636364
Latvia,Monogastrics,0.000921314997301997
Latvia,Oilcrops,-0.1170237319
Latvia,Pulses,0
Latvia,Rice (Paddy Equivalent),-0.0256367238554545
Latvia,Ruminants,-0.0302836866850389
Latvia,Starchy Roots,-0.0206443068154546
Latvia,WheatBarleyOats,-0.103353065067978
Lebanon,MaizeMilletSorghum,0
Lebanon,Monogastrics,0
Lebanon,Oilcrops,0
Lebanon,Pulses,0
Lebanon,Rice (Paddy Equivalent),0
Lebanon,Ruminants,0
Lebanon,Starchy Roots,0
Lebanon,WheatBarleyOats,0
Lesotho,MaizeMilletSorghum,0
Lesotho,Monogastrics,0
Lesotho,Oilcrops,0
Lesotho,Pulses,0
Lesotho,Rice (Paddy Equivalent),0
Lesotho,Ruminants,0
Lesotho,Starchy Roots,0
Lesotho,WheatBarleyOats,0
Liberia,MaizeMilletSorghum,0
Liberia,Monogastrics,0
Liberia,Oilcrops,0
Liberia,Pulses,0
Liberia,Rice (Paddy Equivalent),0
Liberia,Ruminants,0
Liberia,Starchy Roots,0
Liberia,WheatBarleyOats,0
Libya,MaizeMilletSorghum,0
Libya,Monogastrics,0
Libya,Oilcrops,0
Libya,Pulses,0
Libya,Rice (Paddy Equivalent),0
Libya,Ruminants,0
Libya,Starchy Roots,0
Libya,WheatBarleyOats,0
Lithuania,MaizeMilletSorghum,-0.0637220925636364
Lithuania,Monogastrics,0.000921314997301997
Lithuania,Oilcrops,-0.1170237319
Lithuania,Pulses,0
Lithuania,Rice (Paddy Equivalent),-0.0256367238554545
Lithuania,Ruminants,-0.0302836866850389
Lithuania,Starchy Roots,-0.0206443068154546
Lithuania,WheatBarleyOats,-0.103353065067978
Luxembourg,MaizeMilletSorghum,-0.0637220925636364
Luxembourg,Monogastrics,0.000921314997301997
Luxembourg,Oilcrops,-0.1170237319
Luxembourg,Pulses,0
Luxembourg,Rice (Paddy Equivalent),-0.0256367238554545
Luxembourg,Ruminants,-0.0302836866850389
Luxembourg,Starchy Roots,-0.0206443068154546
Luxembourg,WheatBarleyOats,-0.103353065067978
Madagascar,MaizeMilletSorghum,0
Madagascar,Monogastrics,0
Madagascar,Oilcrops,0
Madagascar,Pulses,0
Madagascar,Rice (Paddy Equivalent),0
Madagascar,Ruminants,0
Madagascar,Starchy Roots,0
Madagascar,WheatBarleyOats,0
Malawi,MaizeMilletSorghum,0.193470518262222
Malawi,Monogastrics,0
Malawi,Oilcrops,-0.277454039292222
Malawi,Pulses,0
Malawi,Rice (Paddy Equivalent),0
Malawi,Ruminants,0
Malawi,Starchy Roots,0
Malawi,WheatBarleyOats,0
Malaysia,MaizeMilletSorghum,0
Malaysia,Monogastrics,0
Malaysia,Oilcrops,0
Malaysia,Pulses,0
Malaysia,Rice (Paddy Equivalent),0
Malaysia,Ruminants,0
Malaysia,Starchy Roots,0
Malaysia,WheatBarleyOats,0
Maldives,MaizeMilletSorghum,0
Maldives,Monogastrics,0
Maldives,Oilcrops,0
Maldives,Pulses,0
Maldives,Rice (Paddy Equivalent),0
Maldives,Ruminants,0
Maldives,Starchy Roots,0
Maldives,WheatBarleyOats,0
Mali,MaizeMilletSorghum,-0.323928684933167
Mali,Monogastrics,0
Mali,Oilcrops,-0.1486371826525
Mali,Pulses,0
Mali,Rice (Paddy Equivalent),-0.146685998415
Mali,Ruminants,-0.313156070820234
Mali,Starchy Roots,0
Mali,WheatBarleyOats,0
Malta,MaizeMilletSorghum,-0.0637220925636364
Malta,Monogastrics,0.000921314997301997
Malta,Oilcrops,-0.1170237319
Malta,Pulses,0
Malta,Rice (Paddy Equivalent),-0.0256367238554545
Malta,Ruminants,-0.0302836866850389
Malta,Starchy Roots,-0.0206443068154546
Malta,WheatBarleyOats,-0.103353065067978
Mauritania,MaizeMilletSorghum,0
Mauritania,Monogastrics,0
Mauritania,Oilcrops,0
Mauritania,Pulses,0
Mauritania,Rice (Paddy Equivalent),0
Mauritania,Ruminants,0
Mauritania,Starchy Roots,0
Mauritania,WheatBarleyOats,0
Mauritius,MaizeMilletSorghum,0
Mauritius,Monogastrics,0
Mauritius,Oilcrops,0
Mauritius,Pulses,0
Mauritius,Rice (Paddy Equivalent),0
Mauritius,Ruminants,0
Mauritius,Starchy Roots,0
Mauritius,WheatBarleyOats,0
Mexico,MaizeMilletSorghum,-0.300884041827772
Mexico,Monogastrics,-0.242381127926964
Mexico,Oilcrops,-0.289321788987273
Mexico,Pulses,-0.181051410236364
Mexico,Rice (Paddy Equivalent),-0.259952841868182
Mexico,Ruminants,-0.279171365653631
Mexico,Starchy Roots,0
Mexico,WheatBarleyOats,-0.287469273892595
Mongolia,MaizeMilletSorghum,0
Mongolia,Monogastrics,0
Mongolia,Oilcrops,0
Mongolia,Pulses,0
Mongolia,Rice (Paddy Equivalent),0
Mongolia,Ruminants,0
Mongolia,Starchy Roots,0
Mongolia,WheatBarleyOats,0
Montenegro,MaizeMilletSorghum,0
Montenegro,Monogastrics,0
Montenegro,Oilcrops,0
Montenegro,Pulses,0
Montenegro,Rice (Paddy Equivalent),0
Montenegro,Ruminants,0
Montenegro,Starchy Roots,0
Montenegro,WheatBarleyOats,0
Morocco,MaizeMilletSorghum,0
Morocco,Monogastrics,0
Morocco,Oilcrops,0
Morocco,Pulses,0
Morocco,Rice (Paddy Equivalent),0
Morocco,Ruminants,0
Morocco,Starchy Roots,0
Morocco,WheatBarleyOats,0
Mozambique,MaizeMilletSorghum,-0.019742173302
Mozambique,Monogastrics,0
Mozambique,Oilcrops,0
Mozambique,Pulses,0
Mozambique,Rice (Paddy Equivalent),-0.244869762669
Mozambique,Ruminants,0
Mozambique,Starchy Roots,-0.195311485691
Mozambique,WheatBarleyOats,0
Myanmar,MaizeMilletSorghum,0
Myanmar,Monogastrics,0
Myanmar,Monogastrics,0
Myanmar,Monogastrics,0
Myanmar,Monogastrics,0
Myanmar,Oilcrops,0
Myanmar,Oilcrops,0
Myanmar,Oilcrops,0
Myanmar,Oilcrops,0
Myanmar,Pulses,0
Myanmar,Pulses,0
Myanmar,Pulses,0
Myanmar,Pulses,0
Myanmar,Rice (Paddy Equivalent),0
Myanmar,Ruminants,0
Myanmar,Ruminants,0
Myanmar,Ruminants,0
Myanmar,Ruminants,0
Myanmar,Starchy Roots,0
Myanmar,Starchy Roots,0
Myanmar,Starchy Roots,0
Myanmar,Starchy Roots,0
Myanmar,WheatBarleyOats,0
Myanmar,WheatBarleyOats,0
Myanmar,WheatBarleyOats,0
Myanmar,WheatBarleyOats,0
Namibia,MaizeMilletSorghum,0
Namibia,Monogastrics,0
Namibia,Oilcrops,0
Namibia,Pulses,0
Namibia,Rice (Paddy Equivalent),0
Namibia,Ruminants,0
Namibia,Starchy Roots,0
Namibia,WheatBarleyOats,0
Nepal,MaizeMilletSorghum,0
Nepal,Monogastrics,0
Nepal,Oilcrops,0
Nepal,Pulses,0
Nepal,Rice (Paddy Equivalent),0
Nepal,Ruminants,0
Nepal,Starchy Roots,0
Nepal,WheatBarleyOats,0
Netherlands,MaizeMilletSorghum,-0.0637220925636364
Netherlands,Monogastrics,0.000921314997301997
Netherlands,Oilcrops,-0.1170237319
Netherlands,Pulses,0
Netherlands,Rice (Paddy Equivalent),-0.0256367238554545
Netherlands,Ruminants,-0.0302836866850389
Netherlands,Starchy Roots,-0.0206443068154546
Netherlands,WheatBarleyOats,-0.103353065067978
New Caledonia,MaizeMilletSorghum,0
New Caledonia,Monogastrics,0
New Caledonia,Oilcrops,0
New Caledonia,Pulses,0
New Caledonia,Rice (Paddy Equivalent),0
New Caledonia,Ruminants,0
New Caledonia,Starchy Roots,0
New Caledonia,WheatBarleyOats,0
New Zealand,MaizeMilletSorghum,-0.3841695488
New Zealand,Monogastrics,-0.22735861941165
New Zealand,Oilcrops,0
New Zealand,Pulses,0
New Zealand,Rice (Paddy Equivalent),0
New Zealand,Ruminants,-0.3841695488
New Zealand,Starchy Roots,0
New Zealand,WheatBarleyOats,-0.3841695488
Nicaragua,MaizeMilletSorghum,-0.0207076744095555
Nicaragua,Monogastrics,0.17209974262667
Nicaragua,Oilcrops,0
Nicaragua,Pulses,-0.1235354277
Nicaragua,Rice (Paddy Equivalent),1.1378400858
Nicaragua,Ruminants,-0.0689636314997338
Nicaragua,Starchy Roots,0
Nicaragua,WheatBarleyOats,0
Niger,MaizeMilletSorghum,0
Niger,Monogastrics,0
Niger,Oilcrops,0
Niger,Pulses,0
Niger,Rice (Paddy Equivalent),0
Niger,Ruminants,0
Niger,Starchy Roots,0
Niger,WheatBarleyOats,0
Nigeria,MaizeMilletSorghum,0
Nigeria,Monogastrics,0
Nigeria,Oilcrops,0
Nigeria,Pulses,0
Nigeria,Rice (Paddy Equivalent),0
Nigeria,Ruminants,0
Nigeria,Starchy Roots,0
Nigeria,WheatBarleyOats,0
Norway,MaizeMilletSorghum,0
Norway,Monogastrics,0.905697472800245
Norway,Oilcrops,0
Norway,Pulses,0
Norway,Rice (Paddy Equivalent),0
Norway,Ruminants,0.24891352426073
Norway,Starchy Roots,0
Norway,WheatBarleyOats,0.23643061196302
Oman,MaizeMilletSorghum,0
Oman,Monogastrics,0
Oman,Oilcrops,0
Oman,Pulses,0
Oman,Rice (Paddy Equivalent),0
Oman,Ruminants,0
Oman,Starchy Roots,0
Oman,WheatBarleyOats,0
Pakistan,MaizeMilletSorghum,-0.01168579294
Pakistan,Monogastrics,-0.121780426748
Pakistan,Oilcrops,0
Pakistan,Pulses,-0.102805426765556
Pakistan,Rice (Paddy Equivalent),-0.149713881968
Pakistan,Ruminants,0.2097338297
Pakistan,Starchy Roots,0
Pakistan,WheatBarleyOats,-0.258816164244
Panama,MaizeMilletSorghum,0
Panama,Monogastrics,0
Panama,Oilcrops,0
Panama,Pulses,0
Panama,Rice (Paddy Equivalent),0
Panama,Ruminants,0
Panama,Starchy Roots,0
Panama,WheatBarleyOats,0
Paraguay,MaizeMilletSorghum,-0.1370715348
Paraguay,Monogastrics,-0.1370715348
Paraguay,Oilcrops,-0.1370715348
Paraguay,Pulses,0
Paraguay,Rice (Paddy Equivalent),-0.1370715348
Paraguay,Ruminants,-0.1370715348
Paraguay,Starchy Roots,0
Paraguay,WheatBarleyOats,-0.1370715348
Peru,MaizeMilletSorghum,0.0664628984775
Peru,Monogastrics,0.0718349171619212
Peru,Oilcrops,0
Peru,Pulses,0
Peru,Rice (Paddy Equivalent),-0.036813357
Peru,Ruminants,-0.0343574649115969
Peru,Starchy Roots,-0.036813357
Peru,WheatBarleyOats,0
Philippines,MaizeMilletSorghum,-0.039390316206
Philippines,Monogastrics,0.132171032008619
Philippines,Oilcrops,-0.369587391326
Philippines,Pulses,0
Philippines,Rice (Paddy Equivalent),0.44885630714
Philippines,Ruminants,-0.092925778818
Philippines,Starchy Roots,0
Philippines,WheatBarleyOats,0
Poland,MaizeMilletSorghum,-0.0637220925636364
Poland,Monogastrics,0.000921314997301997
Poland,Oilcrops,-0.1170237319
Poland,Pulses,0
Poland,Rice (Paddy Equivalent),-0.0256367238554545
Poland,Ruminants,-0.0302836866850389
Poland,Starchy Roots,-0.0206443068154546
Poland,WheatBarleyOats,-0.103353065067978
Portugal,MaizeMilletSorghum,-0.0637220925636364
Portugal,Monogastrics,0.000921314997301997
Portugal,Oilcrops,-0.1170237319
Portugal,Pulses,0
Portugal,Rice (Paddy Equivalent),-0.0256367238554545
Portugal,Ruminants,-0.0302836866850389
Portugal,Starchy Roots,-0.0206443068154546
Portugal,WheatBarleyOats,-0.103353065067978
Republic of Korea,MaizeMilletSorghum,0
Republic of Korea,Monogastrics,0.104081644173365
Republic of Korea,Oilcrops,5.60311672206364
Republic of Korea,Pulses,0
Republic of Korea,Rice (Paddy Equivalent),0.511962372209091
Republic of Korea,Ruminants,0.126903793563236
Republic of Korea,Starchy Roots,0
Republic of Korea,WheatBarleyOats,0.936318113772727
Republic of Moldova,MaizeMilletSorghum,0
Republic of Moldova,Monogastrics,0
Republic of Moldova,Oilcrops,0
Republic of Moldova,Pulses,0
Republic of Moldova,Rice (Paddy Equivalent),0
Republic of Moldova,Ruminants,0
Republic of Moldova,Starchy Roots,0
Republic of Moldova,WheatBarleyOats,0
Romania,MaizeMilletSorghum,-0.0637220925636364
Romania,Monogastrics,0.000921314997301997
Romania,Oilcrops,-0.1170237319
Romania,Pulses,0
Romania,Rice (Paddy Equivalent),-0.0256367238554545
Romania,Ruminants,-0.0302836866850389
Romania,Starchy Roots,-0.0206443068154546
Romania,WheatBarleyOats,-0.103353065067978
Russian Federation,MaizeMilletSorghum,-0.217617006191
Russian Federation,Monogastrics,0.187696275411759
Russian Federation,Oilcrops,-0.169344112991
Russian Federation,Pulses,0
Russian Federation,Rice (Paddy Equivalent),0
Russian Federation,Ruminants,0.13235968066795
Russian Federation,Starchy Roots,-0.124417653822
Russian Federation,WheatBarleyOats,-0.229846815294457
Rwanda,MaizeMilletSorghum,0
Rwanda,Monogastrics,0
Rwanda,Oilcrops,0
Rwanda,Pulses,-0.280698870631
Rwanda,Rice (Paddy Equivalent),0.28681308773
Rwanda,Ruminants,0
Rwanda,Starchy Roots,0
Rwanda,WheatBarleyOats,0
Saint Kitts and Nevis,MaizeMilletSorghum,0
Saint Kitts and Nevis,Monogastrics,0
Saint Kitts and Nevis,Oilcrops,0
Saint Kitts and Nevis,Pulses,0
Saint Kitts and Nevis,Rice (Paddy Equivalent),0
Saint Kitts and Nevis,Ruminants,0
Saint Kitts and Nevis,Starchy Roots,0
Saint Kitts and Nevis,WheatBarleyOats,0
Saint Lucia,MaizeMilletSorghum,0
Saint Lucia,Monogastrics,0
Saint Lucia,Oilcrops,0
Saint Lucia,Pulses,0
Saint Lucia,Rice (Paddy Equivalent),0
Saint Lucia,Ruminants,0
Saint Lucia,Starchy Roots,0
Saint Lucia,WheatBarleyOats,0
Saint Vincent and the Grenadines,MaizeMilletSorghum,0
Saint Vincent and the Grenadines,Monogastrics,0
Saint Vincent and the Grenadines,Oilcrops,0
Saint Vincent and the Grenadines,Pulses,0
Saint Vincent and the Grenadines,Rice (Paddy Equivalent),0
Saint Vincent and the Grenadines,Ruminants,0
Saint Vincent and the Grenadines,Starchy Roots,0
Saint Vincent and the Grenadines,WheatBarleyOats,0
Samoa,MaizeMilletSorghum,0
Samoa,Monogastrics,0
Samoa,Oilcrops,0
Samoa,Rice (Paddy Equivalent),0
Samoa,Ruminants,0
Samoa,Starchy Roots,0
Samoa,WheatBarleyOats,0
Sao Tome and Principe,MaizeMilletSorghum,0
Sao Tome and Principe,Monogastrics,0
Sao Tome and Principe,Oilcrops,0
Sao Tome and Principe,Pulses,0
Sao Tome and Principe,Rice (Paddy Equivalent),0
Sao Tome and Principe,Ruminants,0
Sao Tome and Principe,Starchy Roots,0
Sao Tome and Principe,WheatBarleyOats,0
Saudi Arabia,MaizeMilletSorghum,0
Saudi Arabia,Monogastrics,0
Saudi Arabia,Oilcrops,0
Saudi Arabia,Pulses,0
Saudi Arabia,Rice (Paddy Equivalent),0
Saudi Arabia,Ruminants,0
Saudi Arabia,Starchy Roots,0
Saudi Arabia,WheatBarleyOats,0
Senegal,MaizeMilletSorghum,0
Senegal,Monogastrics,0
Senegal,Oilcrops,-0.811600547077778
Senegal,Pulses,0
Senegal,Rice (Paddy Equivalent),0.21263231489
Senegal,Ruminants,0
Senegal,Starchy Roots,-0.343142278066
Senegal,WheatBarleyOats,0
Serbia,MaizeMilletSorghum,0
Serbia,Monogastrics,0
Serbia,Oilcrops,0
Serbia,Pulses,0
Serbia,Rice (Paddy Equivalent),0
Serbia,Ruminants,0
Serbia,Starchy Roots,0
Serbia,WheatBarleyOats,0
Sierra Leone,MaizeMilletSorghum,0
Sierra Leone,Monogastrics,0
Sierra Leone,Oilcrops,0
Sierra Leone,Pulses,0
Sierra Leone,Rice (Paddy Equivalent),0
Sierra Leone,Ruminants,0
Sierra Leone,Starchy Roots,0
Sierra Leone,WheatBarleyOats,0
Slovakia,MaizeMilletSorghum,-0.0637220925636364
Slovakia,Monogastrics,0.000921314997301997
Slovakia,Oilcrops,-0.1170237319
Slovakia,Pulses,0
Slovakia,Rice (Paddy Equivalent),-0.0256367238554545
Slovakia,Ruminants,-0.0302836866850389
Slovakia,Starchy Roots,-0.0206443068154546
Slovakia,WheatBarleyOats,-0.103353065067978
Slovenia,MaizeMilletSorghum,-0.0637220925636364
Slovenia,Monogastrics,0.000921314997301997
Slovenia,Oilcrops,-0.1170237319
Slovenia,Pulses,0
Slovenia,Rice (Paddy Equivalent),-0.0256367238554545
Slovenia,Ruminants,-0.0302836866850389
Slovenia,Starchy Roots,-0.0206443068154546
Slovenia,WheatBarleyOats,-0.103353065067978
Solomon Islands,MaizeMilletSorghum,0
Solomon Islands,Monogastrics,0
Solomon Islands,Oilcrops,0
Solomon Islands,Pulses,0
Solomon Islands,Rice (Paddy Equivalent),0
Solomon Islands,Ruminants,0
Solomon Islands,Starchy Roots,0
Solomon Islands,WheatBarleyOats,0
Somalia,MaizeMilletSorghum,0
Somalia,Monogastrics,0
Somalia,Oilcrops,0
Somalia,Pulses,0
Somalia,Rice (Paddy Equivalent),0
Somalia,Ruminants,0
Somalia,Starchy Roots,0
Somalia,WheatBarleyOats,0
South Africa,MaizeMilletSorghum,-0.0652051929481818
South Africa,Monogastrics,-0.0748537260582598
South Africa,Oilcrops,-0.0761962109376833
South Africa,Pulses,0
South Africa,Rice (Paddy Equivalent),0
South Africa,Ruminants,-0.0268528868074135
South Africa,Starchy Roots,0
South Africa,WheatBarleyOats,-0.0492054036281818
South Sudan,MaizeMilletSorghum,0
South Sudan,Monogastrics,0
South Sudan,Oilcrops,0
South Sudan,Pulses,0
South Sudan,Rice (Paddy Equivalent),0
South Sudan,Ruminants,0
South Sudan,Starchy Roots,0
South Sudan,WheatBarleyOats,0
Spain,MaizeMilletSorghum,-0.0637220925636364
Spain,Monogastrics,0.000921314997301997
Spain,Oilcrops,-0.1170237319
Spain,Pulses,0
Spain,Rice (Paddy Equivalent),-0.0256367238554545
Spain,Ruminants,-0.0302836866850389
Spain,Starchy Roots,-0.0206443068154546
Spain,WheatBarleyOats,-0.103353065067978
Sri Lanka,MaizeMilletSorghum,1.495860694
Sri Lanka,Monogastrics,0
Sri Lanka,Oilcrops,-0.30270498672
Sri Lanka,Pulses,0
Sri Lanka,Rice (Paddy Equivalent),-0.226661309906
Sri Lanka,Ruminants,-0.205932892399
Sri Lanka,Starchy Roots,0.231987137315
Sri Lanka,WheatBarleyOats,0
Sudan,MaizeMilletSorghum,0
Sudan,Monogastrics,0
Sudan,Oilcrops,0
Sudan,Pulses,0
Sudan,Rice (Paddy Equivalent),0
Sudan,Ruminants,0
Sudan,Starchy Roots,0
Sudan,WheatBarleyOats,0
Suriname,MaizeMilletSorghum,0
Suriname,Monogastrics,0.379740525729041
Suriname,Oilcrops,0
Suriname,Pulses,0
Suriname,Rice (Paddy Equivalent),-0.383956896903333
Suriname,Ruminants,0.737775650548717
Suriname,Starchy Roots,0.638747862988889
Suriname,WheatBarleyOats,0
Swaziland,MaizeMilletSorghum,0
Swaziland,Monogastrics,0
Swaziland,Oilcrops,0
Swaziland,Pulses,0
Swaziland,Rice (Paddy Equivalent),0
Swaziland,Ruminants,0
Swaziland,Starchy Roots,0
Swaziland,WheatBarleyOats,0
Sweden,MaizeMilletSorghum,-0.0637220925636364
Sweden,Monogastrics,0.000921314997301997
Sweden,Oilcrops,-0.1170237319
Sweden,Pulses,0
Sweden,Rice (Paddy Equivalent),-0.0256367238554545
Sweden,Ruminants,-0.0302836866850389
Sweden,Starchy Roots,-0.0206443068154546
Sweden,WheatBarleyOats,-0.103353065067978
Switzerland,MaizeMilletSorghum,0.0717260181181819
Switzerland,Monogastrics,1.31935183167115
Switzerland,Oilcrops,0.964486934963636
Switzerland,Pulses,0
Switzerland,Rice (Paddy Equivalent),0
Switzerland,Ruminants,0.0508351260201452
Switzerland,Starchy Roots,0
Switzerland,WheatBarleyOats,0.10816676865755
Tajikistan,MaizeMilletSorghum,0
Tajikistan,Monogastrics,0
Tajikistan,Oilcrops,0
Tajikistan,Pulses,0
Tajikistan,Rice (Paddy Equivalent),0
Tajikistan,Ruminants,0
Tajikistan,Starchy Roots,0
Tajikistan,WheatBarleyOats,0
Thailand,MaizeMilletSorghum,0
Thailand,Monogastrics,0
Thailand,Oilcrops,0
Thailand,Pulses,0
Thailand,Rice (Paddy Equivalent),0
Thailand,Ruminants,0
Thailand,Starchy Roots,0
Thailand,WheatBarleyOats,0
The former Yugoslav Republic of Macedonia,MaizeMilletSorghum,0
The former Yugoslav Republic of Macedonia,Monogastrics,0
The former Yugoslav Republic of Macedonia,Oilcrops,0
The former Yugoslav Republic of Macedonia,Pulses,0
The former Yugoslav Republic of Macedonia,Rice (Paddy Equivalent),0
The former Yugoslav Republic of Macedonia,Ruminants,0
The former Yugoslav Republic of Macedonia,Starchy Roots,0
The former Yugoslav Republic of Macedonia,WheatBarleyOats,0
Togo,MaizeMilletSorghum,0
Togo,Monogastrics,0
Togo,Oilcrops,0
Togo,Pulses,0
Togo,Rice (Paddy Equivalent),0
Togo,Ruminants,0
Togo,Starchy Roots,0
Togo,WheatBarleyOats,0
Trinidad and Tobago,MaizeMilletSorghum,0
Trinidad and Tobago,Monogastrics,0
Trinidad and Tobago,Oilcrops,0
Trinidad and Tobago,Pulses,0
Trinidad and Tobago,Rice (Paddy Equivalent),0
Trinidad and Tobago,Ruminants,0
Trinidad and Tobago,Starchy Roots,0
Trinidad and Tobago,WheatBarleyOats,0
Tunisia,MaizeMilletSorghum,0
Tunisia,Monogastrics,0
Tunisia,Oilcrops,0
Tunisia,Pulses,0
Tunisia,Rice (Paddy Equivalent),0
Tunisia,Ruminants,0
Tunisia,Starchy Roots,0
Tunisia,WheatBarleyOats,0
Turkey,MaizeMilletSorghum,-0.08182773166
Turkey,Monogastrics,0.2931898411098
Turkey,Oilcrops,-0.127389814417273
Turkey,Pulses,0
Turkey,Rice (Paddy Equivalent),0
Turkey,Ruminants,-0.0354545835621364
Turkey,Starchy Roots,1.58631625361364
Turkey,WheatBarleyOats,-0.082231462445849
Turkmenistan,MaizeMilletSorghum,0
Turkmenistan,Monogastrics,0
Turkmenistan,Oilcrops,0
Turkmenistan,Pulses,0
Turkmenistan,Rice (Paddy Equivalent),0
Turkmenistan,Ruminants,0
Turkmenistan,Starchy Roots,0
Turkmenistan,WheatBarleyOats,0
Uganda,MaizeMilletSorghum,0.152431725627778
Uganda,Monogastrics,0
Uganda,Oilcrops,0
Uganda,Pulses,0
Uganda,Rice (Paddy Equivalent),0.889478133053
Uganda,Ruminants,-0.623696632486788
Uganda,Starchy Roots,-0.319538356293333
Uganda,WheatBarleyOats,-0.379260358314444
Ukraine,MaizeMilletSorghum,-0.192152922244545
Ukraine,Monogastrics,0.162991509620119
Ukraine,Oilcrops,-0.174512002268182
Ukraine,Pulses,0
Ukraine,Rice (Paddy Equivalent),0
Ukraine,Ruminants,-0.218749056772315
Ukraine,Starchy Roots,-0.0823698324436364
Ukraine,WheatBarleyOats,-0.314724447371051
United Arab Emirates,MaizeMilletSorghum,0
United Arab Emirates,Monogastrics,0
United Arab Emirates,Oilcrops,0
United Arab Emirates,Pulses,0
United Arab Emirates,Rice (Paddy Equivalent),0
United Arab Emirates,Ruminants,0
United Arab Emirates,Starchy Roots,0
United Arab Emirates,WheatBarleyOats,0
United Kingdom,MaizeMilletSorghum,-0.0637220925636364
United Kingdom,Monogastrics,0.000921314997301997
United Kingdom,Oilcrops,-0.1170237319
United Kingdom,Pulses,0
United Kingdom,Rice (Paddy Equivalent),-0.0256367238554545
United Kingdom,Ruminants,-0.0302836866850389
United Kingdom,Starchy Roots,-0.0206443068154546
United Kingdom,WheatBarleyOats,-0.103353065067978
United Republic of Tanzania,MaizeMilletSorghum,-0.784856327666
United Republic of Tanzania,Monogastrics,0
United Republic of Tanzania,Oilcrops,0
United Republic of Tanzania,Pulses,0
United Republic of Tanzania,Rice (Paddy Equivalent),0.826524153401
United Republic of Tanzania,Ruminants,0
United Republic of Tanzania,Starchy Roots,0
United Republic of Tanzania,WheatBarleyOats,-0.492570812224
United States of America,MaizeMilletSorghum,-0.05016408497
United States of America,Monogastrics,-0.05016408497
United States of America,Oilcrops,-0.05016408497
United States of America,Pulses,0
United States of America,Rice (Paddy Equivalent),-0.05016408497
United States of America,Ruminants,0.0980223419263007
United States of America,Starchy Roots,0
United States of America,WheatBarleyOats,-0.05016408497
Uruguay,MaizeMilletSorghum,-0.1208628228
Uruguay,Monogastrics,0.13368742248
Uruguay,Oilcrops,-0.1208628228
Uruguay,Pulses,0
Uruguay,Rice (Paddy Equivalent),-0.1208628228
Uruguay,Ruminants,-0.1208628228
Uruguay,Starchy Roots,0.291817754884
Uruguay,WheatBarleyOats,-0.1208628228
Uzbekistan,MaizeMilletSorghum,0
Uzbekistan,Monogastrics,0
Uzbekistan,Oilcrops,0
Uzbekistan,Pulses,0
Uzbekistan,Rice (Paddy Equivalent),0
Uzbekistan,Ruminants,0
Uzbekistan,Starchy Roots,0
Uzbekistan,WheatBarleyOats,0
Vanuatu,MaizeMilletSorghum,0
Vanuatu,Monogastrics,0
Vanuatu,Oilcrops,0
Vanuatu,Pulses,0
Vanuatu,Rice (Paddy Equivalent),0
Vanuatu,Ruminants,0
Vanuatu,Starchy Roots,0
Vanuatu,WheatBarleyOats,0
Venezuela (Bolivarian Republic of),MaizeMilletSorghum,0
Venezuela (Bolivarian Republic of),Monogastrics,0
Venezuela (Bolivarian Republic of),Oilcrops,0
Venezuela (Bolivarian Republic of),Pulses,0
Venezuela (Bolivarian Republic of),Rice (Paddy Equivalent),0
Venezuela (Bolivarian Republic of),Ruminants,0
Venezuela (Bolivarian Republic of),Starchy Roots,0
Venezuela (Bolivarian Republic of),WheatBarleyOats,0
Viet Nam,MaizeMilletSorghum,0.246916099785455
Viet Nam,Monogastrics,0.0856138981322065
Viet Nam,Oilcrops,0
Viet Nam,Pulses,0
Viet Nam,Rice (Paddy Equivalent),-0.0473476431772727
Viet Nam,Ruminants,0.420422537196364
Viet Nam,Starchy Roots,0
Viet Nam,WheatBarleyOats,0
Yemen,MaizeMilletSorghum,0
Yemen,Monogastrics,0
Yemen,Oilcrops,0
Yemen,Pulses,0
Yemen,Rice (Paddy Equivalent),0
Yemen,Ruminants,0
Yemen,Starchy Roots,0
Yemen,WheatBarleyOats,0
Zambia,MaizeMilletSorghum,0
Zambia,Monogastrics,0
Zambia,Oilcrops,0
Zambia,Pulses,0
Zambia,Rice (Paddy Equivalent),0
Zambia,Ruminants,0
Zambia,Starchy Roots,0
Zambia,WheatBarleyOats,0
Zimbabwe,MaizeMilletSorghum,0
Zimbabwe,Monogastrics,0
Zimbabwe,Oilcrops,0
Zimbabwe,Pulses,0
Zimbabwe,Rice (Paddy Equivalent),0
Zimbabwe,Ruminants,0
Zimbabwe,Starchy Roots,0
Zimbabwe,WheatBarleyOats,0
