Commodity,Description *not exhaustive list
Cereal C3,Include wheat and barley
Cereal C4,"Include maize, millet, sorghum"
Oil crops,"Include soybeans, coconuts, olives, sunflower, rapeseed, oil palm fruit"
Pulses,"Include beans, chickpeas, lentils, vetches, lupins, peas"
Starchy roots,"Include potatoes, sweet potatoes, cassava, taro, yams, yautia"
Sugar,"Include sugar cane, sugar beet, honey"
Fruits and vegetables,"Include apples, pears, peaches, raspberries, courgette, butternut"
Energy crops,Include miscanthus
Ruminant livestock products,Include dairy and meat product
Monogastric livestock products,Include meat products
