Parameters,Description
demandk,demand for commodity k (t)
export_pck,export price for commodity k (\$/t)
import_pck, import price for commodity k (\$/t) 
base_lu_costj,base land use costs for crop j (\$/ha)
f_cost, cost per tonne of fertiliser (\$/t)
w_cost_indexi,"irrigation cost index at location i (unitless, 0-1 range) "
w_cost,irrigation cost (\$/m2)
m_costj,management intensity cost for crop j (\$)
f_max,"maximum fertiliser rate, i.e. at f=1(t/ha)"
"w_maxi,j","maximum irrigation rate, i.e. at w=1, for crop j at location i (m2/ha)"
irrigiation_eff, Irrigation efficiency (%)
crop_dmk,crop dry matter for commodity k (%)
suitable_areai,area suitable for agriculture at location i (ha)
water_availi,water availability at location i (m3/ha)
min/max_net_importk, minimum and maximum net imports for commodity k (t)
lc_change_unit_costl,land cover change unit cost for cover type l (\$/ha)
