Ensemble,Scenario,AGRI_LAND_EXPANSION_COST_FACTOR,MIN_NATURAL_RATE,ANNUAL_MAX_IMPORT_CHANGE,BIOENERGY_DEMAND_SHIFT,FERTILISER_COST_PER_T,INITIAL_PRICE_SHIFT,IRRIG_COST_SCALE_FACTOR,IRRIGATION_EFFICIENCY,LAND_CHANGE_COST,MARKET_LAMBA,MEAT_EFFICIENCY,OTHER_INTENSITY_COST,PASTURE_HARVEST_FRACTION,SSP_GDP_PC_FACTOR,SSP_POPULATION_FACTOR,SSP_SCENARIO,TECHNOLOGY_CHANGE_ANNUAL_RATE,TRADE_BARRIER_MULTIPLIER,TRANSPORT_COST,MAX_PRICE_DECREASE,MAX_PRICE_INCREASE,RCP,BIOENERGY_FUTURE_DEMAND_FILENAME,ORIG_LEAST_COST_MIN,PRICE_ELASTIC_DEMAND,FORCE_PROTECTED_AREAS,FORCE_PROTECTED_AREAS_START_YEAR,FORCE_PROTECTED_AREAS_END_YEAR,HALFEARTH,PRICE_UPDATE_BY_MARKET_IMBALANCE,YIELD_DIR_TOP,BIOENERGY_DEMAND_SCENARIO
HE_ensemble/baseline,s1,0.9,0.15,0.15,1,1.25,1,3e-04,0.5,0.1,0.2,1,0.7,0.5,1,1,SSP2_v9_130325,0.002,1,0.05,0.75,1.5,rcp60,bioenergy_scenario_data.csv,TRUE,TRUE,FALSE,2020,2040,FALSE,FALSE,rcp60,SSP2_RCP60
HE_ensemble/baseline,s2,0.95,0.125,0.175,0.95,1.375,0.9,0.00045,0.45,0.0875,0.25,0.975,0.8,0.45,1.05,0.95,SSP2_v9_130325,0.0025,0.5,0.0625,0.75,1.5,rcp60,bioenergy_scenario_data.csv,TRUE,TRUE,FALSE,2020,2040,FALSE,FALSE,rcp60,SSP2_RCP60
HE_ensemble/baseline,s3,0.85,0.175,0.125,1.05,1.125,1.1,0.00015,0.55,0.1125,0.15,1.025,0.6,0.55,0.95,1.05,SSP2_v9_130325,0.0015,1.5,0.0375,0.75,1.5,rcp60,bioenergy_scenario_data.csv,TRUE,TRUE,FALSE,2020,2040,FALSE,FALSE,rcp60,SSP2_RCP60
HE_ensemble/baseline,s4,0.875,0.1375,0.1625,0.925,1.4375,1.15,7.5e-05,0.525,0.08125,0.275,0.9875,0.75,0.425,0.975,1.025,SSP2_v9_130325,0.00225,0.75,0.04375,0.75,1.5,rcp60,bioenergy_scenario_data.csv,TRUE,TRUE,FALSE,2020,2040,FALSE,FALSE,rcp60,SSP2_RCP60
HE_ensemble/baseline,s5,0.975,0.1875,0.1125,1.025,1.1875,0.95,0.000375,0.425,0.10625,0.175,1.0375,0.55,0.525,1.075,0.925,SSP2_v9_130325,0.00125,1.75,0.06875,0.75,1.5,rcp60,bioenergy_scenario_data.csv,TRUE,TRUE,FALSE,2020,2040,FALSE,FALSE,rcp60,SSP2_RCP60
HE_ensemble/halfearth,s1,0.9,0.15,0.15,1,1.25,1,3e-04,0.5,0.1,0.2,1,0.7,0.5,1,1,SSP2_v9_130325,0.002,1,0.05,0.75,1.5,rcp60,bioenergy_scenario_data.csv,TRUE,TRUE,TRUE,2020,2040,TRUE,FALSE,rcp60,SSP2_RCP60
HE_ensemble/halfearth,s2,0.95,0.125,0.175,0.95,1.375,0.9,0.00045,0.45,0.0875,0.25,0.975,0.8,0.45,1.05,0.95,SSP2_v9_130325,0.0025,0.5,0.0625,0.75,1.5,rcp60,bioenergy_scenario_data.csv,TRUE,TRUE,TRUE,2020,2040,TRUE,FALSE,rcp60,SSP2_RCP60
HE_ensemble/halfearth,s3,0.85,0.175,0.125,1.05,1.125,1.1,0.00015,0.55,0.1125,0.15,1.025,0.6,0.55,0.95,1.05,SSP2_v9_130325,0.0015,1.5,0.0375,0.75,1.5,rcp60,bioenergy_scenario_data.csv,TRUE,TRUE,TRUE,2020,2040,TRUE,FALSE,rcp60,SSP2_RCP60
HE_ensemble/halfearth,s4,0.875,0.1375,0.1625,0.925,1.4375,1.15,7.5e-05,0.525,0.08125,0.275,0.9875,0.75,0.425,0.975,1.025,SSP2_v9_130325,0.00225,0.75,0.04375,0.75,1.5,rcp60,bioenergy_scenario_data.csv,TRUE,TRUE,TRUE,2020,2040,TRUE,FALSE,rcp60,SSP2_RCP60
HE_ensemble/halfearth,s5,0.975,0.1875,0.1125,1.025,1.1875,0.95,0.000375,0.425,0.10625,0.175,1.0375,0.55,0.525,1.075,0.925,SSP2_v9_130325,0.00125,1.75,0.06875,0.75,1.5,rcp60,bioenergy_scenario_data.csv,TRUE,TRUE,TRUE,2020,2040,TRUE,FALSE,rcp60,SSP2_RCP60
