Ensemble,Scenario,AGRI_LAND_EXPANSION_COST_FACTOR,ANNUAL_MAX_IMPORT_CHANGE,BIOENERGY_DEMAND_SHIFT,CROP_TO_PASTURE_COST_FACTOR,FERTILISER_COST_PER_T,IRRIG_COST_SCALE_FACTOR,IRRIGATION_EFFICIENCY,LAND_CHANGE_COST,MARKET_LAMBA,MEAT_EFFICIENCY,MIN_NATURAL_RATE,OTHER_INTENSITY_COST,PASTURE_HARVEST_FRACTION,RCP,SSP_GDP_PC_FACTOR,SSP_SCENARIO,TECHNOLOGY_CHANGE_ANNUAL_RATE,TRADE_BARRIER_MULTIPLIER,TRANSPORT_COST,TRANSPORT_LOSSES,YIELD_DIR_TOP,BIOENERGY_DEMAND_SCENARIO
russia/pricecalib/bau,s1,1,0.08,1,1,1.6,0.00035,0.5,0.2,0.55,1,0.1,0.7,0.5,rcp45,1,SSP2_v9_130325,0.002,1,0.1,0.05,rcp45,SSP2_RCP45
russia/pricecalib/bau,s2,1.08270938702243,0.0750130724123867,0.95,1.1,1.47532681030967,0.000392014778383574,0.491729061297757,0.189688362297416,0.625,0.995864530648878,0.12174185522096,0.679221135051611,0.55,rcp45,1.05,SSP2_v9_130325,0.00158753449189663,1.08500433504854,0.0914995664951457,0.0585004335048543,rcp45,SSP2_RCP45
russia/pricecalib/bau,s3,0.91729061297757,0.0849869275876133,1.05,0.9,1.72467318969033,0.000307985221616426,0.508270938702243,0.210311637702584,0.475,1.00413546935112,0.0782581447790401,0.720778864948389,0.45,rcp45,0.95,SSP2_v9_130325,0.00241246550810337,0.914995664951457,0.108500433504854,0.0414995664951457,rcp45,SSP2_RCP45
russia/pricecalib/bau,s4,0.960874657414893,0.077639123420466,0.925,1.15,1.81153483560056,0.000279015531982238,0.503912534258511,0.182453074797474,0.6625,0.998043732870745,0.110368611745326,0.664744194066573,0.475,rcp45,0.925,SSP2_v9_130325,0.00180496552244993,0.959612716462545,0.114296975860531,0.0642969758605306,rcp45,SSP2_RCP45
russia/pricecalib/bau,s5,1.14060088096457,0.0884613934240225,1.025,0.95,1.54097808551165,0.000369925055308764,0.485939911903543,0.204875861938752,0.5125,1.00703004404823,0.0637597348849639,0.709836985748058,0.575,rcp45,1.025,SSP2_v9_130325,0.00270187700810103,1.14296975860531,0.0959612716462545,0.0459612716462545,rcp45,SSP2_RCP45
russia/pricecalib/bau,s6,1.03912534258511,0.0715386065759775,0.975,0.85,1.65902191448835,0.000420984468017762,0.514060088096457,0.195124138061248,0.4375,0.992969955951772,0.0896313882546741,0.690163014251942,0.525,rcp45,1.075,SSP2_v9_130325,0.00129812299189897,1.04038728353745,0.104038728353746,0.0357030241394694,rcp45,SSP2_RCP45
russia/pricecalib/bau,s7,0.859399119035433,0.082360876579534,1.075,1.05,1.38846516439944,0.000330074944691236,0.496087465741489,0.217546925202526,0.5875,1.00195626712926,0.136240265115036,0.735255805933427,0.425,rcp45,0.975,SSP2_v9_130325,0.00219503447755007,0.857030241394694,0.0857030241394694,0.0540387283537455,rcp45,SSP2_RCP45
russia/pricecalib/bau,s8,0.891349695386158,0.076381506251151,1.0375,1.025,1.43634345609781,0.000256379438102187,0.518678231924779,0.186448969904585,0.41875,1.00299925739028,0.128345786636399,0.704858699734982,0.5375,rcp45,1.0375,SSP2_v9_130325,0.00106646891392977,0.812426906164464,0.111120900723889,0.0687573093835536,rcp45,SSP2_RCP45
russia/pricecalib/bau,s9,1.05998514780556,0.0865462617560878,0.9375,0.825,1.69046234372122,0.000359845153366947,0.498067840937043,0.207476646078755,0.56875,0.994567484769308,0.0841534567669142,0.653268854817205,0.4375,rcp45,0.9375,SSP2_v9_130325,0.00209630682320497,1.01996381059673,0.0938185479653109,0.0480036189403268,rcp45,SSP2_RCP45
russia/pricecalib/bau,s10,1.18678231924779,0.0687845251561292,1.0875,0.925,1.57084780159011,0.00040506220712875,0.505998514780556,0.197592329419876,0.64375,1.00933911596239,0.0529439412839585,0.727276090650366,0.4875,rcp45,0.9875,SSP2_v9_130325,0.00170093415684978,1.11120900723889,0.101996381059673,0.0388790992761113,rcp45,SSP2_RCP45
russia/pricecalib/bau,s11,0.980678409370429,0.0811660879363957,0.9875,1.125,1.88038687109677,0.000319481768071885,0.489134969538616,0.223338277151756,0.49375,0.999033920468521,0.105129485081332,0.684922942713129,0.5875,rcp45,1.0875,SSP2_v9_130325,0.00254204120381658,0.938185479653109,0.0812426906164465,0.0561814520346891,rcp45,SSP2_RCP45
russia/pricecalib/bau,s12,0.940014852194445,0.0734537382439122,1.0125,0.975,1.76365654390219,0.00029493779287125,0.494001485219444,0.176661722848244,0.68125,1.00543251523069,0.094870514918668,0.715077057286871,0.5625,rcp45,1.0125,SSP2_v9_130325,0.00190369317679503,0.980036189403268,0.0888790992761113,0.0312426906164464,rcp45,SSP2_RCP45
russia/pricecalib/bau,s13,1.10865030461384,0.083618493748849,0.9125,1.175,1.50953765627878,0.000380518231928115,0.510865030461384,0.202407670580124,0.53125,0.997000742609722,0.147056058716042,0.672723909349634,0.4625,rcp45,0.9125,SSP2_v9_130325,0.00293353108607023,1.18757309383554,0.106181452034689,0.0519963810596732,rcp45,SSP2_RCP45
russia/pricecalib/bau,s14,1.01932159062957,0.0788339120636043,1.0625,1.075,1.62915219840989,0.000443620561897813,0.481321768075221,0.192523353921245,0.45625,1.00096607953148,0.115846543233086,0.746731145182795,0.4125,rcp45,0.9625,SSP2_v9_130325,0.00145795879618342,1.06181452034689,0.0980036189403268,0.0611209007238887,rcp45,SSP2_RCP45
russia/pricecalib/bau,s15,0.813217680752207,0.0912154748438708,0.9625,0.875,1.31961312890323,0.000340154846633053,0.501932159062957,0.213551030095415,0.60625,0.99066088403761,0.071654213363601,0.695141300265018,0.5125,rcp45,1.0625,SSP2_v9_130325,0.00229906584315022,0.888790992761113,0.118757309383554,0.0438185479653109,rcp45,SSP2_RCP45
russia/pricecalib/bau,s16,0.839157403113636,0.0794186921839679,0.98125,0.9125,1.52551760278851,0.00035490837026229,0.512358658313402,0.211865411467367,0.521875,0.998543463029183,0.132072887785893,0.731009964453943,0.43125,rcp45,1.00625,SSP2_v9_130325,0.00204800701428613,0.949064828775545,0.0990045925165523,0.0449064828775545,rcp45,SSP2_RCP45
russia/pricecalib/bau,s17,1.02913073941635,0.093528369502185,1.08125,1.1125,1.78605978672366,0.000237674175364811,0.495061943938999,0.191143438475156,0.671875,1.00804212984432,0.0869317887532772,0.687586267131419,0.53125,rcp45,0.90625,SSP2_v9_130325,0.000869779893827476,1.12613568239489,0.122379874486512,0.0626135682394891,rcp45,SSP2_RCP45
russia/pricecalib/bau,s18,1.12358658313402,0.0742644852679213,0.93125,1.0125,1.35822928553545,0.00031387815256095,0.502913073941635,0.201200175357153,0.596875,0.993820670843299,0.0589237147787978,0.707324847750061,0.58125,rcp45,0.95625,SSP2_v9_130325,0.00247461645869469,1.03008721937191,0.0902382277972787,0.0530087219371906,rcp45,SSP2_RCP45
russia/pricecalib/bau,s19,0.95061943938999,0.0842849439134194,1.03125,0.8125,1.64394908650037,0.000398286467716412,0.483915740311364,0.171744497345687,0.446875,1.0024690280305,0.10772799490402,0.659704880922574,0.48125,rcp45,1.05625,SSP2_v9_130325,0.00164573753900624,0.837269088768403,0.107312755104162,0.0337269088768403,rcp45,SSP2_RCP45
russia/pricecalib/bau,s20,0.990368365855445,0.0703291714214178,0.95625,1.0625,1.70712359783548,0.000375136830862061,0.499036836585544,0.220082752879293,0.559375,0.988707784626618,0.0974419019589453,0.756368206259104,0.45625,rcp45,1.03125,SSP2_v9_130325,0.00280331011517172,0.902382277972787,0.103008721937191,0.0573127551041616,rcp45,SSP2_RCP45
russia/pricecalib/bau,s21,1.22584430746765,0.0817579634600147,1.05625,0.8625,1.45661213169803,0.00028747164642377,0.522584430746765,0.196369873731948,0.409375,1.00048158170723,0.155537767290142,0.697577884099866,0.55625,rcp45,0.93125,SSP2_v9_130325,0.00185479494927791,1.07312755104162,0.0837269088768403,0.0402382277972787,rcp45,SSP2_RCP45
russia/pricecalib/bau,s22,1.07104819026467,0.0770207041115405,0.90625,0.9625,1.93820923755462,0.000335160020222254,0.490484428386516,0.206154317712805,0.484375,0.996447590486767,0.118727626910159,0.717853932972581,0.50625,rcp45,0.98125,SSP2_v9_130325,0.00224617270851218,1.22379874486513,0.112613568239489,0.0490045925165523,rcp45,SSP2_RCP45
russia/pricecalib/bau,s23,0.904844283865163,0.0874423914689462,1.00625,1.1625,1.5854673045992,0.000430967576444303,0.507104819026467,0.184581901942803,0.634375,1.00475778580674,0.075070636286424,0.676102021949672,0.40625,rcp45,1.08125,SSP2_v9_130325,0.00138327607771214,0.990045925165523,0.0949064828775545,0.0723798744865125,rcp45,SSP2_RCP45
russia/pricecalib/bau,s24,0.87641341686598,0.0725576085310538,1.06875,1.1375,1.55605091349963,0.000364839979777746,0.487641341686598,0.228255502654313,0.540625,1.0061793291567,0.0444622327098577,0.682146067027419,0.51875,rcp45,0.94375,SSP2_v9_130325,0.00214520505072209,0.926872448958384,0.105093517122445,0.0550935171224455,rcp45,SSP2_RCP45
russia/pricecalib/bau,s25,1.04938056061001,0.0829792958884595,0.96875,0.9375,1.84177071446455,0.000269032423555697,0.504938056061001,0.198799824642847,0.690625,0.997530971969499,0.102558098041055,0.723897978050328,0.41875,rcp45,1.04375,SSP2_v9_130325,0.00119668988482828,1.09761772202721,0.0873864317605109,0.0373864317605109,rcp45,SSP2_RCP45
russia/pricecalib/bau,s26,1.16084259688636,0.0782420365399853,1.01875,0.8375,1.41394021327635,0.000324863169137939,0.497086926058365,0.208856561524844,0.615625,1.00145653697082,0.124929363713576,0.643631793740896,0.46875,rcp45,1.09375,SSP2_v9_130325,0.00261672392228786,1.00995407483448,0.11627309112316,0.0469912780628094,rcp45,SSP2_RCP45
russia/pricecalib/bau,s27,0.970869260583654,0.0896708285785822,0.91875,1.0375,1.67448239721149,0.00041252835357623,0.516084259688636,0.188134588532633,0.465625,0.991957870155682,0.0812723730898414,0.702422115900133,0.56875,rcp45,0.99375,SSP2_v9_130325,0.00175382729148782,0.776201255134875,0.0969912780628094,0.0662730911231597,rcp45,SSP2_RCP45
russia/pricecalib/bau,s28,0.928951809735333,0.0757150560865806,1.09375,0.8875,1.6145326954008,0.00038612184743905,0.500963163414456,0.215418098057197,0.578125,1.00355240951323,0.113068211246723,0.692675152249939,0.59375,rcp45,0.91875,SSP2_v9_130325,0.00313022010617252,0.873864317605109,0.0926872448958384,0.0426872448958384,rcp45,SSP2_RCP45
russia/pricecalib/bau,s29,1.09515571613484,0.0857355147320787,0.99375,1.0875,1.26179076244538,0.000301713532283589,0.477415569253235,0.193845682287195,0.428125,0.995242214193258,0.0679271122141072,0.740295119077426,0.49375,rcp45,1.01875,SSP2_v9_130325,0.00195199298571387,1.05093517122445,0.109761772202721,0.0597617722027213,rcp45,SSP2_RCP45
russia/pricecalib/bau,s30,1.00963163414456,0.066471630497815,1.04375,1.1875,1.74338786830197,0.000345091629737709,0.509515571613484,0.203630126268052,0.503125,1.01129221537338,0.0922720050959796,0.668990035546058,0.44375,rcp45,1.06875,SSP2_v9_130325,0.00235426246099376,1.1627309112316,0.0776201255134875,0.0509954074834478,rcp45,SSP2_RCP45
russia/pricecalib/conflict,s1,1,0.08,1,1,4.8,0.00035,0.5,0.2,0.55,1,0.1,1.05,0.5,rcp45,1,SSP2_v9_130325,0.002,1,0.15,0.05,rcp45,SSP2_RCP45
russia/pricecalib/conflict,s2,1.08270938702243,0.0750130724123867,0.95,1.1,4.425980430929,0.000392014778383574,0.491729061297757,0.189688362297416,0.625,0.995864530648878,0.12174185522096,1.01883170257742,0.55,rcp45,1.05,SSP2_v9_130325,0.00158753449189663,1.08500433504854,0.137249349742719,0.0585004335048543,rcp45,SSP2_RCP45
russia/pricecalib/conflict,s3,0.91729061297757,0.0849869275876133,1.05,0.9,5.174019569071,0.000307985221616426,0.508270938702243,0.210311637702584,0.475,1.00413546935112,0.0782581447790401,1.08116829742258,0.45,rcp45,0.95,SSP2_v9_130325,0.00241246550810337,0.914995664951457,0.162750650257281,0.0414995664951457,rcp45,SSP2_RCP45
russia/pricecalib/conflict,s4,0.960874657414893,0.077639123420466,0.925,1.15,5.43460450680169,0.000279015531982238,0.503912534258511,0.182453074797474,0.6625,0.998043732870745,0.110368611745326,0.997116291099859,0.475,rcp45,0.925,SSP2_v9_130325,0.00180496552244993,0.959612716462545,0.171445463790796,0.0642969758605306,rcp45,SSP2_RCP45
russia/pricecalib/conflict,s5,1.14060088096457,0.0884613934240225,1.025,0.95,4.62293425653495,0.000369925055308764,0.485939911903543,0.204875861938752,0.5125,1.00703004404823,0.0637597348849639,1.06475547862209,0.575,rcp45,1.025,SSP2_v9_130325,0.00270187700810103,1.14296975860531,0.143941907469382,0.0459612716462545,rcp45,SSP2_RCP45
russia/pricecalib/conflict,s6,1.03912534258511,0.0715386065759775,0.975,0.85,4.97706574346505,0.000420984468017762,0.514060088096457,0.195124138061248,0.4375,0.992969955951772,0.0896313882546741,1.03524452137791,0.525,rcp45,1.075,SSP2_v9_130325,0.00129812299189897,1.04038728353745,0.156058092530618,0.0357030241394694,rcp45,SSP2_RCP45
russia/pricecalib/conflict,s7,0.859399119035433,0.082360876579534,1.075,1.05,4.16539549319831,0.000330074944691236,0.496087465741489,0.217546925202526,0.5875,1.00195626712926,0.136240265115036,1.10288370890014,0.425,rcp45,0.975,SSP2_v9_130325,0.00219503447755007,0.857030241394694,0.128554536209204,0.0540387283537455,rcp45,SSP2_RCP45
russia/pricecalib/conflict,s8,0.891349695386158,0.076381506251151,1.0375,1.025,4.30903036829342,0.000256379438102187,0.518678231924779,0.186448969904585,0.41875,1.00299925739028,0.128345786636399,1.05728804960247,0.5375,rcp45,1.0375,SSP2_v9_130325,0.00106646891392977,0.812426906164464,0.166681351085833,0.0687573093835536,rcp45,SSP2_RCP45
russia/pricecalib/conflict,s9,1.05998514780556,0.0865462617560878,0.9375,0.825,5.07138703116367,0.000359845153366947,0.498067840937043,0.207476646078755,0.56875,0.994567484769308,0.0841534567669142,0.979903282225807,0.4375,rcp45,0.9375,SSP2_v9_130325,0.00209630682320497,1.01996381059673,0.140727821947966,0.0480036189403268,rcp45,SSP2_RCP45
russia/pricecalib/conflict,s10,1.18678231924779,0.0687845251561292,1.0875,0.925,4.71254340477032,0.00040506220712875,0.505998514780556,0.197592329419876,0.64375,1.00933911596239,0.0529439412839585,1.09091413597555,0.4875,rcp45,0.9875,SSP2_v9_130325,0.00170093415684978,1.11120900723889,0.15299457158951,0.0388790992761113,rcp45,SSP2_RCP45
russia/pricecalib/conflict,s11,0.980678409370429,0.0811660879363957,0.9875,1.125,5.64116061329031,0.000319481768071885,0.489134969538616,0.223338277151756,0.49375,0.999033920468521,0.105129485081332,1.02738441406969,0.5875,rcp45,1.0875,SSP2_v9_130325,0.00254204120381658,0.938185479653109,0.12186403592467,0.0561814520346891,rcp45,SSP2_RCP45
russia/pricecalib/conflict,s12,0.940014852194445,0.0734537382439122,1.0125,0.975,5.29096963170658,0.00029493779287125,0.494001485219444,0.176661722848244,0.68125,1.00543251523069,0.094870514918668,1.07261558593031,0.5625,rcp45,1.0125,SSP2_v9_130325,0.00190369317679503,0.980036189403268,0.133318648914167,0.0312426906164464,rcp45,SSP2_RCP45
russia/pricecalib/conflict,s13,1.10865030461384,0.083618493748849,0.9125,1.175,4.52861296883632,0.000380518231928115,0.510865030461384,0.202407670580124,0.53125,0.997000742609722,0.147056058716042,1.00908586402445,0.4625,rcp45,0.9125,SSP2_v9_130325,0.00293353108607023,1.18757309383554,0.159272178052034,0.0519963810596732,rcp45,SSP2_RCP45
russia/pricecalib/conflict,s14,1.01932159062957,0.0788339120636043,1.0625,1.075,4.88745659522968,0.000443620561897813,0.481321768075221,0.192523353921245,0.45625,1.00096607953148,0.115846543233086,1.12009671777419,0.4125,rcp45,0.9625,SSP2_v9_130325,0.00145795879618342,1.06181452034689,0.14700542841049,0.0611209007238887,rcp45,SSP2_RCP45
russia/pricecalib/conflict,s15,0.813217680752207,0.0912154748438708,0.9625,0.875,3.95883938670969,0.000340154846633053,0.501932159062957,0.213551030095415,0.60625,0.99066088403761,0.071654213363601,1.04271195039753,0.5125,rcp45,1.0625,SSP2_v9_130325,0.00229906584315022,0.888790992761113,0.17813596407533,0.0438185479653109,rcp45,SSP2_RCP45
russia/pricecalib/conflict,s16,0.839157403113636,0.0794186921839679,0.98125,0.9125,4.57655280836554,0.00035490837026229,0.512358658313402,0.211865411467367,0.521875,0.998543463029183,0.132072887785893,1.09651494668091,0.43125,rcp45,1.00625,SSP2_v9_130325,0.00204800701428613,0.949064828775545,0.148506888774828,0.0449064828775545,rcp45,SSP2_RCP45
russia/pricecalib/conflict,s17,1.02913073941635,0.093528369502185,1.08125,1.1125,5.35817936017097,0.000237674175364811,0.495061943938999,0.191143438475156,0.671875,1.00804212984432,0.0869317887532772,1.03137940069713,0.53125,rcp45,0.90625,SSP2_v9_130325,0.000869779893827476,1.12613568239489,0.183569811729769,0.0626135682394891,rcp45,SSP2_RCP45
russia/pricecalib/conflict,s18,1.12358658313402,0.0742644852679213,0.93125,1.0125,4.07468785660634,0.00031387815256095,0.502913073941635,0.201200175357153,0.596875,0.993820670843299,0.0589237147787978,1.06098727162509,0.58125,rcp45,0.95625,SSP2_v9_130325,0.00247461645869469,1.03008721937191,0.135357341695918,0.0530087219371906,rcp45,SSP2_RCP45
russia/pricecalib/conflict,s19,0.95061943938999,0.0842849439134194,1.03125,0.8125,4.9318472595011,0.000398286467716412,0.483915740311364,0.171744497345687,0.446875,1.0024690280305,0.10772799490402,0.989557321383861,0.48125,rcp45,1.05625,SSP2_v9_130325,0.00164573753900624,0.837269088768403,0.160969132656242,0.0337269088768403,rcp45,SSP2_RCP45
russia/pricecalib/conflict,s20,0.990368365855445,0.0703291714214178,0.95625,1.0625,5.12137079350645,0.000375136830862061,0.499036836585544,0.220082752879293,0.559375,0.988707784626618,0.0974419019589453,1.13455230938866,0.45625,rcp45,1.03125,SSP2_v9_130325,0.00280331011517172,0.902382277972787,0.154513082905786,0.0573127551041616,rcp45,SSP2_RCP45
russia/pricecalib/conflict,s21,1.22584430746765,0.0817579634600147,1.05625,0.8625,4.36983639509409,0.00028747164642377,0.522584430746765,0.196369873731948,0.409375,1.00048158170723,0.155537767290142,1.0463668261498,0.55625,rcp45,0.93125,SSP2_v9_130325,0.00185479494927791,1.07312755104162,0.12559036331526,0.0402382277972787,rcp45,SSP2_RCP45
russia/pricecalib/conflict,s22,1.07104819026467,0.0770207041115405,0.90625,0.9625,5.81462771266387,0.000335160020222254,0.490484428386516,0.206154317712805,0.484375,0.996447590486767,0.118727626910159,1.07678089945887,0.50625,rcp45,0.98125,SSP2_v9_130325,0.00224617270851218,1.22379874486513,0.168920352359234,0.0490045925165523,rcp45,SSP2_RCP45
russia/pricecalib/conflict,s23,0.904844283865163,0.0874423914689462,1.00625,1.1625,4.7564019137976,0.000430967576444303,0.507104819026467,0.184581901942803,0.634375,1.00475778580674,0.075070636286424,1.01415303292451,0.40625,rcp45,1.08125,SSP2_v9_130325,0.00138327607771214,0.990045925165523,0.142359724316332,0.0723798744865125,rcp45,SSP2_RCP45
russia/pricecalib/conflict,s24,0.87641341686598,0.0725576085310538,1.06875,1.1375,4.66815274049889,0.000364839979777746,0.487641341686598,0.228255502654313,0.540625,1.0061793291567,0.0444622327098577,1.02321910054113,0.51875,rcp45,0.94375,SSP2_v9_130325,0.00214520505072209,0.926872448958384,0.157640275683668,0.0550935171224455,rcp45,SSP2_RCP45
russia/pricecalib/conflict,s25,1.04938056061001,0.0829792958884595,0.96875,0.9375,5.52531214339366,0.000269032423555697,0.504938056061001,0.198799824642847,0.690625,0.997530971969499,0.102558098041055,1.08584696707549,0.41875,rcp45,1.04375,SSP2_v9_130325,0.00119668988482828,1.09761772202721,0.131079647640766,0.0373864317605109,rcp45,SSP2_RCP45
russia/pricecalib/conflict,s26,1.16084259688636,0.0782420365399853,1.01875,0.8375,4.24182063982903,0.000324863169137939,0.497086926058365,0.208856561524844,0.615625,1.00145653697082,0.124929363713576,0.965447690611344,0.46875,rcp45,1.09375,SSP2_v9_130325,0.00261672392228786,1.00995407483448,0.17440963668474,0.0469912780628094,rcp45,SSP2_RCP45
russia/pricecalib/conflict,s27,0.970869260583654,0.0896708285785822,0.91875,1.0375,5.02344719163446,0.00041252835357623,0.516084259688636,0.188134588532633,0.465625,0.991957870155682,0.0812723730898414,1.0536331738502,0.56875,rcp45,0.99375,SSP2_v9_130325,0.00175382729148782,0.776201255134875,0.145486917094214,0.0662730911231597,rcp45,SSP2_RCP45
russia/pricecalib/conflict,s28,0.928951809735333,0.0757150560865806,1.09375,0.8875,4.8435980862024,0.00038612184743905,0.500963163414456,0.215418098057197,0.578125,1.00355240951323,0.113068211246723,1.03901272837491,0.59375,rcp45,0.91875,SSP2_v9_130325,0.00313022010617252,0.873864317605109,0.139030867343758,0.0426872448958384,rcp45,SSP2_RCP45
russia/pricecalib/conflict,s29,1.09515571613484,0.0857355147320787,0.99375,1.0875,3.78537228733613,0.000301713532283589,0.477415569253235,0.193845682287195,0.428125,0.995242214193258,0.0679271122141072,1.11044267861614,0.49375,rcp45,1.01875,SSP2_v9_130325,0.00195199298571387,1.05093517122445,0.164642658304082,0.0597617722027213,rcp45,SSP2_RCP45
russia/pricecalib/conflict,s30,1.00963163414456,0.066471630497815,1.04375,1.1875,5.23016360490591,0.000345091629737709,0.509515571613484,0.203630126268052,0.503125,1.01129221537338,0.0922720050959796,1.00348505331909,0.44375,rcp45,1.06875,SSP2_v9_130325,0.00235426246099376,1.1627309112316,0.116430188270231,0.0509954074834478,rcp45,SSP2_RCP45
russia/pricecalib/justrestrictions,s1,1,0.08,1,1,1.6,0.00035,0.5,0.2,0.55,1,0.1,0.7,0.5,rcp45,1,SSP2_v9_130325,0.002,1,0.1,0.05,rcp45,SSP2_RCP45
russia/pricecalib/justrestrictions,s2,1.08270938702243,0.0750130724123867,0.95,1.1,1.47532681030967,0.000392014778383574,0.491729061297757,0.189688362297416,0.625,0.995864530648878,0.12174185522096,0.679221135051611,0.55,rcp45,1.05,SSP2_v9_130325,0.00158753449189663,1.08500433504854,0.0914995664951457,0.0585004335048543,rcp45,SSP2_RCP45
russia/pricecalib/justrestrictions,s3,0.91729061297757,0.0849869275876133,1.05,0.9,1.72467318969033,0.000307985221616426,0.508270938702243,0.210311637702584,0.475,1.00413546935112,0.0782581447790401,0.720778864948389,0.45,rcp45,0.95,SSP2_v9_130325,0.00241246550810337,0.914995664951457,0.108500433504854,0.0414995664951457,rcp45,SSP2_RCP45
russia/pricecalib/justrestrictions,s4,0.960874657414893,0.077639123420466,0.925,1.15,1.81153483560056,0.000279015531982238,0.503912534258511,0.182453074797474,0.6625,0.998043732870745,0.110368611745326,0.664744194066573,0.475,rcp45,0.925,SSP2_v9_130325,0.00180496552244993,0.959612716462545,0.114296975860531,0.0642969758605306,rcp45,SSP2_RCP45
russia/pricecalib/justrestrictions,s5,1.14060088096457,0.0884613934240225,1.025,0.95,1.54097808551165,0.000369925055308764,0.485939911903543,0.204875861938752,0.5125,1.00703004404823,0.0637597348849639,0.709836985748058,0.575,rcp45,1.025,SSP2_v9_130325,0.00270187700810103,1.14296975860531,0.0959612716462545,0.0459612716462545,rcp45,SSP2_RCP45
russia/pricecalib/justrestrictions,s6,1.03912534258511,0.0715386065759775,0.975,0.85,1.65902191448835,0.000420984468017762,0.514060088096457,0.195124138061248,0.4375,0.992969955951772,0.0896313882546741,0.690163014251942,0.525,rcp45,1.075,SSP2_v9_130325,0.00129812299189897,1.04038728353745,0.104038728353746,0.0357030241394694,rcp45,SSP2_RCP45
russia/pricecalib/justrestrictions,s7,0.859399119035433,0.082360876579534,1.075,1.05,1.38846516439944,0.000330074944691236,0.496087465741489,0.217546925202526,0.5875,1.00195626712926,0.136240265115036,0.735255805933427,0.425,rcp45,0.975,SSP2_v9_130325,0.00219503447755007,0.857030241394694,0.0857030241394694,0.0540387283537455,rcp45,SSP2_RCP45
russia/pricecalib/justrestrictions,s8,0.891349695386158,0.076381506251151,1.0375,1.025,1.43634345609781,0.000256379438102187,0.518678231924779,0.186448969904585,0.41875,1.00299925739028,0.128345786636399,0.704858699734982,0.5375,rcp45,1.0375,SSP2_v9_130325,0.00106646891392977,0.812426906164464,0.111120900723889,0.0687573093835536,rcp45,SSP2_RCP45
russia/pricecalib/justrestrictions,s9,1.05998514780556,0.0865462617560878,0.9375,0.825,1.69046234372122,0.000359845153366947,0.498067840937043,0.207476646078755,0.56875,0.994567484769308,0.0841534567669142,0.653268854817205,0.4375,rcp45,0.9375,SSP2_v9_130325,0.00209630682320497,1.01996381059673,0.0938185479653109,0.0480036189403268,rcp45,SSP2_RCP45
russia/pricecalib/justrestrictions,s10,1.18678231924779,0.0687845251561292,1.0875,0.925,1.57084780159011,0.00040506220712875,0.505998514780556,0.197592329419876,0.64375,1.00933911596239,0.0529439412839585,0.727276090650366,0.4875,rcp45,0.9875,SSP2_v9_130325,0.00170093415684978,1.11120900723889,0.101996381059673,0.0388790992761113,rcp45,SSP2_RCP45
russia/pricecalib/justrestrictions,s11,0.980678409370429,0.0811660879363957,0.9875,1.125,1.88038687109677,0.000319481768071885,0.489134969538616,0.223338277151756,0.49375,0.999033920468521,0.105129485081332,0.684922942713129,0.5875,rcp45,1.0875,SSP2_v9_130325,0.00254204120381658,0.938185479653109,0.0812426906164465,0.0561814520346891,rcp45,SSP2_RCP45
russia/pricecalib/justrestrictions,s12,0.940014852194445,0.0734537382439122,1.0125,0.975,1.76365654390219,0.00029493779287125,0.494001485219444,0.176661722848244,0.68125,1.00543251523069,0.094870514918668,0.715077057286871,0.5625,rcp45,1.0125,SSP2_v9_130325,0.00190369317679503,0.980036189403268,0.0888790992761113,0.0312426906164464,rcp45,SSP2_RCP45
russia/pricecalib/justrestrictions,s13,1.10865030461384,0.083618493748849,0.9125,1.175,1.50953765627878,0.000380518231928115,0.510865030461384,0.202407670580124,0.53125,0.997000742609722,0.147056058716042,0.672723909349634,0.4625,rcp45,0.9125,SSP2_v9_130325,0.00293353108607023,1.18757309383554,0.106181452034689,0.0519963810596732,rcp45,SSP2_RCP45
russia/pricecalib/justrestrictions,s14,1.01932159062957,0.0788339120636043,1.0625,1.075,1.62915219840989,0.000443620561897813,0.481321768075221,0.192523353921245,0.45625,1.00096607953148,0.115846543233086,0.746731145182795,0.4125,rcp45,0.9625,SSP2_v9_130325,0.00145795879618342,1.06181452034689,0.0980036189403268,0.0611209007238887,rcp45,SSP2_RCP45
russia/pricecalib/justrestrictions,s15,0.813217680752207,0.0912154748438708,0.9625,0.875,1.31961312890323,0.000340154846633053,0.501932159062957,0.213551030095415,0.60625,0.99066088403761,0.071654213363601,0.695141300265018,0.5125,rcp45,1.0625,SSP2_v9_130325,0.00229906584315022,0.888790992761113,0.118757309383554,0.0438185479653109,rcp45,SSP2_RCP45
russia/pricecalib/justrestrictions,s16,0.839157403113636,0.0794186921839679,0.98125,0.9125,1.52551760278851,0.00035490837026229,0.512358658313402,0.211865411467367,0.521875,0.998543463029183,0.132072887785893,0.731009964453943,0.43125,rcp45,1.00625,SSP2_v9_130325,0.00204800701428613,0.949064828775545,0.0990045925165523,0.0449064828775545,rcp45,SSP2_RCP45
russia/pricecalib/justrestrictions,s17,1.02913073941635,0.093528369502185,1.08125,1.1125,1.78605978672366,0.000237674175364811,0.495061943938999,0.191143438475156,0.671875,1.00804212984432,0.0869317887532772,0.687586267131419,0.53125,rcp45,0.90625,SSP2_v9_130325,0.000869779893827476,1.12613568239489,0.122379874486512,0.0626135682394891,rcp45,SSP2_RCP45
russia/pricecalib/justrestrictions,s18,1.12358658313402,0.0742644852679213,0.93125,1.0125,1.35822928553545,0.00031387815256095,0.502913073941635,0.201200175357153,0.596875,0.993820670843299,0.0589237147787978,0.707324847750061,0.58125,rcp45,0.95625,SSP2_v9_130325,0.00247461645869469,1.03008721937191,0.0902382277972787,0.0530087219371906,rcp45,SSP2_RCP45
russia/pricecalib/justrestrictions,s19,0.95061943938999,0.0842849439134194,1.03125,0.8125,1.64394908650037,0.000398286467716412,0.483915740311364,0.171744497345687,0.446875,1.0024690280305,0.10772799490402,0.659704880922574,0.48125,rcp45,1.05625,SSP2_v9_130325,0.00164573753900624,0.837269088768403,0.107312755104162,0.0337269088768403,rcp45,SSP2_RCP45
russia/pricecalib/justrestrictions,s20,0.990368365855445,0.0703291714214178,0.95625,1.0625,1.70712359783548,0.000375136830862061,0.499036836585544,0.220082752879293,0.559375,0.988707784626618,0.0974419019589453,0.756368206259104,0.45625,rcp45,1.03125,SSP2_v9_130325,0.00280331011517172,0.902382277972787,0.103008721937191,0.0573127551041616,rcp45,SSP2_RCP45
russia/pricecalib/justrestrictions,s21,1.22584430746765,0.0817579634600147,1.05625,0.8625,1.45661213169803,0.00028747164642377,0.522584430746765,0.196369873731948,0.409375,1.00048158170723,0.155537767290142,0.697577884099866,0.55625,rcp45,0.93125,SSP2_v9_130325,0.00185479494927791,1.07312755104162,0.0837269088768403,0.0402382277972787,rcp45,SSP2_RCP45
russia/pricecalib/justrestrictions,s22,1.07104819026467,0.0770207041115405,0.90625,0.9625,1.93820923755462,0.000335160020222254,0.490484428386516,0.206154317712805,0.484375,0.996447590486767,0.118727626910159,0.717853932972581,0.50625,rcp45,0.98125,SSP2_v9_130325,0.00224617270851218,1.22379874486513,0.112613568239489,0.0490045925165523,rcp45,SSP2_RCP45
russia/pricecalib/justrestrictions,s23,0.904844283865163,0.0874423914689462,1.00625,1.1625,1.5854673045992,0.000430967576444303,0.507104819026467,0.184581901942803,0.634375,1.00475778580674,0.075070636286424,0.676102021949672,0.40625,rcp45,1.08125,SSP2_v9_130325,0.00138327607771214,0.990045925165523,0.0949064828775545,0.0723798744865125,rcp45,SSP2_RCP45
russia/pricecalib/justrestrictions,s24,0.87641341686598,0.0725576085310538,1.06875,1.1375,1.55605091349963,0.000364839979777746,0.487641341686598,0.228255502654313,0.540625,1.0061793291567,0.0444622327098577,0.682146067027419,0.51875,rcp45,0.94375,SSP2_v9_130325,0.00214520505072209,0.926872448958384,0.105093517122445,0.0550935171224455,rcp45,SSP2_RCP45
russia/pricecalib/justrestrictions,s25,1.04938056061001,0.0829792958884595,0.96875,0.9375,1.84177071446455,0.000269032423555697,0.504938056061001,0.198799824642847,0.690625,0.997530971969499,0.102558098041055,0.723897978050328,0.41875,rcp45,1.04375,SSP2_v9_130325,0.00119668988482828,1.09761772202721,0.0873864317605109,0.0373864317605109,rcp45,SSP2_RCP45
russia/pricecalib/justrestrictions,s26,1.16084259688636,0.0782420365399853,1.01875,0.8375,1.41394021327635,0.000324863169137939,0.497086926058365,0.208856561524844,0.615625,1.00145653697082,0.124929363713576,0.643631793740896,0.46875,rcp45,1.09375,SSP2_v9_130325,0.00261672392228786,1.00995407483448,0.11627309112316,0.0469912780628094,rcp45,SSP2_RCP45
russia/pricecalib/justrestrictions,s27,0.970869260583654,0.0896708285785822,0.91875,1.0375,1.67448239721149,0.00041252835357623,0.516084259688636,0.188134588532633,0.465625,0.991957870155682,0.0812723730898414,0.702422115900133,0.56875,rcp45,0.99375,SSP2_v9_130325,0.00175382729148782,0.776201255134875,0.0969912780628094,0.0662730911231597,rcp45,SSP2_RCP45
russia/pricecalib/justrestrictions,s28,0.928951809735333,0.0757150560865806,1.09375,0.8875,1.6145326954008,0.00038612184743905,0.500963163414456,0.215418098057197,0.578125,1.00355240951323,0.113068211246723,0.692675152249939,0.59375,rcp45,0.91875,SSP2_v9_130325,0.00313022010617252,0.873864317605109,0.0926872448958384,0.0426872448958384,rcp45,SSP2_RCP45
russia/pricecalib/justrestrictions,s29,1.09515571613484,0.0857355147320787,0.99375,1.0875,1.26179076244538,0.000301713532283589,0.477415569253235,0.193845682287195,0.428125,0.995242214193258,0.0679271122141072,0.740295119077426,0.49375,rcp45,1.01875,SSP2_v9_130325,0.00195199298571387,1.05093517122445,0.109761772202721,0.0597617722027213,rcp45,SSP2_RCP45
russia/pricecalib/justrestrictions,s30,1.00963163414456,0.066471630497815,1.04375,1.1875,1.74338786830197,0.000345091629737709,0.509515571613484,0.203630126268052,0.503125,1.01129221537338,0.0922720050959796,0.668990035546058,0.44375,rcp45,1.06875,SSP2_v9_130325,0.00235426246099376,1.1627309112316,0.0776201255134875,0.0509954074834478,rcp45,SSP2_RCP45
russia/pricecalib/withoutrestrictions,s1,1,0.08,1,1,4.8,0.00035,0.5,0.2,0.55,1,0.1,1.05,0.5,rcp45,1,SSP2_v9_130325,0.002,1,0.15,0.05,rcp45,SSP2_RCP45
russia/pricecalib/withoutrestrictions,s2,1.08270938702243,0.0750130724123867,0.95,1.1,4.425980430929,0.000392014778383574,0.491729061297757,0.189688362297416,0.625,0.995864530648878,0.12174185522096,1.01883170257742,0.55,rcp45,1.05,SSP2_v9_130325,0.00158753449189663,1.08500433504854,0.137249349742719,0.0585004335048543,rcp45,SSP2_RCP45
russia/pricecalib/withoutrestrictions,s3,0.91729061297757,0.0849869275876133,1.05,0.9,5.174019569071,0.000307985221616426,0.508270938702243,0.210311637702584,0.475,1.00413546935112,0.0782581447790401,1.08116829742258,0.45,rcp45,0.95,SSP2_v9_130325,0.00241246550810337,0.914995664951457,0.162750650257281,0.0414995664951457,rcp45,SSP2_RCP45
russia/pricecalib/withoutrestrictions,s4,0.960874657414893,0.077639123420466,0.925,1.15,5.43460450680169,0.000279015531982238,0.503912534258511,0.182453074797474,0.6625,0.998043732870745,0.110368611745326,0.997116291099859,0.475,rcp45,0.925,SSP2_v9_130325,0.00180496552244993,0.959612716462545,0.171445463790796,0.0642969758605306,rcp45,SSP2_RCP45
russia/pricecalib/withoutrestrictions,s5,1.14060088096457,0.0884613934240225,1.025,0.95,4.62293425653495,0.000369925055308764,0.485939911903543,0.204875861938752,0.5125,1.00703004404823,0.0637597348849639,1.06475547862209,0.575,rcp45,1.025,SSP2_v9_130325,0.00270187700810103,1.14296975860531,0.143941907469382,0.0459612716462545,rcp45,SSP2_RCP45
russia/pricecalib/withoutrestrictions,s6,1.03912534258511,0.0715386065759775,0.975,0.85,4.97706574346505,0.000420984468017762,0.514060088096457,0.195124138061248,0.4375,0.992969955951772,0.0896313882546741,1.03524452137791,0.525,rcp45,1.075,SSP2_v9_130325,0.00129812299189897,1.04038728353745,0.156058092530618,0.0357030241394694,rcp45,SSP2_RCP45
russia/pricecalib/withoutrestrictions,s7,0.859399119035433,0.082360876579534,1.075,1.05,4.16539549319831,0.000330074944691236,0.496087465741489,0.217546925202526,0.5875,1.00195626712926,0.136240265115036,1.10288370890014,0.425,rcp45,0.975,SSP2_v9_130325,0.00219503447755007,0.857030241394694,0.128554536209204,0.0540387283537455,rcp45,SSP2_RCP45
russia/pricecalib/withoutrestrictions,s8,0.891349695386158,0.076381506251151,1.0375,1.025,4.30903036829342,0.000256379438102187,0.518678231924779,0.186448969904585,0.41875,1.00299925739028,0.128345786636399,1.05728804960247,0.5375,rcp45,1.0375,SSP2_v9_130325,0.00106646891392977,0.812426906164464,0.166681351085833,0.0687573093835536,rcp45,SSP2_RCP45
russia/pricecalib/withoutrestrictions,s9,1.05998514780556,0.0865462617560878,0.9375,0.825,5.07138703116367,0.000359845153366947,0.498067840937043,0.207476646078755,0.56875,0.994567484769308,0.0841534567669142,0.979903282225807,0.4375,rcp45,0.9375,SSP2_v9_130325,0.00209630682320497,1.01996381059673,0.140727821947966,0.0480036189403268,rcp45,SSP2_RCP45
russia/pricecalib/withoutrestrictions,s10,1.18678231924779,0.0687845251561292,1.0875,0.925,4.71254340477032,0.00040506220712875,0.505998514780556,0.197592329419876,0.64375,1.00933911596239,0.0529439412839585,1.09091413597555,0.4875,rcp45,0.9875,SSP2_v9_130325,0.00170093415684978,1.11120900723889,0.15299457158951,0.0388790992761113,rcp45,SSP2_RCP45
russia/pricecalib/withoutrestrictions,s11,0.980678409370429,0.0811660879363957,0.9875,1.125,5.64116061329031,0.000319481768071885,0.489134969538616,0.223338277151756,0.49375,0.999033920468521,0.105129485081332,1.02738441406969,0.5875,rcp45,1.0875,SSP2_v9_130325,0.00254204120381658,0.938185479653109,0.12186403592467,0.0561814520346891,rcp45,SSP2_RCP45
russia/pricecalib/withoutrestrictions,s12,0.940014852194445,0.0734537382439122,1.0125,0.975,5.29096963170658,0.00029493779287125,0.494001485219444,0.176661722848244,0.68125,1.00543251523069,0.094870514918668,1.07261558593031,0.5625,rcp45,1.0125,SSP2_v9_130325,0.00190369317679503,0.980036189403268,0.133318648914167,0.0312426906164464,rcp45,SSP2_RCP45
russia/pricecalib/withoutrestrictions,s13,1.10865030461384,0.083618493748849,0.9125,1.175,4.52861296883632,0.000380518231928115,0.510865030461384,0.202407670580124,0.53125,0.997000742609722,0.147056058716042,1.00908586402445,0.4625,rcp45,0.9125,SSP2_v9_130325,0.00293353108607023,1.18757309383554,0.159272178052034,0.0519963810596732,rcp45,SSP2_RCP45
russia/pricecalib/withoutrestrictions,s14,1.01932159062957,0.0788339120636043,1.0625,1.075,4.88745659522968,0.000443620561897813,0.481321768075221,0.192523353921245,0.45625,1.00096607953148,0.115846543233086,1.12009671777419,0.4125,rcp45,0.9625,SSP2_v9_130325,0.00145795879618342,1.06181452034689,0.14700542841049,0.0611209007238887,rcp45,SSP2_RCP45
russia/pricecalib/withoutrestrictions,s15,0.813217680752207,0.0912154748438708,0.9625,0.875,3.95883938670969,0.000340154846633053,0.501932159062957,0.213551030095415,0.60625,0.99066088403761,0.071654213363601,1.04271195039753,0.5125,rcp45,1.0625,SSP2_v9_130325,0.00229906584315022,0.888790992761113,0.17813596407533,0.0438185479653109,rcp45,SSP2_RCP45
russia/pricecalib/withoutrestrictions,s16,0.839157403113636,0.0794186921839679,0.98125,0.9125,4.57655280836554,0.00035490837026229,0.512358658313402,0.211865411467367,0.521875,0.998543463029183,0.132072887785893,1.09651494668091,0.43125,rcp45,1.00625,SSP2_v9_130325,0.00204800701428613,0.949064828775545,0.148506888774828,0.0449064828775545,rcp45,SSP2_RCP45
russia/pricecalib/withoutrestrictions,s17,1.02913073941635,0.093528369502185,1.08125,1.1125,5.35817936017097,0.000237674175364811,0.495061943938999,0.191143438475156,0.671875,1.00804212984432,0.0869317887532772,1.03137940069713,0.53125,rcp45,0.90625,SSP2_v9_130325,0.000869779893827476,1.12613568239489,0.183569811729769,0.0626135682394891,rcp45,SSP2_RCP45
russia/pricecalib/withoutrestrictions,s18,1.12358658313402,0.0742644852679213,0.93125,1.0125,4.07468785660634,0.00031387815256095,0.502913073941635,0.201200175357153,0.596875,0.993820670843299,0.0589237147787978,1.06098727162509,0.58125,rcp45,0.95625,SSP2_v9_130325,0.00247461645869469,1.03008721937191,0.135357341695918,0.0530087219371906,rcp45,SSP2_RCP45
russia/pricecalib/withoutrestrictions,s19,0.95061943938999,0.0842849439134194,1.03125,0.8125,4.9318472595011,0.000398286467716412,0.483915740311364,0.171744497345687,0.446875,1.0024690280305,0.10772799490402,0.989557321383861,0.48125,rcp45,1.05625,SSP2_v9_130325,0.00164573753900624,0.837269088768403,0.160969132656242,0.0337269088768403,rcp45,SSP2_RCP45
russia/pricecalib/withoutrestrictions,s20,0.990368365855445,0.0703291714214178,0.95625,1.0625,5.12137079350645,0.000375136830862061,0.499036836585544,0.220082752879293,0.559375,0.988707784626618,0.0974419019589453,1.13455230938866,0.45625,rcp45,1.03125,SSP2_v9_130325,0.00280331011517172,0.902382277972787,0.154513082905786,0.0573127551041616,rcp45,SSP2_RCP45
russia/pricecalib/withoutrestrictions,s21,1.22584430746765,0.0817579634600147,1.05625,0.8625,4.36983639509409,0.00028747164642377,0.522584430746765,0.196369873731948,0.409375,1.00048158170723,0.155537767290142,1.0463668261498,0.55625,rcp45,0.93125,SSP2_v9_130325,0.00185479494927791,1.07312755104162,0.12559036331526,0.0402382277972787,rcp45,SSP2_RCP45
russia/pricecalib/withoutrestrictions,s22,1.07104819026467,0.0770207041115405,0.90625,0.9625,5.81462771266387,0.000335160020222254,0.490484428386516,0.206154317712805,0.484375,0.996447590486767,0.118727626910159,1.07678089945887,0.50625,rcp45,0.98125,SSP2_v9_130325,0.00224617270851218,1.22379874486513,0.168920352359234,0.0490045925165523,rcp45,SSP2_RCP45
russia/pricecalib/withoutrestrictions,s23,0.904844283865163,0.0874423914689462,1.00625,1.1625,4.7564019137976,0.000430967576444303,0.507104819026467,0.184581901942803,0.634375,1.00475778580674,0.075070636286424,1.01415303292451,0.40625,rcp45,1.08125,SSP2_v9_130325,0.00138327607771214,0.990045925165523,0.142359724316332,0.0723798744865125,rcp45,SSP2_RCP45
russia/pricecalib/withoutrestrictions,s24,0.87641341686598,0.0725576085310538,1.06875,1.1375,4.66815274049889,0.000364839979777746,0.487641341686598,0.228255502654313,0.540625,1.0061793291567,0.0444622327098577,1.02321910054113,0.51875,rcp45,0.94375,SSP2_v9_130325,0.00214520505072209,0.926872448958384,0.157640275683668,0.0550935171224455,rcp45,SSP2_RCP45
russia/pricecalib/withoutrestrictions,s25,1.04938056061001,0.0829792958884595,0.96875,0.9375,5.52531214339366,0.000269032423555697,0.504938056061001,0.198799824642847,0.690625,0.997530971969499,0.102558098041055,1.08584696707549,0.41875,rcp45,1.04375,SSP2_v9_130325,0.00119668988482828,1.09761772202721,0.131079647640766,0.0373864317605109,rcp45,SSP2_RCP45
russia/pricecalib/withoutrestrictions,s26,1.16084259688636,0.0782420365399853,1.01875,0.8375,4.24182063982903,0.000324863169137939,0.497086926058365,0.208856561524844,0.615625,1.00145653697082,0.124929363713576,0.965447690611344,0.46875,rcp45,1.09375,SSP2_v9_130325,0.00261672392228786,1.00995407483448,0.17440963668474,0.0469912780628094,rcp45,SSP2_RCP45
russia/pricecalib/withoutrestrictions,s27,0.970869260583654,0.0896708285785822,0.91875,1.0375,5.02344719163446,0.00041252835357623,0.516084259688636,0.188134588532633,0.465625,0.991957870155682,0.0812723730898414,1.0536331738502,0.56875,rcp45,0.99375,SSP2_v9_130325,0.00175382729148782,0.776201255134875,0.145486917094214,0.0662730911231597,rcp45,SSP2_RCP45
russia/pricecalib/withoutrestrictions,s28,0.928951809735333,0.0757150560865806,1.09375,0.8875,4.8435980862024,0.00038612184743905,0.500963163414456,0.215418098057197,0.578125,1.00355240951323,0.113068211246723,1.03901272837491,0.59375,rcp45,0.91875,SSP2_v9_130325,0.00313022010617252,0.873864317605109,0.139030867343758,0.0426872448958384,rcp45,SSP2_RCP45
russia/pricecalib/withoutrestrictions,s29,1.09515571613484,0.0857355147320787,0.99375,1.0875,3.78537228733613,0.000301713532283589,0.477415569253235,0.193845682287195,0.428125,0.995242214193258,0.0679271122141072,1.11044267861614,0.49375,rcp45,1.01875,SSP2_v9_130325,0.00195199298571387,1.05093517122445,0.164642658304082,0.0597617722027213,rcp45,SSP2_RCP45
russia/pricecalib/withoutrestrictions,s30,1.00963163414456,0.066471630497815,1.04375,1.1875,5.23016360490591,0.000345091629737709,0.509515571613484,0.203630126268052,0.503125,1.01129221537338,0.0922720050959796,1.00348505331909,0.44375,rcp45,1.06875,SSP2_v9_130325,0.00235426246099376,1.1627309112316,0.116430188270231,0.0509954074834478,rcp45,SSP2_RCP45
