Ensemble,Scenario,AGRI_LAND_EXPANSION_COST_FACTOR,ANNUAL_MAX_IMPORT_CHANGE,BIOENERGY_DEMAND_SHIFT,CROP_TO_PASTURE_COST_FACTOR,FERTILISER_COST_PER_T,IRRIG_COST_SCALE_FACTOR,IRRIGATION_EFFICIENCY,LAND_CHANGE_COST,MARKET_LAMBA,MEAT_EFFICIENCY,MIN_NATURAL_RATE,OTHER_INTENSITY_COST,PASTURE_HARVEST_FRACTION,RCP,SSP_GDP_PC_FACTOR,SSP_SCENARIO,TECHNOLOGY_CHANGE_ANNUAL_RATE,TRADE_BARRIER_MULTIPLIER,TRANSPORT_COST,TRANSPORT_LOSSES,TARGET_STOCK_RATE,YIELD_DIR_TOP,BIOENERGY_DEMAND_SCENARIO,CALIB_DIR
russia/bau,s1,1,0.08,1,1,1.6,0.00035,0.5,0.2,0.6,1,0.1,0.7,0.5,rcp45,1,SSP2_v9_130325,0.002,1,0.1,0.05,0.2,rcp45,SSP2_RCP45,/exports/csce/eddie/geos/groups/LURG/models/PLUM/output/russia/priceupdated/bau/s1
russia/bau,s2,1.08270938702243,0.0750130724123867,0.95,0.9,1.72467318969033,0.000307985221616426,0.491729061297757,0.210311637702584,0.55,1.00413546935112,0.0782581447790401,0.720778864948389,0.45,rcp45,1.05,SSP2_v9_130325,0.00241246550810337,0.914995664951457,0.108500433504854,0.0414995664951457,0.17825814477904,rcp45,SSP2_RCP45,/exports/csce/eddie/geos/groups/LURG/models/PLUM/output/russia/priceupdated/bau/s2
russia/bau,s3,0.91729061297757,0.0849869275876133,1.05,1.1,1.47532681030967,0.000392014778383574,0.508270938702243,0.189688362297416,0.65,0.995864530648878,0.12174185522096,0.679221135051611,0.55,rcp45,0.95,SSP2_v9_130325,0.00158753449189663,1.08500433504854,0.0914995664951457,0.0585004335048543,0.22174185522096,rcp45,SSP2_RCP45,/exports/csce/eddie/geos/groups/LURG/models/PLUM/output/russia/priceupdated/bau/s3
russia/bau,s4,0.960874657414893,0.077639123420466,0.925,1.15,1.38846516439944,0.000369925055308764,0.485939911903543,0.217546925202526,0.575,1.00195626712926,0.0637597348849639,0.690163014251942,0.525,rcp45,1.025,SSP2_v9_130325,0.00180496552244993,1.14296975860531,0.114296975860531,0.0540387283537455,0.236240265115036,rcp45,SSP2_RCP45,/exports/csce/eddie/geos/groups/LURG/models/PLUM/output/russia/priceupdated/bau/s4
russia/bau,s5,1.14060088096457,0.0884613934240225,1.025,0.95,1.65902191448835,0.000279015531982238,0.503912534258511,0.195124138061248,0.675,0.992969955951772,0.110368611745326,0.735255805933427,0.425,rcp45,0.925,SSP2_v9_130325,0.00270187700810103,0.959612716462545,0.0959612716462545,0.0357030241394694,0.189631388254674,rcp45,SSP2_RCP45,/exports/csce/eddie/geos/groups/LURG/models/PLUM/output/russia/priceupdated/bau/s5
russia/bau,s6,1.03912534258511,0.0715386065759775,0.975,1.05,1.81153483560056,0.000420984468017762,0.496087465741489,0.182453074797474,0.525,0.998043732870745,0.0896313882546741,0.709836985748058,0.575,rcp45,0.975,SSP2_v9_130325,0.00219503447755007,1.04038728353745,0.0857030241394694,0.0642969758605306,0.210368611745326,rcp45,SSP2_RCP45,/exports/csce/eddie/geos/groups/LURG/models/PLUM/output/russia/priceupdated/bau/s6
russia/bau,s7,0.859399119035433,0.082360876579534,1.075,0.85,1.54097808551165,0.000330074944691236,0.514060088096457,0.204875861938752,0.625,1.00703004404823,0.136240265115036,0.664744194066573,0.475,rcp45,1.075,SSP2_v9_130325,0.00129812299189897,0.857030241394694,0.104038728353746,0.0459612716462545,0.163759734884964,rcp45,SSP2_RCP45,/exports/csce/eddie/geos/groups/LURG/models/PLUM/output/russia/priceupdated/bau/s7
russia/bau,s8,0.891349695386158,0.076381506251151,1.0375,0.875,1.31961312890323,0.000443620561897813,0.489134969538616,0.176661722848244,0.6375,1.00543251523069,0.105129485081332,0.715077057286871,0.4375,rcp45,0.9375,SSP2_v9_130325,0.00106646891392977,1.11120900723889,0.118757309383554,0.0438185479653109,0.184153456766914,rcp45,SSP2_RCP45,/exports/csce/eddie/geos/groups/LURG/models/PLUM/output/russia/priceupdated/bau/s8
russia/bau,s9,1.05998514780556,0.0865462617560878,0.9375,1.075,1.62915219840989,0.000340154846633053,0.505998514780556,0.202407670580124,0.5375,0.997000742609722,0.0529439412839585,0.672723909349634,0.5375,rcp45,1.0375,SSP2_v9_130325,0.00209630682320497,0.938185479653109,0.0980036189403268,0.0611209007238887,0.228345786636399,rcp45,SSP2_RCP45,/exports/csce/eddie/geos/groups/LURG/models/PLUM/output/russia/priceupdated/bau/s9
russia/bau,s10,1.18678231924779,0.0687845251561292,1.0875,0.975,1.76365654390219,0.000380518231928115,0.498067840937043,0.213551030095415,0.6875,0.99066088403761,0.128345786636399,0.695141300265018,0.4875,rcp45,1.0875,SSP2_v9_130325,0.00254204120381658,1.01996381059673,0.0888790992761113,0.0312426906164464,0.152943941283959,rcp45,SSP2_RCP45,/exports/csce/eddie/geos/groups/LURG/models/PLUM/output/russia/priceupdated/bau/s10
russia/bau,s11,0.980678409370429,0.0811660879363957,0.9875,1.175,1.50953765627878,0.00029493779287125,0.518678231924779,0.192523353921245,0.5875,1.00096607953148,0.0841534567669142,0.746731145182795,0.5875,rcp45,0.9875,SSP2_v9_130325,0.00170093415684978,0.812426906164464,0.106181452034689,0.0519963810596732,0.205129485081332,rcp45,SSP2_RCP45,/exports/csce/eddie/geos/groups/LURG/models/PLUM/output/russia/priceupdated/bau/s11
russia/bau,s12,0.940014852194445,0.0734537382439122,1.0125,1.125,1.43634345609781,0.000319481768071885,0.481321768075221,0.223338277151756,0.6625,0.999033920468521,0.115846543233086,0.727276090650366,0.5125,rcp45,1.0125,SSP2_v9_130325,0.00190369317679503,0.888790992761113,0.0812426906164465,0.0687573093835536,0.215846543233086,rcp45,SSP2_RCP45,/exports/csce/eddie/geos/groups/LURG/models/PLUM/output/russia/priceupdated/bau/s12
russia/bau,s13,1.10865030461384,0.083618493748849,0.9125,0.925,1.69046234372122,0.00040506220712875,0.501932159062957,0.197592329419876,0.5625,1.00933911596239,0.071654213363601,0.684922942713129,0.4125,rcp45,0.9125,SSP2_v9_130325,0.00293353108607023,1.06181452034689,0.101996381059673,0.0480036189403268,0.171654213363601,rcp45,SSP2_RCP45,/exports/csce/eddie/geos/groups/LURG/models/PLUM/output/russia/priceupdated/bau/s13
russia/bau,s14,1.01932159062957,0.0788339120636043,1.0625,1.025,1.88038687109677,0.000256379438102187,0.494001485219444,0.186448969904585,0.6125,1.00299925739028,0.147056058716042,0.653268854817205,0.5625,rcp45,0.9625,SSP2_v9_130325,0.00229906584315022,0.980036189403268,0.111120900723889,0.0561814520346891,0.247056058716041,rcp45,SSP2_RCP45,/exports/csce/eddie/geos/groups/LURG/models/PLUM/output/russia/priceupdated/bau/s14
russia/bau,s15,0.813217680752207,0.0912154748438708,0.9625,0.825,1.57084780159011,0.000359845153366947,0.510865030461384,0.207476646078755,0.5125,0.994567484769308,0.094870514918668,0.704858699734982,0.4625,rcp45,1.0625,SSP2_v9_130325,0.00145795879618342,1.18757309383554,0.0938185479653109,0.0388790992761113,0.194870514918668,rcp45,SSP2_RCP45,/exports/csce/eddie/geos/groups/LURG/models/PLUM/output/russia/priceupdated/bau/s15
russia/bau,s16,0.839157403113636,0.0794186921839679,0.98125,0.9375,1.6145326954008,0.00041252835357623,0.509515571613484,0.196369873731948,0.58125,1.0061793291567,0.132072887785893,0.668990035546058,0.55625,rcp45,0.91875,SSP2_v9_130325,0.00175382729148782,0.990045925165523,0.0949064828775545,0.0723798744865125,0.19227200509598,rcp45,SSP2_RCP45,/exports/csce/eddie/geos/groups/LURG/models/PLUM/output/russia/priceupdated/bau/s16
russia/bau,s17,1.02913073941635,0.093528369502185,1.08125,1.1375,1.26179076244538,0.000324863169137939,0.492895180973533,0.220082752879293,0.68125,0.997530971969499,0.0869317887532772,0.712413732868581,0.45625,rcp45,1.01875,SSP2_v9_130325,0.00261672392228786,1.22379874486513,0.112613568239489,0.0490045925165523,0.241076285221202,rcp45,SSP2_RCP45,/exports/csce/eddie/geos/groups/LURG/models/PLUM/output/russia/priceupdated/bau/s17
russia/bau,s18,1.12358658313402,0.0742644852679213,0.93125,0.8375,1.49287640216452,0.000364839979777746,0.500963163414456,0.206154317712805,0.53125,0.991957870155682,0.10772799490402,0.740295119077426,0.50625,rcp45,1.06875,SSP2_v9_130325,0.00214520505072209,0.902382277972787,0.103008721937191,0.0573127551041616,0.167927112214107,rcp45,SSP2_RCP45,/exports/csce/eddie/geos/groups/LURG/models/PLUM/output/russia/priceupdated/bau/s18
russia/bau,s19,0.95061943938999,0.0842849439134194,1.03125,1.0375,1.74338786830197,0.000269032423555697,0.477415569253235,0.184581901942803,0.63125,1.00145653697082,0.0589237147787978,0.692675152249939,0.40625,rcp45,0.96875,SSP2_v9_130325,0.00119668988482828,1.07312755104162,0.0837269088768403,0.0402382277972787,0.213068211246723,rcp45,SSP2_RCP45,/exports/csce/eddie/geos/groups/LURG/models/PLUM/output/russia/priceupdated/bau/s19
russia/bau,s20,0.990368365855445,0.0703291714214178,0.95625,1.0875,1.67448239721149,0.000345091629737709,0.516084259688636,0.201200175357153,0.50625,0.999518418292772,0.155537767290142,0.682146067027419,0.48125,rcp45,1.04375,SSP2_v9_130325,0.00152538354130531,1.03008721937191,0.107312755104162,0.0449064828775545,0.202558098041055,rcp45,SSP2_RCP45,/exports/csce/eddie/geos/groups/LURG/models/PLUM/output/russia/priceupdated/bau/s20
russia/bau,s21,1.22584430746765,0.0817579634600147,1.05625,0.8875,1.41394021327635,0.000462325824635189,0.497086926058365,0.171744497345687,0.60625,1.01129221537338,0.0974419019589453,0.723897978050328,0.58125,rcp45,0.94375,SSP2_v9_130325,0.00235426246099376,0.837269088768403,0.0902382277972787,0.0626135682394891,0.144462232709858,rcp45,SSP2_RCP45,/exports/csce/eddie/geos/groups/LURG/models/PLUM/output/russia/priceupdated/bau/s21
russia/bau,s22,1.07104819026467,0.0770207041115405,0.90625,1.1875,1.55605091349963,0.000301713532283589,0.504938056061001,0.191143438475156,0.55625,1.00355240951323,0.118727626910159,0.702422115900133,0.43125,rcp45,0.99375,SSP2_v9_130325,0.00313022010617252,1.12613568239489,0.0990045925165523,0.0337269088768403,0.224929363713576,rcp45,SSP2_RCP45,/exports/csce/eddie/geos/groups/LURG/models/PLUM/output/russia/priceupdated/bau/s22
russia/bau,s23,0.904844283865163,0.0874423914689462,1.00625,0.9875,1.84177071446455,0.00038612184743905,0.487641341686598,0.211865411467367,0.65625,0.995242214193258,0.075070636286424,0.643631793740896,0.53125,rcp45,1.09375,SSP2_v9_130325,0.00195199298571387,0.949064828775545,0.122379874486512,0.0530087219371906,0.181272373089841,rcp45,SSP2_RCP45,/exports/csce/eddie/geos/groups/LURG/models/PLUM/output/russia/priceupdated/bau/s23
russia/bau,s24,0.87641341686598,0.0725576085310538,1.06875,0.9625,1.64394908650037,0.00028747164642377,0.522584430746765,0.198799824642847,0.66875,0.988707784626618,0.0812723730898414,0.707324847750061,0.59375,rcp45,0.93125,SSP2_v9_130325,0.00164573753900624,1.05093517122445,0.105093517122445,0.0550935171224455,0.175070636286424,rcp45,SSP2_RCP45,/exports/csce/eddie/geos/groups/LURG/models/PLUM/output/russia/priceupdated/bau/s24
russia/bau,s25,1.04938056061001,0.0829792958884595,0.96875,1.1625,1.35822928553545,0.000375136830862061,0.499036836585544,0.228255502654313,0.56875,1.00048158170723,0.124929363713576,0.659704880922574,0.49375,rcp45,1.03125,SSP2_v9_130325,0.00247461645869469,0.873864317605109,0.0873864317605109,0.0373864317605109,0.218727626910159,rcp45,SSP2_RCP45,/exports/csce/eddie/geos/groups/LURG/models/PLUM/output/russia/priceupdated/bau/s25
russia/bau,s26,1.16084259688636,0.0782420365399853,1.01875,0.8625,1.52551760278851,0.000335160020222254,0.507104819026467,0.208856561524844,0.61875,1.00475778580674,0.0444622327098577,0.687586267131419,0.54375,rcp45,1.08125,SSP2_v9_130325,0.00204800701428613,1.1627309112316,0.0969912780628094,0.0662730911231597,0.197441901958945,rcp45,SSP2_RCP45,/exports/csce/eddie/geos/groups/LURG/models/PLUM/output/russia/priceupdated/bau/s26
russia/bau,s27,0.970869260583654,0.0896708285785822,0.91875,1.0625,1.78605978672366,0.000430967576444303,0.490484428386516,0.188134588532633,0.51875,0.996447590486767,0.102558098041055,0.731009964453943,0.44375,rcp45,0.98125,SSP2_v9_130325,0.000869779893827476,0.969912780628094,0.11627309112316,0.0469912780628094,0.255537767290142,rcp45,SSP2_RCP45,/exports/csce/eddie/geos/groups/LURG/models/PLUM/output/russia/priceupdated/bau/s27
russia/bau,s28,0.928951809735333,0.0757150560865806,1.09375,1.0125,1.70712359783548,0.00035490837026229,0.512358658313402,0.203630126268052,0.64375,1.0024690280305,0.0922720050959796,0.756368206259104,0.46875,rcp45,1.00625,SSP2_v9_130325,0.00138327607771214,0.926872448958384,0.0926872448958384,0.0276201255134875,0.232072887785893,rcp45,SSP2_RCP45,/exports/csce/eddie/geos/groups/LURG/models/PLUM/output/russia/priceupdated/bau/s28
russia/bau,s29,1.09515571613484,0.0857355147320787,0.99375,0.8125,1.45661213169803,0.000237674175364811,0.495061943938999,0.179917247120707,0.54375,0.993820670843299,0.141076285221202,0.697577884099866,0.56875,rcp45,0.90625,SSP2_v9_130325,0.00224617270851218,1.09761772202721,0.109761772202721,0.0509954074834478,0.186931788753277,rcp45,SSP2_RCP45,/exports/csce/eddie/geos/groups/LURG/models/PLUM/output/russia/priceupdated/bau/s29
russia/bau,s30,1.00963163414456,0.066471630497815,1.04375,1.1125,1.5854673045992,0.000398286467716412,0.502913073941635,0.193845682287195,0.69375,0.998543463029183,0.0679271122141072,0.676102021949672,0.41875,rcp45,0.95625,SSP2_v9_130325,0.00280331011517172,0.776201255134875,0.100995407483448,0.0426872448958384,0.20772799490402,rcp45,SSP2_RCP45,/exports/csce/eddie/geos/groups/LURG/models/PLUM/output/russia/priceupdated/bau/s30
russia/conflict,s1,1,0.08,1,1,4.8,0.00035,0.5,0.2,0.6,1,0.1,1.05,0.5,rcp45,1,SSP2_v9_130325,0.002,1,0.15,0.075,0.2,rcp45,SSP2_RCP45,/exports/csce/eddie/geos/groups/LURG/models/PLUM/output/russia/priceupdated/conflict/s1
russia/conflict,s2,1.08270938702243,0.0750130724123867,0.95,0.9,5.174019569071,0.000307985221616426,0.491729061297757,0.210311637702584,0.55,1.00413546935112,0.0782581447790401,1.08116829742258,0.45,rcp45,1.05,SSP2_v9_130325,0.00241246550810337,0.914995664951457,0.162750650257281,0.0622493497427185,0.17825814477904,rcp45,SSP2_RCP45,/exports/csce/eddie/geos/groups/LURG/models/PLUM/output/russia/priceupdated/conflict/s2
russia/conflict,s3,0.91729061297757,0.0849869275876133,1.05,1.1,4.425980430929,0.000392014778383574,0.508270938702243,0.189688362297416,0.65,0.995864530648878,0.12174185522096,1.01883170257742,0.55,rcp45,0.95,SSP2_v9_130325,0.00158753449189663,1.08500433504854,0.137249349742719,0.0877506502572814,0.22174185522096,rcp45,SSP2_RCP45,/exports/csce/eddie/geos/groups/LURG/models/PLUM/output/russia/priceupdated/conflict/s3
russia/conflict,s4,0.960874657414893,0.077639123420466,0.925,1.15,4.16539549319831,0.000369925055308764,0.485939911903543,0.217546925202526,0.575,1.00195626712926,0.0637597348849639,1.03524452137791,0.525,rcp45,1.025,SSP2_v9_130325,0.00180496552244993,1.14296975860531,0.171445463790796,0.0810580925306183,0.236240265115036,rcp45,SSP2_RCP45,/exports/csce/eddie/geos/groups/LURG/models/PLUM/output/russia/priceupdated/conflict/s4
russia/conflict,s5,1.14060088096457,0.0884613934240225,1.025,0.95,4.97706574346505,0.000279015531982238,0.503912534258511,0.195124138061248,0.675,0.992969955951772,0.110368611745326,1.10288370890014,0.425,rcp45,0.925,SSP2_v9_130325,0.00270187700810103,0.959612716462545,0.143941907469382,0.0535545362092041,0.189631388254674,rcp45,SSP2_RCP45,/exports/csce/eddie/geos/groups/LURG/models/PLUM/output/russia/priceupdated/conflict/s5
russia/conflict,s6,1.03912534258511,0.0715386065759775,0.975,1.05,5.43460450680169,0.000420984468017762,0.496087465741489,0.182453074797474,0.525,0.998043732870745,0.0896313882546741,1.06475547862209,0.575,rcp45,0.975,SSP2_v9_130325,0.00219503447755007,1.04038728353745,0.128554536209204,0.0964454637907959,0.210368611745326,rcp45,SSP2_RCP45,/exports/csce/eddie/geos/groups/LURG/models/PLUM/output/russia/priceupdated/conflict/s6
russia/conflict,s7,0.859399119035433,0.082360876579534,1.075,0.85,4.62293425653495,0.000330074944691236,0.514060088096457,0.204875861938752,0.625,1.00703004404823,0.136240265115036,0.997116291099859,0.475,rcp45,1.075,SSP2_v9_130325,0.00129812299189897,0.857030241394694,0.156058092530618,0.0689419074693817,0.163759734884964,rcp45,SSP2_RCP45,/exports/csce/eddie/geos/groups/LURG/models/PLUM/output/russia/priceupdated/conflict/s7
russia/conflict,s8,0.891349695386158,0.076381506251151,1.0375,0.875,3.95883938670969,0.000443620561897813,0.489134969538616,0.176661722848244,0.6375,1.00543251523069,0.105129485081332,1.07261558593031,0.4375,rcp45,0.9375,SSP2_v9_130325,0.00106646891392977,1.11120900723889,0.17813596407533,0.0657278219479663,0.184153456766914,rcp45,SSP2_RCP45,/exports/csce/eddie/geos/groups/LURG/models/PLUM/output/russia/priceupdated/conflict/s8
russia/conflict,s9,1.05998514780556,0.0865462617560878,0.9375,1.075,4.88745659522968,0.000340154846633053,0.505998514780556,0.202407670580124,0.5375,0.997000742609722,0.0529439412839585,1.00908586402445,0.5375,rcp45,1.0375,SSP2_v9_130325,0.00209630682320497,0.938185479653109,0.14700542841049,0.0916813510858331,0.228345786636399,rcp45,SSP2_RCP45,/exports/csce/eddie/geos/groups/LURG/models/PLUM/output/russia/priceupdated/conflict/s9
russia/conflict,s10,1.18678231924779,0.0687845251561292,1.0875,0.975,5.29096963170658,0.000380518231928115,0.498067840937043,0.213551030095415,0.6875,0.99066088403761,0.128345786636399,1.04271195039753,0.4875,rcp45,1.0875,SSP2_v9_130325,0.00254204120381658,1.01996381059673,0.133318648914167,0.0468640359246697,0.152943941283959,rcp45,SSP2_RCP45,/exports/csce/eddie/geos/groups/LURG/models/PLUM/output/russia/priceupdated/conflict/s10
russia/conflict,s11,0.980678409370429,0.0811660879363957,0.9875,1.175,4.52861296883632,0.00029493779287125,0.518678231924779,0.192523353921245,0.5875,1.00096607953148,0.0841534567669142,1.12009671777419,0.5875,rcp45,0.9875,SSP2_v9_130325,0.00170093415684978,0.812426906164464,0.159272178052034,0.0779945715895097,0.205129485081332,rcp45,SSP2_RCP45,/exports/csce/eddie/geos/groups/LURG/models/PLUM/output/russia/priceupdated/conflict/s11
russia/conflict,s12,0.940014852194445,0.0734537382439122,1.0125,1.125,4.30903036829342,0.000319481768071885,0.481321768075221,0.223338277151756,0.6625,0.999033920468521,0.115846543233086,1.09091413597555,0.5125,rcp45,1.0125,SSP2_v9_130325,0.00190369317679503,0.888790992761113,0.12186403592467,0.10313596407533,0.215846543233086,rcp45,SSP2_RCP45,/exports/csce/eddie/geos/groups/LURG/models/PLUM/output/russia/priceupdated/conflict/s12
russia/conflict,s13,1.10865030461384,0.083618493748849,0.9125,0.925,5.07138703116367,0.00040506220712875,0.501932159062957,0.197592329419876,0.5625,1.00933911596239,0.071654213363601,1.02738441406969,0.4125,rcp45,0.9125,SSP2_v9_130325,0.00293353108607023,1.06181452034689,0.15299457158951,0.0720054284104902,0.171654213363601,rcp45,SSP2_RCP45,/exports/csce/eddie/geos/groups/LURG/models/PLUM/output/russia/priceupdated/conflict/s13
russia/conflict,s14,1.01932159062957,0.0788339120636043,1.0625,1.025,5.64116061329031,0.000256379438102187,0.494001485219444,0.186448969904585,0.6125,1.00299925739028,0.147056058716042,0.979903282225807,0.5625,rcp45,0.9625,SSP2_v9_130325,0.00229906584315022,0.980036189403268,0.166681351085833,0.0842721780520337,0.247056058716041,rcp45,SSP2_RCP45,/exports/csce/eddie/geos/groups/LURG/models/PLUM/output/russia/priceupdated/conflict/s14
russia/conflict,s15,0.813217680752207,0.0912154748438708,0.9625,0.825,4.71254340477032,0.000359845153366947,0.510865030461384,0.207476646078755,0.5125,0.994567484769308,0.094870514918668,1.05728804960247,0.4625,rcp45,1.0625,SSP2_v9_130325,0.00145795879618342,1.18757309383554,0.140727821947966,0.0583186489141669,0.194870514918668,rcp45,SSP2_RCP45,/exports/csce/eddie/geos/groups/LURG/models/PLUM/output/russia/priceupdated/conflict/s15
russia/conflict,s16,0.839157403113636,0.0794186921839679,0.98125,0.9375,4.8435980862024,0.00041252835357623,0.509515571613484,0.196369873731948,0.58125,1.0061793291567,0.132072887785893,1.00348505331909,0.55625,rcp45,0.91875,SSP2_v9_130325,0.00175382729148782,0.990045925165523,0.142359724316332,0.108569811729769,0.19227200509598,rcp45,SSP2_RCP45,/exports/csce/eddie/geos/groups/LURG/models/PLUM/output/russia/priceupdated/conflict/s16
russia/conflict,s17,1.02913073941635,0.093528369502185,1.08125,1.1375,3.78537228733613,0.000324863169137939,0.492895180973533,0.220082752879293,0.68125,0.997530971969499,0.0869317887532772,1.06862059930287,0.45625,rcp45,1.01875,SSP2_v9_130325,0.00261672392228786,1.22379874486513,0.168920352359234,0.0735068887748284,0.241076285221202,rcp45,SSP2_RCP45,/exports/csce/eddie/geos/groups/LURG/models/PLUM/output/russia/priceupdated/conflict/s17
russia/conflict,s18,1.12358658313402,0.0742644852679213,0.93125,0.8375,4.47862920649355,0.000364839979777746,0.500963163414456,0.206154317712805,0.53125,0.991957870155682,0.10772799490402,1.11044267861614,0.50625,rcp45,1.06875,SSP2_v9_130325,0.00214520505072209,0.902382277972787,0.154513082905786,0.0859691326562425,0.167927112214107,rcp45,SSP2_RCP45,/exports/csce/eddie/geos/groups/LURG/models/PLUM/output/russia/priceupdated/conflict/s18
russia/conflict,s19,0.95061943938999,0.0842849439134194,1.03125,1.0375,5.23016360490591,0.000269032423555697,0.477415569253235,0.184581901942803,0.63125,1.00145653697082,0.0589237147787978,1.03901272837491,0.40625,rcp45,0.96875,SSP2_v9_130325,0.00119668988482828,1.07312755104162,0.12559036331526,0.060357341695918,0.213068211246723,rcp45,SSP2_RCP45,/exports/csce/eddie/geos/groups/LURG/models/PLUM/output/russia/priceupdated/conflict/s19
russia/conflict,s20,0.990368365855445,0.0703291714214178,0.95625,1.0875,5.02344719163446,0.000345091629737709,0.516084259688636,0.201200175357153,0.50625,0.999518418292772,0.155537767290142,1.02321910054113,0.48125,rcp45,1.04375,SSP2_v9_130325,0.00152538354130531,1.03008721937191,0.160969132656242,0.0673597243163318,0.202558098041055,rcp45,SSP2_RCP45,/exports/csce/eddie/geos/groups/LURG/models/PLUM/output/russia/priceupdated/conflict/s20
russia/conflict,s21,1.22584430746765,0.0817579634600147,1.05625,0.8875,4.24182063982903,0.000462325824635189,0.497086926058365,0.171744497345687,0.60625,1.01129221537338,0.0974419019589453,1.08584696707549,0.58125,rcp45,0.94375,SSP2_v9_130325,0.00235426246099376,0.837269088768403,0.135357341695918,0.0939203523592337,0.144462232709858,rcp45,SSP2_RCP45,/exports/csce/eddie/geos/groups/LURG/models/PLUM/output/russia/priceupdated/conflict/s21
russia/conflict,s22,1.07104819026467,0.0770207041115405,0.90625,1.1875,4.66815274049889,0.000301713532283589,0.504938056061001,0.191143438475156,0.55625,1.00355240951323,0.118727626910159,1.0536331738502,0.43125,rcp45,0.99375,SSP2_v9_130325,0.00313022010617252,1.12613568239489,0.148506888774828,0.0505903633152605,0.224929363713576,rcp45,SSP2_RCP45,/exports/csce/eddie/geos/groups/LURG/models/PLUM/output/russia/priceupdated/conflict/s22
russia/conflict,s23,0.904844283865163,0.0874423914689462,1.00625,0.9875,5.52531214339366,0.00038612184743905,0.487641341686598,0.211865411467367,0.65625,0.995242214193258,0.075070636286424,0.965447690611344,0.53125,rcp45,1.09375,SSP2_v9_130325,0.00195199298571387,0.949064828775545,0.183569811729769,0.0795130829057859,0.181272373089841,rcp45,SSP2_RCP45,/exports/csce/eddie/geos/groups/LURG/models/PLUM/output/russia/priceupdated/conflict/s23
russia/conflict,s24,0.87641341686598,0.0725576085310538,1.06875,0.9625,4.9318472595011,0.00028747164642377,0.522584430746765,0.198799824642847,0.66875,0.988707784626618,0.0812723730898414,1.06098727162509,0.59375,rcp45,0.93125,SSP2_v9_130325,0.00164573753900624,1.05093517122445,0.157640275683668,0.0826402756836682,0.175070636286424,rcp45,SSP2_RCP45,/exports/csce/eddie/geos/groups/LURG/models/PLUM/output/russia/priceupdated/conflict/s24
russia/conflict,s25,1.04938056061001,0.0829792958884595,0.96875,1.1625,4.07468785660634,0.000375136830862061,0.499036836585544,0.228255502654313,0.56875,1.00048158170723,0.124929363713576,0.989557321383861,0.49375,rcp45,1.03125,SSP2_v9_130325,0.00247461645869469,0.873864317605109,0.131079647640766,0.0560796476407663,0.218727626910159,rcp45,SSP2_RCP45,/exports/csce/eddie/geos/groups/LURG/models/PLUM/output/russia/priceupdated/conflict/s25
russia/conflict,s26,1.16084259688636,0.0782420365399853,1.01875,0.8625,4.57655280836554,0.000335160020222254,0.507104819026467,0.208856561524844,0.61875,1.00475778580674,0.0444622327098577,1.03137940069713,0.54375,rcp45,1.08125,SSP2_v9_130325,0.00204800701428613,1.1627309112316,0.145486917094214,0.0994096366847395,0.197441901958945,rcp45,SSP2_RCP45,/exports/csce/eddie/geos/groups/LURG/models/PLUM/output/russia/priceupdated/conflict/s26
russia/conflict,s27,0.970869260583654,0.0896708285785822,0.91875,1.0625,5.35817936017097,0.000430967576444303,0.490484428386516,0.188134588532633,0.51875,0.996447590486767,0.102558098041055,1.09651494668091,0.44375,rcp45,0.98125,SSP2_v9_130325,0.000869779893827476,0.969912780628094,0.17440963668474,0.0704869170942141,0.255537767290142,rcp45,SSP2_RCP45,/exports/csce/eddie/geos/groups/LURG/models/PLUM/output/russia/priceupdated/conflict/s27
russia/conflict,s28,0.928951809735333,0.0757150560865806,1.09375,1.0125,5.12137079350645,0.00035490837026229,0.512358658313402,0.203630126268052,0.64375,1.0024690280305,0.0922720050959796,1.13455230938866,0.46875,rcp45,1.00625,SSP2_v9_130325,0.00138327607771214,0.926872448958384,0.139030867343758,0.0414301882702312,0.232072887785893,rcp45,SSP2_RCP45,/exports/csce/eddie/geos/groups/LURG/models/PLUM/output/russia/priceupdated/conflict/s28
russia/conflict,s29,1.09515571613484,0.0857355147320787,0.99375,0.8125,4.36983639509409,0.000237674175364811,0.495061943938999,0.179917247120707,0.54375,0.993820670843299,0.141076285221202,1.0463668261498,0.56875,rcp45,0.90625,SSP2_v9_130325,0.00224617270851218,1.09761772202721,0.164642658304082,0.0764931112251716,0.186931788753277,rcp45,SSP2_RCP45,/exports/csce/eddie/geos/groups/LURG/models/PLUM/output/russia/priceupdated/conflict/s29
russia/conflict,s30,1.00963163414456,0.066471630497815,1.04375,1.1125,4.7564019137976,0.000398286467716412,0.502913073941635,0.193845682287195,0.69375,0.998543463029183,0.0679271122141072,1.01415303292451,0.41875,rcp45,0.95625,SSP2_v9_130325,0.00280331011517172,0.776201255134875,0.151493111225172,0.0640308673437575,0.20772799490402,rcp45,SSP2_RCP45,/exports/csce/eddie/geos/groups/LURG/models/PLUM/output/russia/priceupdated/conflict/s30
russia/justrestrictions,s1,1,0.08,1,1,1.6,0.00035,0.5,0.2,0.6,1,0.1,0.7,0.5,rcp45,1,SSP2_v9_130325,0.002,1,0.1,0.05,0.2,rcp45,SSP2_RCP45,/exports/csce/eddie/geos/groups/LURG/models/PLUM/output/russia/priceupdated/justrestrictions/s1
russia/justrestrictions,s2,1.08270938702243,0.0750130724123867,0.95,0.9,1.72467318969033,0.000307985221616426,0.491729061297757,0.210311637702584,0.55,1.00413546935112,0.0782581447790401,0.720778864948389,0.45,rcp45,1.05,SSP2_v9_130325,0.00241246550810337,0.914995664951457,0.108500433504854,0.0414995664951457,0.17825814477904,rcp45,SSP2_RCP45,/exports/csce/eddie/geos/groups/LURG/models/PLUM/output/russia/priceupdated/justrestrictions/s2
russia/justrestrictions,s3,0.91729061297757,0.0849869275876133,1.05,1.1,1.47532681030967,0.000392014778383574,0.508270938702243,0.189688362297416,0.65,0.995864530648878,0.12174185522096,0.679221135051611,0.55,rcp45,0.95,SSP2_v9_130325,0.00158753449189663,1.08500433504854,0.0914995664951457,0.0585004335048543,0.22174185522096,rcp45,SSP2_RCP45,/exports/csce/eddie/geos/groups/LURG/models/PLUM/output/russia/priceupdated/justrestrictions/s3
russia/justrestrictions,s4,0.960874657414893,0.077639123420466,0.925,1.15,1.38846516439944,0.000369925055308764,0.485939911903543,0.217546925202526,0.575,1.00195626712926,0.0637597348849639,0.690163014251942,0.525,rcp45,1.025,SSP2_v9_130325,0.00180496552244993,1.14296975860531,0.114296975860531,0.0540387283537455,0.236240265115036,rcp45,SSP2_RCP45,/exports/csce/eddie/geos/groups/LURG/models/PLUM/output/russia/priceupdated/justrestrictions/s4
russia/justrestrictions,s5,1.14060088096457,0.0884613934240225,1.025,0.95,1.65902191448835,0.000279015531982238,0.503912534258511,0.195124138061248,0.675,0.992969955951772,0.110368611745326,0.735255805933427,0.425,rcp45,0.925,SSP2_v9_130325,0.00270187700810103,0.959612716462545,0.0959612716462545,0.0357030241394694,0.189631388254674,rcp45,SSP2_RCP45,/exports/csce/eddie/geos/groups/LURG/models/PLUM/output/russia/priceupdated/justrestrictions/s5
russia/justrestrictions,s6,1.03912534258511,0.0715386065759775,0.975,1.05,1.81153483560056,0.000420984468017762,0.496087465741489,0.182453074797474,0.525,0.998043732870745,0.0896313882546741,0.709836985748058,0.575,rcp45,0.975,SSP2_v9_130325,0.00219503447755007,1.04038728353745,0.0857030241394694,0.0642969758605306,0.210368611745326,rcp45,SSP2_RCP45,/exports/csce/eddie/geos/groups/LURG/models/PLUM/output/russia/priceupdated/justrestrictions/s6
russia/justrestrictions,s7,0.859399119035433,0.082360876579534,1.075,0.85,1.54097808551165,0.000330074944691236,0.514060088096457,0.204875861938752,0.625,1.00703004404823,0.136240265115036,0.664744194066573,0.475,rcp45,1.075,SSP2_v9_130325,0.00129812299189897,0.857030241394694,0.104038728353746,0.0459612716462545,0.163759734884964,rcp45,SSP2_RCP45,/exports/csce/eddie/geos/groups/LURG/models/PLUM/output/russia/priceupdated/justrestrictions/s7
russia/justrestrictions,s8,0.891349695386158,0.076381506251151,1.0375,0.875,1.31961312890323,0.000443620561897813,0.489134969538616,0.176661722848244,0.6375,1.00543251523069,0.105129485081332,0.715077057286871,0.4375,rcp45,0.9375,SSP2_v9_130325,0.00106646891392977,1.11120900723889,0.118757309383554,0.0438185479653109,0.184153456766914,rcp45,SSP2_RCP45,/exports/csce/eddie/geos/groups/LURG/models/PLUM/output/russia/priceupdated/justrestrictions/s8
russia/justrestrictions,s9,1.05998514780556,0.0865462617560878,0.9375,1.075,1.62915219840989,0.000340154846633053,0.505998514780556,0.202407670580124,0.5375,0.997000742609722,0.0529439412839585,0.672723909349634,0.5375,rcp45,1.0375,SSP2_v9_130325,0.00209630682320497,0.938185479653109,0.0980036189403268,0.0611209007238887,0.228345786636399,rcp45,SSP2_RCP45,/exports/csce/eddie/geos/groups/LURG/models/PLUM/output/russia/priceupdated/justrestrictions/s9
russia/justrestrictions,s10,1.18678231924779,0.0687845251561292,1.0875,0.975,1.76365654390219,0.000380518231928115,0.498067840937043,0.213551030095415,0.6875,0.99066088403761,0.128345786636399,0.695141300265018,0.4875,rcp45,1.0875,SSP2_v9_130325,0.00254204120381658,1.01996381059673,0.0888790992761113,0.0312426906164464,0.152943941283959,rcp45,SSP2_RCP45,/exports/csce/eddie/geos/groups/LURG/models/PLUM/output/russia/priceupdated/justrestrictions/s10
russia/justrestrictions,s11,0.980678409370429,0.0811660879363957,0.9875,1.175,1.50953765627878,0.00029493779287125,0.518678231924779,0.192523353921245,0.5875,1.00096607953148,0.0841534567669142,0.746731145182795,0.5875,rcp45,0.9875,SSP2_v9_130325,0.00170093415684978,0.812426906164464,0.106181452034689,0.0519963810596732,0.205129485081332,rcp45,SSP2_RCP45,/exports/csce/eddie/geos/groups/LURG/models/PLUM/output/russia/priceupdated/justrestrictions/s11
russia/justrestrictions,s12,0.940014852194445,0.0734537382439122,1.0125,1.125,1.43634345609781,0.000319481768071885,0.481321768075221,0.223338277151756,0.6625,0.999033920468521,0.115846543233086,0.727276090650366,0.5125,rcp45,1.0125,SSP2_v9_130325,0.00190369317679503,0.888790992761113,0.0812426906164465,0.0687573093835536,0.215846543233086,rcp45,SSP2_RCP45,/exports/csce/eddie/geos/groups/LURG/models/PLUM/output/russia/priceupdated/justrestrictions/s12
russia/justrestrictions,s13,1.10865030461384,0.083618493748849,0.9125,0.925,1.69046234372122,0.00040506220712875,0.501932159062957,0.197592329419876,0.5625,1.00933911596239,0.071654213363601,0.684922942713129,0.4125,rcp45,0.9125,SSP2_v9_130325,0.00293353108607023,1.06181452034689,0.101996381059673,0.0480036189403268,0.171654213363601,rcp45,SSP2_RCP45,/exports/csce/eddie/geos/groups/LURG/models/PLUM/output/russia/priceupdated/justrestrictions/s13
russia/justrestrictions,s14,1.01932159062957,0.0788339120636043,1.0625,1.025,1.88038687109677,0.000256379438102187,0.494001485219444,0.186448969904585,0.6125,1.00299925739028,0.147056058716042,0.653268854817205,0.5625,rcp45,0.9625,SSP2_v9_130325,0.00229906584315022,0.980036189403268,0.111120900723889,0.0561814520346891,0.247056058716041,rcp45,SSP2_RCP45,/exports/csce/eddie/geos/groups/LURG/models/PLUM/output/russia/priceupdated/justrestrictions/s14
russia/justrestrictions,s15,0.813217680752207,0.0912154748438708,0.9625,0.825,1.57084780159011,0.000359845153366947,0.510865030461384,0.207476646078755,0.5125,0.994567484769308,0.094870514918668,0.704858699734982,0.4625,rcp45,1.0625,SSP2_v9_130325,0.00145795879618342,1.18757309383554,0.0938185479653109,0.0388790992761113,0.194870514918668,rcp45,SSP2_RCP45,/exports/csce/eddie/geos/groups/LURG/models/PLUM/output/russia/priceupdated/justrestrictions/s15
russia/justrestrictions,s16,0.839157403113636,0.0794186921839679,0.98125,0.9375,1.6145326954008,0.00041252835357623,0.509515571613484,0.196369873731948,0.58125,1.0061793291567,0.132072887785893,0.668990035546058,0.55625,rcp45,0.91875,SSP2_v9_130325,0.00175382729148782,0.990045925165523,0.0949064828775545,0.0723798744865125,0.19227200509598,rcp45,SSP2_RCP45,/exports/csce/eddie/geos/groups/LURG/models/PLUM/output/russia/priceupdated/justrestrictions/s16
russia/justrestrictions,s17,1.02913073941635,0.093528369502185,1.08125,1.1375,1.26179076244538,0.000324863169137939,0.492895180973533,0.220082752879293,0.68125,0.997530971969499,0.0869317887532772,0.712413732868581,0.45625,rcp45,1.01875,SSP2_v9_130325,0.00261672392228786,1.22379874486513,0.112613568239489,0.0490045925165523,0.241076285221202,rcp45,SSP2_RCP45,/exports/csce/eddie/geos/groups/LURG/models/PLUM/output/russia/priceupdated/justrestrictions/s17
russia/justrestrictions,s18,1.12358658313402,0.0742644852679213,0.93125,0.8375,1.49287640216452,0.000364839979777746,0.500963163414456,0.206154317712805,0.53125,0.991957870155682,0.10772799490402,0.740295119077426,0.50625,rcp45,1.06875,SSP2_v9_130325,0.00214520505072209,0.902382277972787,0.103008721937191,0.0573127551041616,0.167927112214107,rcp45,SSP2_RCP45,/exports/csce/eddie/geos/groups/LURG/models/PLUM/output/russia/priceupdated/justrestrictions/s18
russia/justrestrictions,s19,0.95061943938999,0.0842849439134194,1.03125,1.0375,1.74338786830197,0.000269032423555697,0.477415569253235,0.184581901942803,0.63125,1.00145653697082,0.0589237147787978,0.692675152249939,0.40625,rcp45,0.96875,SSP2_v9_130325,0.00119668988482828,1.07312755104162,0.0837269088768403,0.0402382277972787,0.213068211246723,rcp45,SSP2_RCP45,/exports/csce/eddie/geos/groups/LURG/models/PLUM/output/russia/priceupdated/justrestrictions/s19
russia/justrestrictions,s20,0.990368365855445,0.0703291714214178,0.95625,1.0875,1.67448239721149,0.000345091629737709,0.516084259688636,0.201200175357153,0.50625,0.999518418292772,0.155537767290142,0.682146067027419,0.48125,rcp45,1.04375,SSP2_v9_130325,0.00152538354130531,1.03008721937191,0.107312755104162,0.0449064828775545,0.202558098041055,rcp45,SSP2_RCP45,/exports/csce/eddie/geos/groups/LURG/models/PLUM/output/russia/priceupdated/justrestrictions/s20
russia/justrestrictions,s21,1.22584430746765,0.0817579634600147,1.05625,0.8875,1.41394021327635,0.000462325824635189,0.497086926058365,0.171744497345687,0.60625,1.01129221537338,0.0974419019589453,0.723897978050328,0.58125,rcp45,0.94375,SSP2_v9_130325,0.00235426246099376,0.837269088768403,0.0902382277972787,0.0626135682394891,0.144462232709858,rcp45,SSP2_RCP45,/exports/csce/eddie/geos/groups/LURG/models/PLUM/output/russia/priceupdated/justrestrictions/s21
russia/justrestrictions,s22,1.07104819026467,0.0770207041115405,0.90625,1.1875,1.55605091349963,0.000301713532283589,0.504938056061001,0.191143438475156,0.55625,1.00355240951323,0.118727626910159,0.702422115900133,0.43125,rcp45,0.99375,SSP2_v9_130325,0.00313022010617252,1.12613568239489,0.0990045925165523,0.0337269088768403,0.224929363713576,rcp45,SSP2_RCP45,/exports/csce/eddie/geos/groups/LURG/models/PLUM/output/russia/priceupdated/justrestrictions/s22
russia/justrestrictions,s23,0.904844283865163,0.0874423914689462,1.00625,0.9875,1.84177071446455,0.00038612184743905,0.487641341686598,0.211865411467367,0.65625,0.995242214193258,0.075070636286424,0.643631793740896,0.53125,rcp45,1.09375,SSP2_v9_130325,0.00195199298571387,0.949064828775545,0.122379874486512,0.0530087219371906,0.181272373089841,rcp45,SSP2_RCP45,/exports/csce/eddie/geos/groups/LURG/models/PLUM/output/russia/priceupdated/justrestrictions/s23
russia/justrestrictions,s24,0.87641341686598,0.0725576085310538,1.06875,0.9625,1.64394908650037,0.00028747164642377,0.522584430746765,0.198799824642847,0.66875,0.988707784626618,0.0812723730898414,0.707324847750061,0.59375,rcp45,0.93125,SSP2_v9_130325,0.00164573753900624,1.05093517122445,0.105093517122445,0.0550935171224455,0.175070636286424,rcp45,SSP2_RCP45,/exports/csce/eddie/geos/groups/LURG/models/PLUM/output/russia/priceupdated/justrestrictions/s24
russia/justrestrictions,s25,1.04938056061001,0.0829792958884595,0.96875,1.1625,1.35822928553545,0.000375136830862061,0.499036836585544,0.228255502654313,0.56875,1.00048158170723,0.124929363713576,0.659704880922574,0.49375,rcp45,1.03125,SSP2_v9_130325,0.00247461645869469,0.873864317605109,0.0873864317605109,0.0373864317605109,0.218727626910159,rcp45,SSP2_RCP45,/exports/csce/eddie/geos/groups/LURG/models/PLUM/output/russia/priceupdated/justrestrictions/s25
russia/justrestrictions,s26,1.16084259688636,0.0782420365399853,1.01875,0.8625,1.52551760278851,0.000335160020222254,0.507104819026467,0.208856561524844,0.61875,1.00475778580674,0.0444622327098577,0.687586267131419,0.54375,rcp45,1.08125,SSP2_v9_130325,0.00204800701428613,1.1627309112316,0.0969912780628094,0.0662730911231597,0.197441901958945,rcp45,SSP2_RCP45,/exports/csce/eddie/geos/groups/LURG/models/PLUM/output/russia/priceupdated/justrestrictions/s26
russia/justrestrictions,s27,0.970869260583654,0.0896708285785822,0.91875,1.0625,1.78605978672366,0.000430967576444303,0.490484428386516,0.188134588532633,0.51875,0.996447590486767,0.102558098041055,0.731009964453943,0.44375,rcp45,0.98125,SSP2_v9_130325,0.000869779893827476,0.969912780628094,0.11627309112316,0.0469912780628094,0.255537767290142,rcp45,SSP2_RCP45,/exports/csce/eddie/geos/groups/LURG/models/PLUM/output/russia/priceupdated/justrestrictions/s27
russia/justrestrictions,s28,0.928951809735333,0.0757150560865806,1.09375,1.0125,1.70712359783548,0.00035490837026229,0.512358658313402,0.203630126268052,0.64375,1.0024690280305,0.0922720050959796,0.756368206259104,0.46875,rcp45,1.00625,SSP2_v9_130325,0.00138327607771214,0.926872448958384,0.0926872448958384,0.0276201255134875,0.232072887785893,rcp45,SSP2_RCP45,/exports/csce/eddie/geos/groups/LURG/models/PLUM/output/russia/priceupdated/justrestrictions/s28
russia/justrestrictions,s29,1.09515571613484,0.0857355147320787,0.99375,0.8125,1.45661213169803,0.000237674175364811,0.495061943938999,0.179917247120707,0.54375,0.993820670843299,0.141076285221202,0.697577884099866,0.56875,rcp45,0.90625,SSP2_v9_130325,0.00224617270851218,1.09761772202721,0.109761772202721,0.0509954074834478,0.186931788753277,rcp45,SSP2_RCP45,/exports/csce/eddie/geos/groups/LURG/models/PLUM/output/russia/priceupdated/justrestrictions/s29
russia/justrestrictions,s30,1.00963163414456,0.066471630497815,1.04375,1.1125,1.5854673045992,0.000398286467716412,0.502913073941635,0.193845682287195,0.69375,0.998543463029183,0.0679271122141072,0.676102021949672,0.41875,rcp45,0.95625,SSP2_v9_130325,0.00280331011517172,0.776201255134875,0.100995407483448,0.0426872448958384,0.20772799490402,rcp45,SSP2_RCP45,/exports/csce/eddie/geos/groups/LURG/models/PLUM/output/russia/priceupdated/justrestrictions/s30
russia/withoutrestrictions,s1,1,0.08,1,1,4.8,0.00035,0.5,0.2,0.6,1,0.1,1.05,0.5,rcp45,1,SSP2_v9_130325,0.002,1,0.15,0.075,0.2,rcp45,SSP2_RCP45,/exports/csce/eddie/geos/groups/LURG/models/PLUM/output/russia/priceupdated/withoutrestrictions/s1
russia/withoutrestrictions,s2,1.08270938702243,0.0750130724123867,0.95,0.9,5.174019569071,0.000307985221616426,0.491729061297757,0.210311637702584,0.55,1.00413546935112,0.0782581447790401,1.08116829742258,0.45,rcp45,1.05,SSP2_v9_130325,0.00241246550810337,0.914995664951457,0.162750650257281,0.0622493497427185,0.17825814477904,rcp45,SSP2_RCP45,/exports/csce/eddie/geos/groups/LURG/models/PLUM/output/russia/priceupdated/withoutrestrictions/s2
russia/withoutrestrictions,s3,0.91729061297757,0.0849869275876133,1.05,1.1,4.425980430929,0.000392014778383574,0.508270938702243,0.189688362297416,0.65,0.995864530648878,0.12174185522096,1.01883170257742,0.55,rcp45,0.95,SSP2_v9_130325,0.00158753449189663,1.08500433504854,0.137249349742719,0.0877506502572814,0.22174185522096,rcp45,SSP2_RCP45,/exports/csce/eddie/geos/groups/LURG/models/PLUM/output/russia/priceupdated/withoutrestrictions/s3
russia/withoutrestrictions,s4,0.960874657414893,0.077639123420466,0.925,1.15,4.16539549319831,0.000369925055308764,0.485939911903543,0.217546925202526,0.575,1.00195626712926,0.0637597348849639,1.03524452137791,0.525,rcp45,1.025,SSP2_v9_130325,0.00180496552244993,1.14296975860531,0.171445463790796,0.0810580925306183,0.236240265115036,rcp45,SSP2_RCP45,/exports/csce/eddie/geos/groups/LURG/models/PLUM/output/russia/priceupdated/withoutrestrictions/s4
russia/withoutrestrictions,s5,1.14060088096457,0.0884613934240225,1.025,0.95,4.97706574346505,0.000279015531982238,0.503912534258511,0.195124138061248,0.675,0.992969955951772,0.110368611745326,1.10288370890014,0.425,rcp45,0.925,SSP2_v9_130325,0.00270187700810103,0.959612716462545,0.143941907469382,0.0535545362092041,0.189631388254674,rcp45,SSP2_RCP45,/exports/csce/eddie/geos/groups/LURG/models/PLUM/output/russia/priceupdated/withoutrestrictions/s5
russia/withoutrestrictions,s6,1.03912534258511,0.0715386065759775,0.975,1.05,5.43460450680169,0.000420984468017762,0.496087465741489,0.182453074797474,0.525,0.998043732870745,0.0896313882546741,1.06475547862209,0.575,rcp45,0.975,SSP2_v9_130325,0.00219503447755007,1.04038728353745,0.128554536209204,0.0964454637907959,0.210368611745326,rcp45,SSP2_RCP45,/exports/csce/eddie/geos/groups/LURG/models/PLUM/output/russia/priceupdated/withoutrestrictions/s6
russia/withoutrestrictions,s7,0.859399119035433,0.082360876579534,1.075,0.85,4.62293425653495,0.000330074944691236,0.514060088096457,0.204875861938752,0.625,1.00703004404823,0.136240265115036,0.997116291099859,0.475,rcp45,1.075,SSP2_v9_130325,0.00129812299189897,0.857030241394694,0.156058092530618,0.0689419074693817,0.163759734884964,rcp45,SSP2_RCP45,/exports/csce/eddie/geos/groups/LURG/models/PLUM/output/russia/priceupdated/withoutrestrictions/s7
russia/withoutrestrictions,s8,0.891349695386158,0.076381506251151,1.0375,0.875,3.95883938670969,0.000443620561897813,0.489134969538616,0.176661722848244,0.6375,1.00543251523069,0.105129485081332,1.07261558593031,0.4375,rcp45,0.9375,SSP2_v9_130325,0.00106646891392977,1.11120900723889,0.17813596407533,0.0657278219479663,0.184153456766914,rcp45,SSP2_RCP45,/exports/csce/eddie/geos/groups/LURG/models/PLUM/output/russia/priceupdated/withoutrestrictions/s8
russia/withoutrestrictions,s9,1.05998514780556,0.0865462617560878,0.9375,1.075,4.88745659522968,0.000340154846633053,0.505998514780556,0.202407670580124,0.5375,0.997000742609722,0.0529439412839585,1.00908586402445,0.5375,rcp45,1.0375,SSP2_v9_130325,0.00209630682320497,0.938185479653109,0.14700542841049,0.0916813510858331,0.228345786636399,rcp45,SSP2_RCP45,/exports/csce/eddie/geos/groups/LURG/models/PLUM/output/russia/priceupdated/withoutrestrictions/s9
russia/withoutrestrictions,s10,1.18678231924779,0.0687845251561292,1.0875,0.975,5.29096963170658,0.000380518231928115,0.498067840937043,0.213551030095415,0.6875,0.99066088403761,0.128345786636399,1.04271195039753,0.4875,rcp45,1.0875,SSP2_v9_130325,0.00254204120381658,1.01996381059673,0.133318648914167,0.0468640359246697,0.152943941283959,rcp45,SSP2_RCP45,/exports/csce/eddie/geos/groups/LURG/models/PLUM/output/russia/priceupdated/withoutrestrictions/s10
russia/withoutrestrictions,s11,0.980678409370429,0.0811660879363957,0.9875,1.175,4.52861296883632,0.00029493779287125,0.518678231924779,0.192523353921245,0.5875,1.00096607953148,0.0841534567669142,1.12009671777419,0.5875,rcp45,0.9875,SSP2_v9_130325,0.00170093415684978,0.812426906164464,0.159272178052034,0.0779945715895097,0.205129485081332,rcp45,SSP2_RCP45,/exports/csce/eddie/geos/groups/LURG/models/PLUM/output/russia/priceupdated/withoutrestrictions/s11
russia/withoutrestrictions,s12,0.940014852194445,0.0734537382439122,1.0125,1.125,4.30903036829342,0.000319481768071885,0.481321768075221,0.223338277151756,0.6625,0.999033920468521,0.115846543233086,1.09091413597555,0.5125,rcp45,1.0125,SSP2_v9_130325,0.00190369317679503,0.888790992761113,0.12186403592467,0.10313596407533,0.215846543233086,rcp45,SSP2_RCP45,/exports/csce/eddie/geos/groups/LURG/models/PLUM/output/russia/priceupdated/withoutrestrictions/s12
russia/withoutrestrictions,s13,1.10865030461384,0.083618493748849,0.9125,0.925,5.07138703116367,0.00040506220712875,0.501932159062957,0.197592329419876,0.5625,1.00933911596239,0.071654213363601,1.02738441406969,0.4125,rcp45,0.9125,SSP2_v9_130325,0.00293353108607023,1.06181452034689,0.15299457158951,0.0720054284104902,0.171654213363601,rcp45,SSP2_RCP45,/exports/csce/eddie/geos/groups/LURG/models/PLUM/output/russia/priceupdated/withoutrestrictions/s13
russia/withoutrestrictions,s14,1.01932159062957,0.0788339120636043,1.0625,1.025,5.64116061329031,0.000256379438102187,0.494001485219444,0.186448969904585,0.6125,1.00299925739028,0.147056058716042,0.979903282225807,0.5625,rcp45,0.9625,SSP2_v9_130325,0.00229906584315022,0.980036189403268,0.166681351085833,0.0842721780520337,0.247056058716041,rcp45,SSP2_RCP45,/exports/csce/eddie/geos/groups/LURG/models/PLUM/output/russia/priceupdated/withoutrestrictions/s14
russia/withoutrestrictions,s15,0.813217680752207,0.0912154748438708,0.9625,0.825,4.71254340477032,0.000359845153366947,0.510865030461384,0.207476646078755,0.5125,0.994567484769308,0.094870514918668,1.05728804960247,0.4625,rcp45,1.0625,SSP2_v9_130325,0.00145795879618342,1.18757309383554,0.140727821947966,0.0583186489141669,0.194870514918668,rcp45,SSP2_RCP45,/exports/csce/eddie/geos/groups/LURG/models/PLUM/output/russia/priceupdated/withoutrestrictions/s15
russia/withoutrestrictions,s16,0.839157403113636,0.0794186921839679,0.98125,0.9375,4.8435980862024,0.00041252835357623,0.509515571613484,0.196369873731948,0.58125,1.0061793291567,0.132072887785893,1.00348505331909,0.55625,rcp45,0.91875,SSP2_v9_130325,0.00175382729148782,0.990045925165523,0.142359724316332,0.108569811729769,0.19227200509598,rcp45,SSP2_RCP45,/exports/csce/eddie/geos/groups/LURG/models/PLUM/output/russia/priceupdated/withoutrestrictions/s16
russia/withoutrestrictions,s17,1.02913073941635,0.093528369502185,1.08125,1.1375,3.78537228733613,0.000324863169137939,0.492895180973533,0.220082752879293,0.68125,0.997530971969499,0.0869317887532772,1.06862059930287,0.45625,rcp45,1.01875,SSP2_v9_130325,0.00261672392228786,1.22379874486513,0.168920352359234,0.0735068887748284,0.241076285221202,rcp45,SSP2_RCP45,/exports/csce/eddie/geos/groups/LURG/models/PLUM/output/russia/priceupdated/withoutrestrictions/s17
russia/withoutrestrictions,s18,1.12358658313402,0.0742644852679213,0.93125,0.8375,4.47862920649355,0.000364839979777746,0.500963163414456,0.206154317712805,0.53125,0.991957870155682,0.10772799490402,1.11044267861614,0.50625,rcp45,1.06875,SSP2_v9_130325,0.00214520505072209,0.902382277972787,0.154513082905786,0.0859691326562425,0.167927112214107,rcp45,SSP2_RCP45,/exports/csce/eddie/geos/groups/LURG/models/PLUM/output/russia/priceupdated/withoutrestrictions/s18
russia/withoutrestrictions,s19,0.95061943938999,0.0842849439134194,1.03125,1.0375,5.23016360490591,0.000269032423555697,0.477415569253235,0.184581901942803,0.63125,1.00145653697082,0.0589237147787978,1.03901272837491,0.40625,rcp45,0.96875,SSP2_v9_130325,0.00119668988482828,1.07312755104162,0.12559036331526,0.060357341695918,0.213068211246723,rcp45,SSP2_RCP45,/exports/csce/eddie/geos/groups/LURG/models/PLUM/output/russia/priceupdated/withoutrestrictions/s19
russia/withoutrestrictions,s20,0.990368365855445,0.0703291714214178,0.95625,1.0875,5.02344719163446,0.000345091629737709,0.516084259688636,0.201200175357153,0.50625,0.999518418292772,0.155537767290142,1.02321910054113,0.48125,rcp45,1.04375,SSP2_v9_130325,0.00152538354130531,1.03008721937191,0.160969132656242,0.0673597243163318,0.202558098041055,rcp45,SSP2_RCP45,/exports/csce/eddie/geos/groups/LURG/models/PLUM/output/russia/priceupdated/withoutrestrictions/s20
russia/withoutrestrictions,s21,1.22584430746765,0.0817579634600147,1.05625,0.8875,4.24182063982903,0.000462325824635189,0.497086926058365,0.171744497345687,0.60625,1.01129221537338,0.0974419019589453,1.08584696707549,0.58125,rcp45,0.94375,SSP2_v9_130325,0.00235426246099376,0.837269088768403,0.135357341695918,0.0939203523592337,0.144462232709858,rcp45,SSP2_RCP45,/exports/csce/eddie/geos/groups/LURG/models/PLUM/output/russia/priceupdated/withoutrestrictions/s21
russia/withoutrestrictions,s22,1.07104819026467,0.0770207041115405,0.90625,1.1875,4.66815274049889,0.000301713532283589,0.504938056061001,0.191143438475156,0.55625,1.00355240951323,0.118727626910159,1.0536331738502,0.43125,rcp45,0.99375,SSP2_v9_130325,0.00313022010617252,1.12613568239489,0.148506888774828,0.0505903633152605,0.224929363713576,rcp45,SSP2_RCP45,/exports/csce/eddie/geos/groups/LURG/models/PLUM/output/russia/priceupdated/withoutrestrictions/s22
russia/withoutrestrictions,s23,0.904844283865163,0.0874423914689462,1.00625,0.9875,5.52531214339366,0.00038612184743905,0.487641341686598,0.211865411467367,0.65625,0.995242214193258,0.075070636286424,0.965447690611344,0.53125,rcp45,1.09375,SSP2_v9_130325,0.00195199298571387,0.949064828775545,0.183569811729769,0.0795130829057859,0.181272373089841,rcp45,SSP2_RCP45,/exports/csce/eddie/geos/groups/LURG/models/PLUM/output/russia/priceupdated/withoutrestrictions/s23
russia/withoutrestrictions,s24,0.87641341686598,0.0725576085310538,1.06875,0.9625,4.9318472595011,0.00028747164642377,0.522584430746765,0.198799824642847,0.66875,0.988707784626618,0.0812723730898414,1.06098727162509,0.59375,rcp45,0.93125,SSP2_v9_130325,0.00164573753900624,1.05093517122445,0.157640275683668,0.0826402756836682,0.175070636286424,rcp45,SSP2_RCP45,/exports/csce/eddie/geos/groups/LURG/models/PLUM/output/russia/priceupdated/withoutrestrictions/s24
russia/withoutrestrictions,s25,1.04938056061001,0.0829792958884595,0.96875,1.1625,4.07468785660634,0.000375136830862061,0.499036836585544,0.228255502654313,0.56875,1.00048158170723,0.124929363713576,0.989557321383861,0.49375,rcp45,1.03125,SSP2_v9_130325,0.00247461645869469,0.873864317605109,0.131079647640766,0.0560796476407663,0.218727626910159,rcp45,SSP2_RCP45,/exports/csce/eddie/geos/groups/LURG/models/PLUM/output/russia/priceupdated/withoutrestrictions/s25
russia/withoutrestrictions,s26,1.16084259688636,0.0782420365399853,1.01875,0.8625,4.57655280836554,0.000335160020222254,0.507104819026467,0.208856561524844,0.61875,1.00475778580674,0.0444622327098577,1.03137940069713,0.54375,rcp45,1.08125,SSP2_v9_130325,0.00204800701428613,1.1627309112316,0.145486917094214,0.0994096366847395,0.197441901958945,rcp45,SSP2_RCP45,/exports/csce/eddie/geos/groups/LURG/models/PLUM/output/russia/priceupdated/withoutrestrictions/s26
russia/withoutrestrictions,s27,0.970869260583654,0.0896708285785822,0.91875,1.0625,5.35817936017097,0.000430967576444303,0.490484428386516,0.188134588532633,0.51875,0.996447590486767,0.102558098041055,1.09651494668091,0.44375,rcp45,0.98125,SSP2_v9_130325,0.000869779893827476,0.969912780628094,0.17440963668474,0.0704869170942141,0.255537767290142,rcp45,SSP2_RCP45,/exports/csce/eddie/geos/groups/LURG/models/PLUM/output/russia/priceupdated/withoutrestrictions/s27
russia/withoutrestrictions,s28,0.928951809735333,0.0757150560865806,1.09375,1.0125,5.12137079350645,0.00035490837026229,0.512358658313402,0.203630126268052,0.64375,1.0024690280305,0.0922720050959796,1.13455230938866,0.46875,rcp45,1.00625,SSP2_v9_130325,0.00138327607771214,0.926872448958384,0.139030867343758,0.0414301882702312,0.232072887785893,rcp45,SSP2_RCP45,/exports/csce/eddie/geos/groups/LURG/models/PLUM/output/russia/priceupdated/withoutrestrictions/s28
russia/withoutrestrictions,s29,1.09515571613484,0.0857355147320787,0.99375,0.8125,4.36983639509409,0.000237674175364811,0.495061943938999,0.179917247120707,0.54375,0.993820670843299,0.141076285221202,1.0463668261498,0.56875,rcp45,0.90625,SSP2_v9_130325,0.00224617270851218,1.09761772202721,0.164642658304082,0.0764931112251716,0.186931788753277,rcp45,SSP2_RCP45,/exports/csce/eddie/geos/groups/LURG/models/PLUM/output/russia/priceupdated/withoutrestrictions/s29
russia/withoutrestrictions,s30,1.00963163414456,0.066471630497815,1.04375,1.1125,4.7564019137976,0.000398286467716412,0.502913073941635,0.193845682287195,0.69375,0.998543463029183,0.0679271122141072,1.01415303292451,0.41875,rcp45,0.95625,SSP2_v9_130325,0.00280331011517172,0.776201255134875,0.151493111225172,0.0640308673437575,0.20772799490402,rcp45,SSP2_RCP45,/exports/csce/eddie/geos/groups/LURG/models/PLUM/output/russia/priceupdated/withoutrestrictions/s30
