Ensemble,pname,dist,xmin,xmax,x05,xmode,x95,value
SSP1,AGRI_LAND_EXPANSION_COST_FACTOR,beta,0,2,1.2,1.4,1.8,
SSP2,AGRI_LAND_EXPANSION_COST_FACTOR,beta,0,2,0.8,1,1.2,
SSP3,AGRI_LAND_EXPANSION_COST_FACTOR,beta,0,2,0.3,0.5,0.8,
SSP4,AGRI_LAND_EXPANSION_COST_FACTOR,beta,0,2,0.5,0.8,1,
SSP5,AGRI_LAND_EXPANSION_COST_FACTOR,beta,0,2,0.5,0.8,1.2,
SSP1,ANNUAL_MAX_IMPORT_CHANGE,beta,0.008,0.032,0.02,0.023,0.026,
SSP2,ANNUAL_MAX_IMPORT_CHANGE,beta,0.008,0.032,0.017,0.02,0.023,
SSP3,ANNUAL_MAX_IMPORT_CHANGE,beta,0.008,0.032,0.011,0.014,0.017,
SSP4,ANNUAL_MAX_IMPORT_CHANGE,beta,0.008,0.032,0.014,0.017,0.02,
SSP5,ANNUAL_MAX_IMPORT_CHANGE,beta,0.008,0.032,0.023,0.026,0.029,
SSP1,BIOENERGY_DEMAND_SHIFT,unif,0.9,1.1,,,,
SSP2,BIOENERGY_DEMAND_SHIFT,unif,0.9,1.1,,,,
SSP3,BIOENERGY_DEMAND_SHIFT,unif,0.9,1.1,,,,
SSP4,BIOENERGY_DEMAND_SHIFT,unif,0.9,1.1,,,,
SSP5,BIOENERGY_DEMAND_SHIFT,unif,0.9,1.1,,,,
SSP1,CROP_TO_PASTURE_COST_FACTOR,unif,0.8,1.2,,,,
SSP2,CROP_TO_PASTURE_COST_FACTOR,unif,0.8,1.2,,,,
SSP3,CROP_TO_PASTURE_COST_FACTOR,unif,0.8,1.2,,,,
SSP4,CROP_TO_PASTURE_COST_FACTOR,unif,0.8,1.2,,,,
SSP5,CROP_TO_PASTURE_COST_FACTOR,unif,0.8,1.2,,,,
SSP1,FERTILISER_COST_PER_T,beta,0.4,2.8,1.6,2.2,2.5,
SSP2,FERTILISER_COST_PER_T,beta,0.4,2.8,1.3,1.6,1.9,
SSP3,FERTILISER_COST_PER_T,beta,0.4,2.8,0.6,1.3,1.9,
SSP4,FERTILISER_COST_PER_T,beta,0.4,2.8,1,1.9,2.5,
SSP5,FERTILISER_COST_PER_T,beta,0.4,2.8,0.6,1,1.6,
SSP1,INITIAL_PRICE_SHIFT,unif,0.8,1.2,,,,
SSP2,INITIAL_PRICE_SHIFT,unif,0.8,1.2,,,,
SSP3,INITIAL_PRICE_SHIFT,unif,0.8,1.2,,,,
SSP4,INITIAL_PRICE_SHIFT,unif,0.8,1.2,,,,
SSP5,INITIAL_PRICE_SHIFT,unif,0.8,1.2,,,,
SSP1,IRRIG_COST_SCALE_FACTOR,beta,0.00005,0.00065,0.00035,0.00045,0.00055,
SSP2,IRRIG_COST_SCALE_FACTOR,beta,0.00005,0.00065,0.00025,0.00035,0.00045,
SSP3,IRRIG_COST_SCALE_FACTOR,beta,0.00005,0.00065,0.0001,0.0002,0.00025,
SSP4,IRRIG_COST_SCALE_FACTOR,beta,0.00005,0.00065,0.00015,0.00035,0.00055,
SSP5,IRRIG_COST_SCALE_FACTOR,beta,0.00005,0.00065,0.0001,0.0002,0.00035,
SSP1,IRRIGATION_EFFICIENCY,beta,0.4,0.6,0.52,0.55,0.58,
SSP2,IRRIGATION_EFFICIENCY,beta,0.4,0.6,0.48,0.5,0.52,
SSP3,IRRIGATION_EFFICIENCY,beta,0.4,0.6,0.42,0.45,0.48,
SSP4,IRRIGATION_EFFICIENCY,beta,0.4,0.6,0.45,0.5,0.55,
SSP5,IRRIGATION_EFFICIENCY,beta,0.4,0.6,0.5,0.52,0.55,
SSP1,LAND_CHANGE_COST,beta,0.05,0.35,0.225,0.275,0.3,
SSP2,LAND_CHANGE_COST,beta,0.05,0.35,0.175,0.2,0.225,
SSP3,LAND_CHANGE_COST,beta,0.05,0.35,0.15,0.2,0.25,
SSP4,LAND_CHANGE_COST,beta,0.05,0.35,0.2,0.225,0.275,
SSP5,LAND_CHANGE_COST,beta,0.05,0.35,0.1,0.15,0.175,
SSP1,MARKET_LAMBA,unif,0.3,0.5,,,,
SSP2,MARKET_LAMBA,unif,0.3,0.5,,,,
SSP3,MARKET_LAMBA,unif,0.3,0.5,,,,
SSP4,MARKET_LAMBA,unif,0.3,0.5,,,,
SSP5,MARKET_LAMBA,unif,0.3,0.5,,,,
SSP1,MEAT_EFFICIENCY,beta,0.95,1.05,1.01,1.02,1.04,
SSP2,MEAT_EFFICIENCY,beta,0.95,1.05,0.99,1,1.01,
SSP3,MEAT_EFFICIENCY,beta,0.95,1.05,0.98,1,1.02,
SSP4,MEAT_EFFICIENCY,beta,0.95,1.05,0.98,1,1.02,
SSP5,MEAT_EFFICIENCY,beta,0.95,1.05,1,1.01,1.02,
SSP1,MIN_NATURAL_RATE,beta,0,0.3,0.14,0.2,0.25,
SSP2,MIN_NATURAL_RATE,beta,0,0.3,0.06,0.1,0.14,
SSP3,MIN_NATURAL_RATE,beta,0,0.3,0.02,0.04,0.07,
SSP4,MIN_NATURAL_RATE,beta,0,0.3,0.04,0.06,0.1,
SSP5,MIN_NATURAL_RATE,beta,0,0.3,0.02,0.04,0.06,
SSP1,OTHER_INTENSITY_COST,beta,0.5,0.9,0.7,0.8,0.85,
SSP2,OTHER_INTENSITY_COST,beta,0.5,0.9,0.65,0.7,0.75,
SSP3,OTHER_INTENSITY_COST,beta,0.5,0.9,0.55,0.65,0.75,
SSP4,OTHER_INTENSITY_COST,beta,0.5,0.9,0.6,0.75,0.85,
SSP5,OTHER_INTENSITY_COST,beta,0.5,0.9,0.55,0.6,0.7,
SSP1,PASTURE_HARVEST_FRACTION,unif,0.4,0.6,,,,
SSP2,PASTURE_HARVEST_FRACTION,unif,0.4,0.6,,,,
SSP3,PASTURE_HARVEST_FRACTION,unif,0.4,0.6,,,,
SSP4,PASTURE_HARVEST_FRACTION,unif,0.4,0.6,,,,
SSP5,PASTURE_HARVEST_FRACTION,unif,0.4,0.6,,,,
SSP1,SSP_GDP_PC_FACTOR,unif,0.9,1.1,,,,
SSP2,SSP_GDP_PC_FACTOR,unif,0.9,1.1,,,,
SSP3,SSP_GDP_PC_FACTOR,unif,0.9,1.1,,,,
SSP4,SSP_GDP_PC_FACTOR,unif,0.9,1.1,,,,
SSP5,SSP_GDP_PC_FACTOR,unif,0.9,1.1,,,,
SSP1,SSP_POPULATION_FACTOR,unif,0.9,1.1,,,,
SSP2,SSP_POPULATION_FACTOR,unif,0.9,1.1,,,,
SSP3,SSP_POPULATION_FACTOR,unif,0.9,1.1,,,,
SSP4,SSP_POPULATION_FACTOR,unif,0.9,1.1,,,,
SSP5,SSP_POPULATION_FACTOR,unif,0.9,1.1,,,,
SSP1,SSP_SCENARIO,value,,,,,,SSP1_v9_130325
SSP2,SSP_SCENARIO,value,,,,,,SSP2_v9_130325
SSP3,SSP_SCENARIO,value,,,,,,SSP3_v9_130325
SSP4,SSP_SCENARIO,value,,,,,,SSP4_v9_130325
SSP5,SSP_SCENARIO,value,,,,,,SSP5_v9_130325
SSP1,TECHNOLOGY_CHANGE_ANNUAL_RATE,beta,-0.004,0.008,0.003,0.005,0.007,
SSP2,TECHNOLOGY_CHANGE_ANNUAL_RATE,beta,-0.004,0.008,0.001,0.002,0.003,
SSP3,TECHNOLOGY_CHANGE_ANNUAL_RATE,beta,-0.004,0.008,-0.001,0,0.001,
SSP4,TECHNOLOGY_CHANGE_ANNUAL_RATE,beta,-0.004,0.008,0,0.002,0.005,
SSP5,TECHNOLOGY_CHANGE_ANNUAL_RATE,beta,-0.004,0.008,0.002,0.004,0.005,
SSP1,TRADE_BARRIER_MULTIPLIER,beta,0,2,0.6,0.8,1,
SSP2,TRADE_BARRIER_MULTIPLIER,beta,0,2,0.8,1,1.2,
SSP3,TRADE_BARRIER_MULTIPLIER,beta,0,2,1.2,1.5,1.8,
SSP4,TRADE_BARRIER_MULTIPLIER,beta,0,2,1,1.2,1.5,
SSP5,TRADE_BARRIER_MULTIPLIER,beta,0,2,0.3,0.6,0.8,
SSP1,TRANSPORT_COST,beta,0.01,0.09,0.05,0.065,0.08,
SSP2,TRANSPORT_COST,beta,0.01,0.09,0.04,0.05,0.06,
SSP3,TRANSPORT_COST,beta,0.01,0.09,0.02,0.04,0.06,
SSP4,TRANSPORT_COST,beta,0.01,0.09,0.04,0.06,0.08,
SSP5,TRANSPORT_COST,beta,0.01,0.09,0.02,0.035,0.05,
SSP1,RCP,rcp,,,,,,ssp1
SSP2,RCP,rcp,,,,,,ssp2
SSP3,RCP,rcp,,,,,,ssp3
SSP4,RCP,rcp,,,,,,ssp4
SSP5,RCP,rcp,,,,,,ssp5
SSP1,BIOENERGY_DEMAND_SCENARIO,value,,,,,,ssp1
SSP2,BIOENERGY_DEMAND_SCENARIO,value,,,,,,ssp2
SSP3,BIOENERGY_DEMAND_SCENARIO,value,,,,,,ssp3
SSP4,BIOENERGY_DEMAND_SCENARIO,value,,,,,,ssp4
SSP5,BIOENERGY_DEMAND_SCENARIO,value,,,,,,ssp5
SSP1,YIELD_DIR_TOP,value,,,,,,ssp1
SSP2,YIELD_DIR_TOP,value,,,,,,ssp2
SSP3,YIELD_DIR_TOP,value,,,,,,ssp3
SSP4,YIELD_DIR_TOP,value,,,,,,ssp4
SSP5,YIELD_DIR_TOP,value,,,,,,ssp5
SSP1,BIOENERGY_FUTURE_DEMAND_FILENAME,value,,,,,,bioenergy_scenario_data.csv
SSP2,BIOENERGY_FUTURE_DEMAND_FILENAME,value,,,,,,bioenergy_scenario_data.csv
SSP3,BIOENERGY_FUTURE_DEMAND_FILENAME,value,,,,,,bioenergy_scenario_data.csv
SSP4,BIOENERGY_FUTURE_DEMAND_FILENAME,value,,,,,,bioenergy_scenario_data.csv
SSP5,BIOENERGY_FUTURE_DEMAND_FILENAME,value,,,,,,bioenergy_scenario_data.csv
SSP1,TARGET_DIET_FILE,value,,,,,,SSP1_tau.csv
SSP2,TARGET_DIET_FILE,value,,,,,,SSP2_tau.csv
SSP3,TARGET_DIET_FILE,value,,,,,,SSP3_tau.csv
SSP4,TARGET_DIET_FILE,value,,,,,,SSP4_tau.csv
SSP5,TARGET_DIET_FILE,value,,,,,,SSP5_tau.csv
SSP1,ADJUST_DIET_PREFS,value,,,,,,TRUE
SSP2,ADJUST_DIET_PREFS,value,,,,,,TRUE
SSP3,ADJUST_DIET_PREFS,value,,,,,,TRUE
SSP4,ADJUST_DIET_PREFS,value,,,,,,TRUE
SSP5,ADJUST_DIET_PREFS,value,,,,,,TRUE
SSP1,DIET_CHANGE_START_YEAR,value,,,,,,2020
SSP2,DIET_CHANGE_START_YEAR,value,,,,,,2020
SSP3,DIET_CHANGE_START_YEAR,value,,,,,,2020
SSP4,DIET_CHANGE_START_YEAR,value,,,,,,2020
SSP5,DIET_CHANGE_START_YEAR,value,,,,,,2020
SSP1,DIET_CHANGE_END_YEAR,value,,,,,,2100
SSP2,DIET_CHANGE_END_YEAR,value,,,,,,2100
SSP3,DIET_CHANGE_END_YEAR,value,,,,,,2100
SSP4,DIET_CHANGE_END_YEAR,value,,,,,,2100
SSP5,DIET_CHANGE_END_YEAR,value,,,,,,2100
