Iso3,AgriGdpFract
AFG,0.12196494753299449
ALB,0.191692733242493
DZA,0.1382931067634362
AGO,0.0647514596785271
ARG,0.09702227586420649
ARM,0.13104649446979177
AUS,0.026945507391995006
AUT,0.015684024273703134
AZE,0.0955273559482874
BHS,0.12196494753299449
BHR,0.12196494753299449
BGD,0.10237167102221521
BRB,0.011874002253500222
BLR,0.1068024496453196
BEL,0.013030484858442166
BLZ,0.1186590300169778
BEN,0.32928947191721447
BTN,0.17467335903648357
BOL,0.2080364442212227
BIH,0.06691218296190549
BWA,0.0051466109700391985
BRA,0.11010424927472862
BRN,0.010695956640945003
BGR,0.07669500923369177
BFA,0.15966763822134747
BDI,0.6543680521950345
CPV,0.10836329181746635
KHM,0.6701593975623865
CMR,0.23028093429229665
CAN,0.02024379242859856
CAF,0.39294819567758565
TCD,0.38701122140262045
CHL,0.05954409777199128
CHN,0.09830390873403437
HKG,1.1778369601452221e-4
MAC,0.12196494753299449
TWN,0.12196494753299449
COL,0.07060402292212446
COM,0.12196494753299449
COG,0.32777131459567654
CRI,0.08234493311831625
CIV,0.20070412673113833
HRV,0.02874549394423528
CUB,0.12196494753299449
CYP,0.028986808739854684
CZE,0.024024537221248053
PRK,0.12196494753299449
COD,0.12196494753299449
DNK,0.027153666131481635
DJI,0.12196494753299449
DOM,0.07204242147509436
ECU,0.06832973208917402
EGY,0.08128622639063392
SLV,0.07423977435954247
GNQ,9.501767792981696e-4
ERI,0.12196494753299449
EST,0.030170960085973548
SWZ,0.12196494753299449
ETH,0.2405605508396817
FJI,0.08003730577821204
FIN,0.012810412648101741
FRA,0.02522687886385609
PYF,0.12196494753299449
GAB,0.12196494753299449
GMB,0.15180749620682354
GEO,0.058589564799951165
DEU,0.013255401881071526
GHA,0.2541188123076449
GRC,0.08183485424392703
GRD,0.07796783931140117
GTM,0.12196494753299449
GIN,0.17994164667509474
GNB,0.32378853897432386
GUY,0.10254896510981262
HTI,0.12196494753299449
HND,0.12009744394845764
HUN,0.054789205316691354
ISL,0.013799518898645897
IND,0.1483375404919493
IDN,0.1344067398788476
IRN,0.10593652314184868
IRQ,0.01909171140251682
IRL,0.023677244609163647
ISR,0.014531099221607172
ITA,0.020596967253179988
JAM,0.11564468504056767
JPN,0.013502542054715967
JOR,0.06069592087685159
KAZ,0.04396571412539781
KEN,0.16037290889861897
KWT,0.002548599784495618
KGZ,0.2695925779554584
LAO,0.3349580772137031
LVA,0.04319127609707072
LBN,0.05853275339546275
LSO,0.12196494753299449
LBR,0.12196494753299449
LBY,0.12196494753299449
LTU,0.04451619394287267
LUX,0.004325857948916488
MDG,0.2369296321916525
MWI,1
MYS,0.0673884704588323
MDV,0.0012422630718712212
MLI,0.42929222396583383
MLT,0.009775953660553255
MRT,0.12196494753299449
MUS,0.027666510248902994
MEX,0.04215367784588164
MNG,0.09760956012665634
MNE,0.12196494753299449
MAR,0.1214305789433491
MOZ,0.27094097917370275
MMR,0.12196494753299449
NAM,0.017262936732278127
NPL,0.3213338711620643
NLD,0.014759284801868007
NCL,0.012129492252788292
NZL,0.05819264885318673
NIC,0.19016095718389509
NER,0.46423061094591667
NGA,0.1333219066626654
MKD,0.09391378403541246
NOR,0.009510961031428268
OMN,0.002871139241413446
PAK,0.15241203219793703
PAN,0.01590289294906393
PNG,0.12196494753299449
PRY,0.20847083978337305
PER,0.0746657894250214
PHL,0.09476843135524064
POL,0.03649834700358307
PRT,0.02951087802983812
QAT,0.0010936676849323571
KOR,0.022496365164701576
MDA,0.1752503582435568
ROU,0.08738003351019927
RUS,0.059207914764478405
RWA,0.3350323208230192
LCA,0.03693714224822173
VCT,0.1180017276735116
WSM,0.1419604850787017
STP,0.12196494753299449
SAU,0.018703586858414906
SEN,0.10774276296659563
SRB,0.0933831273459235
SLE,0.5724346724340906
SGP,2.3719939179227912e-4
SVK,0.018903662301570243
SVN,0.019045504756876486
SLB,0.12196494753299449
SOM,0.12196494753299449
ZAF,0.05641572510730397
SSD,0.12196494753299449
ESP,0.03630691074422998
LKA,0.057409421882131835
SDN,0.12196494753299449
SUR,0.04694125249986552
SWE,0.007287222105459643
CHE,0.010349648006019004
SYR,0.12196494753299449
TJK,0.2654010021997996
THA,0.08534060524958507
TLS,0.2184408155104703
TGO,0.4485147294824401
TTO,0.005622836352128808
TUN,0.10150380807717384
TUR,0.07879318327490333
TKM,0.045605823766591315
UGA,0.12196494753299449
UKR,0.2665770666042624
ARE,0.12196494753299449
GBR,0.009138992760034829
TZA,0.15967627316166588
USA,0.015373427097383438
URY,0.09611359757586987
UZB,0.12196494753299449
VUT,0.1743160555384452
VEN,0.12196494753299449
VNM,0.15789458525932157
YEM,0.14826622913974033
ZMB,0.19323329226924876
ZWE,0.16484668449906648
