year,mapFilename,crop,shockFactor
2091,Afghanistan,FruitVeg,0.0996213133214042
2100,Algeria,FruitVeg,0.0803659814875573
2056,Australia,FruitVeg,0.0514728305675089
2034,Azerbaijan,FruitVeg,0.0415157657070085
2092,Caribbean Other,FruitVeg,0.178928140434437
2092,Bangladesh,FruitVeg,0.170307967718691
2097,Belgium & Luxembourg,FruitVeg,0.22465669924859
2088,Guatemala & Belize,FruitVeg,0.675035954429768
2100,Benin,FruitVeg,0.56581348432228
2093,Bhutan,FruitVeg,0.28137302803807
2052,Botswana,FruitVeg,0.710530733559281
2057,Bulgaria,FruitVeg,0.13698991603218
2079,Bulgaria,FruitVeg,1.03157778570428
2057,Burkina Faso,FruitVeg,0.177618904095143
2092,Burkina Faso,FruitVeg,0.126417566882446
2099,Burkina Faso,FruitVeg,0.550432845600881
2100,Burkina Faso,FruitVeg,0.175633271504194
2068,Burundi,FruitVeg,0.202785231419839
2069,Cameroon,FruitVeg,0.111171638448723
2045,Central African Republic,FruitVeg,0.132522994000465
2096,Central African Republic,FruitVeg,0.129234818462282
2097,Central African Republic,FruitVeg,0.159167616977356
2051,Chad,FruitVeg,0.219517102562822
2085,Chad,FruitVeg,0.103999860212207
2087,Chad,FruitVeg,0.161290624993853
2067,Chile,FruitVeg,0.158118459614925
2077,Chile,FruitVeg,0.488331428226084
2096,Chile,FruitVeg,0.264068865752779
2097,Chile,FruitVeg,0.225224681058899
2086,China,FruitVeg,0.0955835409462452
2083,Colombia,FruitVeg,0.455861680326052
2090,Colombia,FruitVeg,1.06446764059365
2092,Madagascar & Indian Ocean,FruitVeg,0.0800627840915695
2087,Congo,FruitVeg,0.15161729620304
2095,Congo,FruitVeg,0.110755047295243
2083,Cote dIvoire,FruitVeg,0.326805448625237
2080,Cuba,FruitVeg,0.55209152912721
2098,Cyprus,FruitVeg,0.117036143946461
2094,North Korea,FruitVeg,0.119800794916227
2093,Denmark,FruitVeg,0.282780988141894
2023,Egypt,FruitVeg,0.985046954071149
2040,Egypt,FruitVeg,0.269030515081249
2043,El Salvador,FruitVeg,0.130653813146055
2079,El Salvador,FruitVeg,0.108383376193233
2046,Equatorial Guinea,FruitVeg,0.50640630801674
2083,Equatorial Guinea,FruitVeg,0.247447659424506
2080,Eritrea,FruitVeg,0.112812852417119
2062,Eswatini,FruitVeg,0.96375300033018
2076,Ethiopia,FruitVeg,0.182137272837572
2083,Ethiopia,FruitVeg,1.03902003890835
2072,Finland,FruitVeg,0.530507663949393
2038,Gabon & Sao Tome,FruitVeg,0.304648954086006
2055,Gabon & Sao Tome,FruitVeg,0.231380535126664
2034,Georgia,FruitVeg,0.293949692784809
2067,Germany,FruitVeg,0.177415457237512
2092,Germany,FruitVeg,0.198219143692404
2070,Ghana,FruitVeg,0.134124382655136
2074,Ghana,FruitVeg,0.224665981316939
2083,Ghana,FruitVeg,0.0922246706439182
2064,Guinea,FruitVeg,0.0808604696020484
2044,Guyana,FruitVeg,0.186767139281146
2068,Honduras,FruitVeg,0.283512904695235
2085,Honduras,FruitVeg,0.142491137702018
2099,Honduras,FruitVeg,0.296269895206206
2037,Hungary,FruitVeg,0.965188236194663
2076,Hungary,FruitVeg,0.0943661322165281
2096,Iceland,FruitVeg,0.136601808411069
2099,India,FruitVeg,0.0802976813632995
2068,Ireland,FruitVeg,0.535232933345251
2078,Ireland,FruitVeg,0.328826829199679
2050,Italy & Malta,FruitVeg,0.131423108186573
2069,Italy & Malta,FruitVeg,0.167089592032135
2092,Italy & Malta,FruitVeg,0.524765216722153
2054,Jordan,FruitVeg,0.297097227484919
2051,Kazakhstan,FruitVeg,0.108235413469374
2041,Latvia,FruitVeg,0.180389538272284
2050,Lebanon,FruitVeg,0.976940773450769
2080,Lebanon,FruitVeg,0.225941324187443
2032,Lesotho,FruitVeg,0.0497668519709259
2092,Lesotho,FruitVeg,0.482355494657531
2098,Lesotho,FruitVeg,0.121699000475928
2077,Liberia,FruitVeg,0.110279587386176
2062,Libya,FruitVeg,1.04909718258772
2050,Lithuania,FruitVeg,0.950726013048552
2032,Malawi,FruitVeg,0.959935223134235
2044,Malawi,FruitVeg,0.198076758598909
2072,Malawi,FruitVeg,1.00396107806358
2054,Sri Lanka & Maldives,FruitVeg,1.02523684908636
2035,Mali,FruitVeg,0.104011147562414
2052,Mali,FruitVeg,0.477193648889661
2063,Mali,FruitVeg,0.131994596952572
2066,Mauritania,FruitVeg,1.01061518304516
2094,Mauritania,FruitVeg,0.11211352320388
2068,Mexico,FruitVeg,0.12810920482967
2084,Mexico,FruitVeg,0.675071236211807
2091,Namibia,FruitVeg,0.119475900847465
2091,Nepal,FruitVeg,0.26309263901785
2069,Niger,FruitVeg,0.124804450171068
2044,North Macedonia,FruitVeg,0.204557067663409
2060,North Macedonia,FruitVeg,0.459710921696387
2085,North Macedonia,FruitVeg,0.170697206095792
2096,North Macedonia,FruitVeg,0.227288713399321
2078,Norway,FruitVeg,0.110165123608895
2047,Oman,FruitVeg,0.288454737174325
2079,Oman,FruitVeg,0.171356438049115
2082,Oman,FruitVeg,0.104940848913975
2099,Peru,FruitVeg,0.307000753842294
2033,Moldova,FruitVeg,0.0664875569893047
2062,Romania,FruitVeg,0.21428157357499
2097,Russia,FruitVeg,0.263971876562573
2061,Rwanda,FruitVeg,0.105036529088393
2078,Rwanda,FruitVeg,0.0855211962386966
2055,Sierra Leone,FruitVeg,0.416091582481749
2093,Sierra Leone,FruitVeg,1.03686360286083
2083,Somalia,FruitVeg,0.224291707016528
2032,South Africa,FruitVeg,0.239504774389789
2064,South Africa,FruitVeg,0.306672582351603
2059,South Sudan,FruitVeg,0.472230340349488
2092,South Sudan,FruitVeg,0.0792086285306141
2056,Sudan,FruitVeg,0.715215072412975
2049,Suriname,FruitVeg,0.246883484157734
2059,Suriname,FruitVeg,0.326416642935947
2066,Suriname,FruitVeg,0.243976297583431
2062,Switzerland,FruitVeg,0.12792733522132
2063,Syria,FruitVeg,0.264605246265419
2090,Togo,FruitVeg,0.242232218780555
2063,Uganda,FruitVeg,0.131256722859107
2076,Uganda,FruitVeg,0.15584437139798
2076,Ukraine,FruitVeg,1.04107043664437
2088,Ukraine,FruitVeg,0.220588396023959
2024,United Arab Emirates,FruitVeg,0.0652812171913683
2051,United Arab Emirates,FruitVeg,0.0398439102852717
2060,United Arab Emirates,FruitVeg,0.674334936658852
2076,United Kingdom,FruitVeg,0.357893072096631
2092,United Kingdom,FruitVeg,0.241982671432197
2054,Tanzania,FruitVeg,0.0984121485799551
2098,Tanzania,FruitVeg,0.282431451650336
2060,Uruguay,FruitVeg,0.064644644362852
2054,Uzbekistan,FruitVeg,0.194540368039161
2068,Uzbekistan,FruitVeg,0.261408406998962
2070,Uzbekistan,FruitVeg,0.39861915986985
2049,Venezuela,FruitVeg,0.109220142751001
2052,Venezuela,FruitVeg,0.970042057996616
2090,Venezuela,FruitVeg,0.304149230266921
2049,Viet Nam,FruitVeg,0.083349831351079
2026,Zambia,FruitVeg,0.264941709726118
2035,Zambia,FruitVeg,0.270273864781484
2086,Zambia,FruitVeg,0.120611560391262
2064,Albania,MaizeMilletSorghum,0.43687810825184
2089,Albania,MaizeMilletSorghum,0.474204325350002
2083,Algeria,MaizeMilletSorghum,0.946694600163028
2025,Angola,MaizeMilletSorghum,0.112583664432168
2099,Argentina,MaizeMilletSorghum,0.954672667523846
2047,Australia,MaizeMilletSorghum,0.344529855120927
2079,Australia,MaizeMilletSorghum,0.665241116816178
2075,Azerbaijan,MaizeMilletSorghum,0.311689798627049
2080,Azerbaijan,MaizeMilletSorghum,0.189637325285003
2034,Caribbean Other,MaizeMilletSorghum,0.285250807292759
2073,Caribbean Other,MaizeMilletSorghum,0.299695586171001
2085,Caribbean Other,MaizeMilletSorghum,0.412657084548846
2063,Bahrain & Qatar,MaizeMilletSorghum,0.340209254054353
2100,Bahrain & Qatar,MaizeMilletSorghum,0.37196156992577
2056,Belgium & Luxembourg,MaizeMilletSorghum,0.453887330396101
2047,Benin,MaizeMilletSorghum,0.236156191779301
2047,Bhutan,MaizeMilletSorghum,0.439030886171386
2100,Botswana,MaizeMilletSorghum,0.490399593859911
2041,Cambodia,MaizeMilletSorghum,0.515032240217552
2069,Cambodia,MaizeMilletSorghum,0.320134922461584
2087,Cambodia,MaizeMilletSorghum,0.46211303002201
2053,Central African Republic,MaizeMilletSorghum,0.374586095931008
2057,Central African Republic,MaizeMilletSorghum,0.862018531570211
2099,Central African Republic,MaizeMilletSorghum,0.895268510468304
2051,Chad,MaizeMilletSorghum,0.11374133637175
2070,Chile,MaizeMilletSorghum,0.740109617542476
2041,China,MaizeMilletSorghum,0.861796716349199
2083,China,MaizeMilletSorghum,0.155295955296606
2075,Colombia,MaizeMilletSorghum,0.688997051911429
2088,Madagascar & Indian Ocean,MaizeMilletSorghum,0.542626025853679
2090,Congo,MaizeMilletSorghum,0.371644868282601
2063,Costa Rica,MaizeMilletSorghum,0.530395518979058
2088,Costa Rica,MaizeMilletSorghum,0.660520077589899
2089,Costa Rica,MaizeMilletSorghum,0.296655711065978
2093,Costa Rica,MaizeMilletSorghum,0.166143275378272
2079,Cote dIvoire,MaizeMilletSorghum,0.622303676251322
2027,Cuba,MaizeMilletSorghum,0.646287671579048
2084,Cyprus,MaizeMilletSorghum,0.598109086742625
2078,North Korea,MaizeMilletSorghum,0.0818057785648853
2081,Denmark,MaizeMilletSorghum,0.623407475883141
2069,Djibouti,MaizeMilletSorghum,0.276018060762435
2032,Dominican Republic,MaizeMilletSorghum,0.0298250305559486
2059,Dominican Republic,MaizeMilletSorghum,0.133472415171564
2093,Dominican Republic,MaizeMilletSorghum,0.780823091138154
2078,Ecuador,MaizeMilletSorghum,0.670261690197513
2082,Ecuador,MaizeMilletSorghum,0.426242782780901
2038,Egypt,MaizeMilletSorghum,0.481593665005639
2055,Egypt,MaizeMilletSorghum,0.501689335331321
2070,Egypt,MaizeMilletSorghum,0.761983768176287
2064,El Salvador,MaizeMilletSorghum,0.304034464266151
2070,El Salvador,MaizeMilletSorghum,0.172809258429334
2086,El Salvador,MaizeMilletSorghum,0.252489810297266
2076,Eritrea,MaizeMilletSorghum,0.539505929993466
2052,Eswatini,MaizeMilletSorghum,0.247795415073633
2098,Eswatini,MaizeMilletSorghum,0.484319494059309
2032,Ethiopia,MaizeMilletSorghum,0.227198945926502
2042,Ethiopia,MaizeMilletSorghum,0.195993440095335
2059,Ethiopia,MaizeMilletSorghum,0.291978741222993
2030,Pacific Other,MaizeMilletSorghum,0.929849442420527
2031,Finland,MaizeMilletSorghum,0.545536313839257
2047,Finland,MaizeMilletSorghum,0.305898311603814
2088,Finland,MaizeMilletSorghum,0.238216852024198
2092,Finland,MaizeMilletSorghum,0.828499460779131
2021,Gabon & Sao Tome,MaizeMilletSorghum,0.57478933211416
2085,Georgia,MaizeMilletSorghum,0.976241109333932
2063,Germany,MaizeMilletSorghum,0.541965928245336
2033,Greece,MaizeMilletSorghum,0.430178334973753
2093,Greece,MaizeMilletSorghum,0.568049967428669
2096,Greece,MaizeMilletSorghum,1.03369531827047
2085,Guinea,MaizeMilletSorghum,0.923528171284124
2082,Guinea-Bissau,MaizeMilletSorghum,0.892869496531784
2092,Guinea-Bissau,MaizeMilletSorghum,0.38690415257588
2074,Guyana,MaizeMilletSorghum,0.319618646912277
2098,Haiti,MaizeMilletSorghum,0.439177937433124
2064,Honduras,MaizeMilletSorghum,0.182630045218393
2071,Honduras,MaizeMilletSorghum,0.445213906541467
2092,Honduras,MaizeMilletSorghum,0.749737308546901
2027,India,MaizeMilletSorghum,0.277953551951796
2078,India,MaizeMilletSorghum,0.261186804007739
2063,Indonesia,MaizeMilletSorghum,0.0593381880689412
2034,Iran,MaizeMilletSorghum,0.337002048613504
2065,Iran,MaizeMilletSorghum,0.937239297106862
2069,Iran,MaizeMilletSorghum,0.765649572545663
2037,Iraq,MaizeMilletSorghum,0.159253751588985
2086,Iraq,MaizeMilletSorghum,0.882654309133068
2082,Ireland,MaizeMilletSorghum,0.557402409613132
2083,Israel,MaizeMilletSorghum,0.576257437793538
2061,Japan,MaizeMilletSorghum,0.358038560282439
2062,Jordan,MaizeMilletSorghum,0.425153736174107
2088,Kazakhstan,MaizeMilletSorghum,0.102339543309063
2078,Laos,MaizeMilletSorghum,0.741347692431882
2080,Latvia,MaizeMilletSorghum,0.990050666546449
2100,Latvia,MaizeMilletSorghum,0.135891019459814
2033,Lebanon,MaizeMilletSorghum,0.560875738402829
2054,Lebanon,MaizeMilletSorghum,0.53205719997175
2059,Lebanon,MaizeMilletSorghum,0.95010179203935
2090,Lebanon,MaizeMilletSorghum,0.432175227580592
2095,Lebanon,MaizeMilletSorghum,1.0395696295891
2093,Liberia,MaizeMilletSorghum,0.87179594244808
2031,Libya,MaizeMilletSorghum,0.642992395143956
2064,Libya,MaizeMilletSorghum,0.296485512349755
2051,Malawi,MaizeMilletSorghum,0.437652130313218
2031,Sri Lanka & Maldives,MaizeMilletSorghum,0.595598079292104
2096,Mali,MaizeMilletSorghum,0.161877616913989
2033,Mexico,MaizeMilletSorghum,0.770858790483326
2061,Morocco,MaizeMilletSorghum,0.404430686803535
2099,Morocco,MaizeMilletSorghum,0.699958735657856
2052,Mozambique,MaizeMilletSorghum,0.670489828018472
2057,Myanmar,MaizeMilletSorghum,0.258300295714289
2030,Nepal,MaizeMilletSorghum,0.800156356627122
2058,New Zealand,MaizeMilletSorghum,0.769772056806833
2079,New Zealand,MaizeMilletSorghum,1.0545366174262
2061,Niger,MaizeMilletSorghum,0.610078321332112
2062,North Macedonia,MaizeMilletSorghum,0.319067795909941
2062,Panama,MaizeMilletSorghum,0.929168877666816
2067,Panama,MaizeMilletSorghum,0.36582450308837
2070,Papua New Guinea,MaizeMilletSorghum,0.656591864628717
2034,Paraguay,MaizeMilletSorghum,0.284572634631768
2070,Paraguay,MaizeMilletSorghum,0.801628715312108
2081,Paraguay,MaizeMilletSorghum,0.289670512638986
2093,Paraguay,MaizeMilletSorghum,0.34620826090686
2070,Philippines,MaizeMilletSorghum,0.305847229994833
2083,Philippines,MaizeMilletSorghum,0.897858916036785
2062,Romania,MaizeMilletSorghum,1.04569048929028
2074,Romania,MaizeMilletSorghum,0.794568167552352
2079,Rwanda,MaizeMilletSorghum,0.85766705295071
2081,Rwanda,MaizeMilletSorghum,0.878227121196687
2092,Rwanda,MaizeMilletSorghum,0.375453162519261
2048,Saudi Arabia,MaizeMilletSorghum,0.174195906743407
2092,Saudi Arabia,MaizeMilletSorghum,0.835020044911653
2073,Serbia,MaizeMilletSorghum,0.81532845472917
2076,Sierra Leone,MaizeMilletSorghum,0.149209811473265
2086,Sierra Leone,MaizeMilletSorghum,1.05377892069519
2057,Slovakia,MaizeMilletSorghum,0.361256419131532
2090,Slovakia,MaizeMilletSorghum,0.434507236769423
2044,South Sudan,MaizeMilletSorghum,0.901057156659663
2031,Spain,MaizeMilletSorghum,0.406956180725247
2074,Suriname,MaizeMilletSorghum,0.435057722004131
2035,Sweden,MaizeMilletSorghum,0.278565060859546
2091,Sweden,MaizeMilletSorghum,1.01591104795225
2074,Syria,MaizeMilletSorghum,0.237849853346124
2085,Syria,MaizeMilletSorghum,0.404212211677805
2055,Taiwan,MaizeMilletSorghum,0.348551425151527
2097,Taiwan,MaizeMilletSorghum,0.46345621724613
2044,Thailand,MaizeMilletSorghum,0.208464339207858
2083,Togo,MaizeMilletSorghum,0.985948363784701
2039,Tunisia,MaizeMilletSorghum,0.422030574800447
2081,Tunisia,MaizeMilletSorghum,0.704449012130499
2094,Tunisia,MaizeMilletSorghum,0.416436808276922
2053,Ukraine,MaizeMilletSorghum,0.424965337142348
2042,United Arab Emirates,MaizeMilletSorghum,0.330507569070906
2089,United Arab Emirates,MaizeMilletSorghum,0.97201928156428
2100,United Arab Emirates,MaizeMilletSorghum,0.130603848863393
2075,Tanzania,MaizeMilletSorghum,1.05037505100481
2071,United States of America,MaizeMilletSorghum,0.829512602770701
2030,Uruguay,MaizeMilletSorghum,0.0211819808930159
2081,Uruguay,MaizeMilletSorghum,0.896931764110923
2096,Uruguay,MaizeMilletSorghum,0.493094315007329
2040,Uzbekistan,MaizeMilletSorghum,0.0281560861971229
2034,Venezuela,MaizeMilletSorghum,0.976434295736253
2100,Viet Nam,MaizeMilletSorghum,0.317608885513619
2059,Yemen,MaizeMilletSorghum,0.968355919485912
2067,Yemen,MaizeMilletSorghum,0.890113994907588
2078,Yemen,MaizeMilletSorghum,1.06491889067926
2051,Zimbabwe,MaizeMilletSorghum,1.02260603870265
2061,Zimbabwe,MaizeMilletSorghum,0.104573335712776
2091,Zimbabwe,MaizeMilletSorghum,0.157014041440561
2028,Afghanistan,Monogastrics,0.812333754347637
2045,Afghanistan,Monogastrics,0.212542886752635
2081,Algeria,Monogastrics,0.430432083457708
2087,Algeria,Monogastrics,0.606122137093916
2094,Angola,Monogastrics,0.817685623187572
2093,Argentina,Monogastrics,0.152121571358293
2035,Australia,Monogastrics,0.603879836574197
2094,Australia,Monogastrics,1.01176421009004
2083,Austria,Monogastrics,0.087926835520193
2037,Azerbaijan,Monogastrics,0.342048162790015
2053,Bahrain & Qatar,Monogastrics,0.086536922948435
2067,Bangladesh,Monogastrics,0.975758284339681
2100,Bangladesh,Monogastrics,0.493813447188586
2096,Belarus,Monogastrics,0.982014683354646
2093,Guatemala & Belize,Monogastrics,0.678105707652867
2094,Bhutan,Monogastrics,0.389766728645191
2092,Bolivia,Monogastrics,0.200186431035399
2100,Botswana,Monogastrics,0.268288484914228
2076,Burundi,Monogastrics,0.344363958556205
2077,Senegal Gambia & Cabo Verde,Monogastrics,0.0771863093692809
2059,Cambodia,Monogastrics,0.309504467314109
2073,Cambodia,Monogastrics,0.0781832727976143
2041,Cameroon,Monogastrics,0.450637895129621
2058,Cameroon,Monogastrics,0.462139032259583
2063,Chad,Monogastrics,0.201125271422788
2095,Chad,Monogastrics,0.412309100199491
2043,Chile,Monogastrics,0.321353918071836
2062,Chile,Monogastrics,0.234671854190528
2085,Colombia,Monogastrics,0.241105513181537
2047,Madagascar & Indian Ocean,Monogastrics,0.272665542932227
2089,DR Congo,Monogastrics,0.234994023526087
2042,Dominican Republic,Monogastrics,0.029471512241289
2075,Egypt,Monogastrics,0.119508767919615
2049,Eritrea,Monogastrics,0.165447489377111
2053,Eswatini,Monogastrics,0.1618228916917
2052,Ethiopia,Monogastrics,0.402308013206348
2100,Pacific Other,Monogastrics,0.370943493628874
2033,Finland,Monogastrics,0.199350240118802
2073,France,Monogastrics,1.05418495520949
2046,Gabon & Sao Tome,Monogastrics,0.0696563737746328
2080,Georgia,Monogastrics,0.128955643204972
2020,Haiti,Monogastrics,0.766784753650427
2047,Haiti,Monogastrics,0.081062195552513
2077,Haiti,Monogastrics,0.257288370151073
2026,India,Monogastrics,0.033777578715235
2062,Japan,Monogastrics,0.147839589426294
2082,Japan,Monogastrics,0.755590416211635
2086,Japan,Monogastrics,0.846047253487632
2096,Japan,Monogastrics,0.206512417737395
2079,Jordan,Monogastrics,0.18011538984254
2087,Jordan,Monogastrics,0.106255853129551
2080,Laos,Monogastrics,0.766023381659761
2058,Liberia,Monogastrics,0.326681523900479
2099,Liberia,Monogastrics,0.24774586991407
2060,Libya,Monogastrics,0.396821676613763
2072,Libya,Monogastrics,0.263248007008806
2076,Sri Lanka & Maldives,Monogastrics,0.173502260940149
2097,Mali,Monogastrics,0.290493096690625
2077,Mauritania,Monogastrics,0.573576807193458
2045,Mongolia,Monogastrics,0.323896133806556
2090,Morocco,Monogastrics,0.218469296954572
2084,Mozambique,Monogastrics,0.894681446813047
2086,Nepal,Monogastrics,0.1859464709647
2059,Norway,Monogastrics,0.936082830252126
2098,Oman,Monogastrics,0.300534493569285
2022,Papua New Guinea,Monogastrics,0.403752855686471
2084,Peru,Monogastrics,0.134305366268381
2040,Philippines,Monogastrics,0.103111849958077
2058,Philippines,Monogastrics,0.0807253177650273
2048,South Korea,Monogastrics,0.137322084689513
2075,South Korea,Monogastrics,0.459732245421037
2092,South Korea,Monogastrics,0.15867987354286
2048,Russia,Monogastrics,0.187031282754615
2055,Sierra Leone,Monogastrics,0.207076026359573
2082,Sierra Leone,Monogastrics,0.268446545861661
2086,Sierra Leone,Monogastrics,0.268250018777326
2022,Switzerland,Monogastrics,0.523301873877644
2035,Syria,Monogastrics,0.0855847204104066
2061,Taiwan,Monogastrics,0.326678305380046
2071,Taiwan,Monogastrics,0.238093707179651
2100,Thailand,Monogastrics,0.530788605427369
2036,Tunisia,Monogastrics,0.453719076542184
2040,Tunisia,Monogastrics,0.178587164822966
2094,Turkiye,Monogastrics,0.158656893763691
2089,Turkmenistan,Monogastrics,0.450199894513935
2068,United Kingdom,Monogastrics,0.34371686860919
2093,United Kingdom,Monogastrics,0.14585516359657
2084,Tanzania,Monogastrics,0.653448753943667
2063,Venezuela,Monogastrics,0.240820025410503
2053,Viet Nam,Monogastrics,0.217520156120881
2095,Yemen,Monogastrics,0.32721303361468
2041,Zambia,Monogastrics,0.0397563991416246
2078,Zimbabwe,Monogastrics,0.901103200847283
2059,Albania,Oilcrops N-fixing,0.377577433986589
2075,Albania,Oilcrops N-fixing,0.653661263408139
2078,Albania,Oilcrops N-fixing,0.462776037435979
2087,Algeria,Oilcrops N-fixing,1.00516411932185
2086,Angola,Oilcrops N-fixing,0.297060726163909
2022,Argentina,Oilcrops N-fixing,0.442819845918566
2076,Argentina,Oilcrops N-fixing,0.59114249849692
2085,Argentina,Oilcrops N-fixing,0.210841549513862
2046,Australia,Oilcrops N-fixing,0.121733570499346
2067,Australia,Oilcrops N-fixing,0.0767063917219639
2049,Austria,Oilcrops N-fixing,0.893455997407436
2086,Azerbaijan,Oilcrops N-fixing,0.453425494395196
2080,Bahrain & Qatar,Oilcrops N-fixing,0.397097467444837
2081,Bahrain & Qatar,Oilcrops N-fixing,0.947202908527106
2094,Bahrain & Qatar,Oilcrops N-fixing,0.19362401785329
2078,Bangladesh,Oilcrops N-fixing,0.572598730577156
2085,Belarus,Oilcrops N-fixing,0.617802697140724
2084,Belgium & Luxembourg,Oilcrops N-fixing,0.733965223142877
2100,Guatemala & Belize,Oilcrops N-fixing,0.356552549544722
2086,Benin,Oilcrops N-fixing,0.257387047028169
2089,Benin,Oilcrops N-fixing,0.481936608534306
2100,Benin,Oilcrops N-fixing,0.602203224040568
2043,Bolivia,Oilcrops N-fixing,0.88386676883325
2078,Bosnia and Herzegovina,Oilcrops N-fixing,0.651645376477391
2055,Botswana,Oilcrops N-fixing,0.611810061288998
2079,Botswana,Oilcrops N-fixing,0.374376881420612
2070,Brazil,Oilcrops N-fixing,0.158152614766732
2064,Malaysia Singapore & Brunei,Oilcrops N-fixing,0.452642278717831
2100,Bulgaria,Oilcrops N-fixing,0.0939160676673055
2080,Burkina Faso,Oilcrops N-fixing,0.943957942305133
2082,Burkina Faso,Oilcrops N-fixing,0.380084903771058
2086,Burkina Faso,Oilcrops N-fixing,0.0958483697846532
2092,Burundi,Oilcrops N-fixing,1.05834901332855
2100,Cambodia,Oilcrops N-fixing,0.441526896227151
2071,Cameroon,Oilcrops N-fixing,0.275107218492776
2087,Canada,Oilcrops N-fixing,0.325187526177615
2063,Central African Republic,Oilcrops N-fixing,0.633331930302084
2088,Central African Republic,Oilcrops N-fixing,0.606339362263679
2094,Central African Republic,Oilcrops N-fixing,0.287845183955506
2033,Chad,Oilcrops N-fixing,0.454183503650129
2041,Chad,Oilcrops N-fixing,0.149803676204756
2043,Chile,Oilcrops N-fixing,0.144122301870957
2061,Chile,Oilcrops N-fixing,0.0561346284858882
2065,Chile,Oilcrops N-fixing,0.867974928440526
2077,Chile,Oilcrops N-fixing,0.0962588578090072
2061,China,Oilcrops N-fixing,0.314096805434674
2067,China,Oilcrops N-fixing,0.201026934254915
2062,Colombia,Oilcrops N-fixing,0.919375148843974
2035,Madagascar & Indian Ocean,Oilcrops N-fixing,0.457851704116911
2084,Madagascar & Indian Ocean,Oilcrops N-fixing,0.360878461739048
2100,Madagascar & Indian Ocean,Oilcrops N-fixing,0.557258249912411
2029,Congo,Oilcrops N-fixing,0.856153178699315
2045,Cote dIvoire,Oilcrops N-fixing,0.963051075208932
2050,Cote dIvoire,Oilcrops N-fixing,0.485250094067305
2075,Cote dIvoire,Oilcrops N-fixing,0.154827375290915
2093,Croatia,Oilcrops N-fixing,0.354470133548603
2067,Cuba,Oilcrops N-fixing,0.544755854420364
2053,Cyprus,Oilcrops N-fixing,0.195759806539863
2083,Cyprus,Oilcrops N-fixing,0.167254886170849
2034,Czechia,Oilcrops N-fixing,0.397203221004456
2099,Czechia,Oilcrops N-fixing,0.351100634317845
2039,North Korea,Oilcrops N-fixing,0.434500876180828
2061,North Korea,Oilcrops N-fixing,0.211050455439836
2086,North Korea,Oilcrops N-fixing,0.86718298564665
2050,DR Congo,Oilcrops N-fixing,0.479865225823596
2073,DR Congo,Oilcrops N-fixing,0.948825226202607
2078,DR Congo,Oilcrops N-fixing,0.856684815967456
2091,DR Congo,Oilcrops N-fixing,0.481311635859311
2086,Denmark,Oilcrops N-fixing,0.316228546574712
2088,Denmark,Oilcrops N-fixing,0.39713789196685
2089,Djibouti,Oilcrops N-fixing,0.102847870346159
2093,Djibouti,Oilcrops N-fixing,0.154988362407312
2044,Dominican Republic,Oilcrops N-fixing,0.0467758230119944
2077,Dominican Republic,Oilcrops N-fixing,0.311412547305226
2099,Dominican Republic,Oilcrops N-fixing,0.0800420601386577
2085,Ecuador,Oilcrops N-fixing,0.627721951482818
2089,Ecuador,Oilcrops N-fixing,0.416575978789479
2044,Equatorial Guinea,Oilcrops N-fixing,0.361925021205098
2088,Equatorial Guinea,Oilcrops N-fixing,0.0759149219375104
2097,Equatorial Guinea,Oilcrops N-fixing,0.297573450580239
2036,Eritrea,Oilcrops N-fixing,0.374926181491464
2064,Eritrea,Oilcrops N-fixing,0.110160565767437
2077,Eritrea,Oilcrops N-fixing,0.532418677872047
2080,Eritrea,Oilcrops N-fixing,0.852410277631134
2046,Ethiopia,Oilcrops N-fixing,0.401948188366368
2065,Ethiopia,Oilcrops N-fixing,0.576526076626033
2095,Ethiopia,Oilcrops N-fixing,0.88765457845293
2038,Finland,Oilcrops N-fixing,0.269496876876801
2056,Finland,Oilcrops N-fixing,0.49545830574818
2081,Finland,Oilcrops N-fixing,0.354598168190569
2086,Finland,Oilcrops N-fixing,0.149057828821242
2089,Finland,Oilcrops N-fixing,0.197606387641281
2049,France,Oilcrops N-fixing,0.594799630176276
2082,France,Oilcrops N-fixing,0.225107971206307
2086,France,Oilcrops N-fixing,0.55535804592073
2057,Georgia,Oilcrops N-fixing,0.33771735733375
2073,Georgia,Oilcrops N-fixing,0.193564438903704
2086,Georgia,Oilcrops N-fixing,0.421844828967005
2027,Germany,Oilcrops N-fixing,0.282173118237406
2030,Germany,Oilcrops N-fixing,0.278093343088403
2070,Germany,Oilcrops N-fixing,0.1197357873898
2062,Ghana,Oilcrops N-fixing,0.604501364715397
2079,Ghana,Oilcrops N-fixing,0.130349010340869
2100,Ghana,Oilcrops N-fixing,0.098093378264457
2030,Guinea-Bissau,Oilcrops N-fixing,0.344158699875698
2020,Guyana,Oilcrops N-fixing,0.590441931644455
2061,Guyana,Oilcrops N-fixing,0.800777027783915
2059,Hungary,Oilcrops N-fixing,0.20402565125376
2096,Iceland,Oilcrops N-fixing,0.926934561366215
2095,India,Oilcrops N-fixing,0.563029259908944
2076,Indonesia,Oilcrops N-fixing,0.273294835612178
2055,Iran,Oilcrops N-fixing,0.586324754636735
2061,Iran,Oilcrops N-fixing,0.843744964506477
2046,Iraq,Oilcrops N-fixing,0.227417168514803
2056,Ireland,Oilcrops N-fixing,0.849515102179721
2062,Ireland,Oilcrops N-fixing,0.471717356527224
2083,Ireland,Oilcrops N-fixing,1.0685541107785
2035,Israel,Oilcrops N-fixing,0.233478290680796
2097,Israel,Oilcrops N-fixing,0.3206544930581
2049,Italy & Malta,Oilcrops N-fixing,0.593133227825165
2056,Italy & Malta,Oilcrops N-fixing,0.128308121655136
2091,Italy & Malta,Oilcrops N-fixing,0.282793602161109
2057,Japan,Oilcrops N-fixing,0.287107885591686
2054,Jordan,Oilcrops N-fixing,0.342159091094509
2082,Jordan,Oilcrops N-fixing,0.176407995726913
2083,Kazakhstan,Oilcrops N-fixing,0.235255631897599
2096,Kazakhstan,Oilcrops N-fixing,0.321528261061758
2034,Kenya,Oilcrops N-fixing,0.439651631535962
2069,Kyrgyzstan,Oilcrops N-fixing,0.104486381886527
2090,Kyrgyzstan,Oilcrops N-fixing,0.160560290282592
2098,Kyrgyzstan,Oilcrops N-fixing,0.931085398513824
2057,Laos,Oilcrops N-fixing,0.615524283433333
2056,Latvia,Oilcrops N-fixing,0.612971110995859
2066,Lebanon,Oilcrops N-fixing,0.205033345641568
2088,Lebanon,Oilcrops N-fixing,1.02846715361811
2099,Lebanon,Oilcrops N-fixing,0.172380163194612
2032,Liberia,Oilcrops N-fixing,0.0757514229137451
2078,Liberia,Oilcrops N-fixing,0.486439452916384
2100,Liberia,Oilcrops N-fixing,0.582171729952097
2084,Libya,Oilcrops N-fixing,0.435095408465713
2096,Libya,Oilcrops N-fixing,0.190653044590727
2070,Malawi,Oilcrops N-fixing,0.974635887285695
2076,Malawi,Oilcrops N-fixing,0.420517536792904
2087,Sri Lanka & Maldives,Oilcrops N-fixing,0.269851415976882
2092,Sri Lanka & Maldives,Oilcrops N-fixing,0.0753392331767827
2035,Mauritania,Oilcrops N-fixing,0.0898619909770787
2056,Mauritania,Oilcrops N-fixing,0.0996728895977139
2073,Mongolia,Oilcrops N-fixing,0.121777189560235
2089,Mongolia,Oilcrops N-fixing,0.489615080971271
2059,Montenegro,Oilcrops N-fixing,0.113683552965522
2036,Morocco,Oilcrops N-fixing,0.0804988105595112
2046,Mozambique,Oilcrops N-fixing,0.203892464498058
2094,Mozambique,Oilcrops N-fixing,0.381727415136993
2034,Myanmar,Oilcrops N-fixing,0.277435396164656
2058,Myanmar,Oilcrops N-fixing,0.150007215226069
2070,Myanmar,Oilcrops N-fixing,0.375421599624679
2088,Myanmar,Oilcrops N-fixing,0.281879572989419
2089,Myanmar,Oilcrops N-fixing,0.414776766952127
2084,Namibia,Oilcrops N-fixing,0.181628252193332
2100,Namibia,Oilcrops N-fixing,0.568104233406484
2036,Nepal,Oilcrops N-fixing,0.501193678313866
2051,Nepal,Oilcrops N-fixing,0.335971490321681
2053,Nepal,Oilcrops N-fixing,0.164172949260101
2091,Netherlands,Oilcrops N-fixing,0.13455823273398
2092,New Zealand,Oilcrops N-fixing,0.671382790105417
2093,Nicaragua,Oilcrops N-fixing,0.51150372303091
2027,Niger,Oilcrops N-fixing,0.044713382339105
2070,Niger,Oilcrops N-fixing,0.546777908457443
2094,Niger,Oilcrops N-fixing,0.908736236160621
2096,Niger,Oilcrops N-fixing,0.444767968170345
2075,Nigeria,Oilcrops N-fixing,0.0922868676949292
2083,Nigeria,Oilcrops N-fixing,0.425981985405088
2096,Nigeria,Oilcrops N-fixing,0.0773523018695414
2042,Oman,Oilcrops N-fixing,0.551609253194183
2024,Pakistan,Oilcrops N-fixing,0.418681496726349
2060,Pakistan,Oilcrops N-fixing,0.164784005470574
2074,Pakistan,Oilcrops N-fixing,0.483372925240546
2070,Panama,Oilcrops N-fixing,0.445005584554747
2074,Panama,Oilcrops N-fixing,0.457481481572613
2022,Paraguay,Oilcrops N-fixing,0.439150775745511
2093,Paraguay,Oilcrops N-fixing,0.207286928826943
2094,Paraguay,Oilcrops N-fixing,0.70207191305235
2080,Peru,Oilcrops N-fixing,0.227206534286961
2088,Peru,Oilcrops N-fixing,0.494885279517621
2022,Philippines,Oilcrops N-fixing,0.220114412307739
2082,Philippines,Oilcrops N-fixing,0.457988450722769
2083,Poland,Oilcrops N-fixing,0.462962761847302
2092,Poland,Oilcrops N-fixing,0.743491427693516
2093,Poland,Oilcrops N-fixing,0.101726631913334
2096,Poland,Oilcrops N-fixing,0.0933968192432076
2036,Portugal,Oilcrops N-fixing,0.992096206061542
2063,Portugal,Oilcrops N-fixing,0.381681689377874
2039,Moldova,Oilcrops N-fixing,0.160812158994377
2040,Moldova,Oilcrops N-fixing,0.549188119685277
2065,Moldova,Oilcrops N-fixing,1.04677394544706
2095,Moldova,Oilcrops N-fixing,0.900503432191908
2059,Romania,Oilcrops N-fixing,0.610028455611318
2097,Romania,Oilcrops N-fixing,0.923136248625815
2050,Russia,Oilcrops N-fixing,0.0434721020981669
2077,Russia,Oilcrops N-fixing,0.267164134802297
2028,Rwanda,Oilcrops N-fixing,0.770675278818235
2067,Rwanda,Oilcrops N-fixing,0.49939693627879
2072,Saudi Arabia,Oilcrops N-fixing,0.648267579274252
2088,Serbia,Oilcrops N-fixing,0.158681136090308
2096,Serbia,Oilcrops N-fixing,0.203893807576969
2076,Sierra Leone,Oilcrops N-fixing,0.645232866918668
2092,Slovakia,Oilcrops N-fixing,0.452383236121386
2094,Slovakia,Oilcrops N-fixing,0.268201642017812
2036,Slovenia,Oilcrops N-fixing,0.249342420771718
2058,Slovenia,Oilcrops N-fixing,0.18107553826645
2072,Slovenia,Oilcrops N-fixing,1.0270984299574
2064,Somalia,Oilcrops N-fixing,0.314641077136621
2079,Somalia,Oilcrops N-fixing,0.126381356008351
2082,Somalia,Oilcrops N-fixing,0.389216535538435
2096,South Africa,Oilcrops N-fixing,0.119219854706898
2046,South Sudan,Oilcrops N-fixing,0.569912170739844
2051,Spain,Oilcrops N-fixing,0.675668127723038
2077,Spain,Oilcrops N-fixing,0.563662834661081
2060,Suriname,Oilcrops N-fixing,0.134678716724738
2095,Suriname,Oilcrops N-fixing,0.22585272891447
2051,Sweden,Oilcrops N-fixing,0.0469294830970466
2071,Sweden,Oilcrops N-fixing,0.51698043144308
2094,Sweden,Oilcrops N-fixing,0.222973551834002
2077,Syria,Oilcrops N-fixing,0.12615909232758
2079,Syria,Oilcrops N-fixing,0.607401462197304
2087,Syria,Oilcrops N-fixing,0.467812861641869
2096,Tajikistan,Oilcrops N-fixing,0.453533427836373
2074,Thailand,Oilcrops N-fixing,0.351487390156835
2092,Timor-Leste,Oilcrops N-fixing,0.239612059341744
2096,Timor-Leste,Oilcrops N-fixing,0.549923935299739
2030,Togo,Oilcrops N-fixing,0.978231104183942
2062,Togo,Oilcrops N-fixing,0.749962412668392
2083,Togo,Oilcrops N-fixing,0.715068612014875
2079,Tunisia,Oilcrops N-fixing,1.05879975955002
2071,Turkiye,Oilcrops N-fixing,0.568376461910084
2090,Turkiye,Oilcrops N-fixing,0.210093944659457
2053,Turkmenistan,Oilcrops N-fixing,0.413126356657594
2083,Uganda,Oilcrops N-fixing,0.247208647616208
2068,Ukraine,Oilcrops N-fixing,0.107075567534193
2087,Ukraine,Oilcrops N-fixing,1.03675482664257
2042,United Arab Emirates,Oilcrops N-fixing,0.047273786701262
2094,United Arab Emirates,Oilcrops N-fixing,0.172094599995762
2091,United Kingdom,Oilcrops N-fixing,0.329205884737894
2021,Tanzania,Oilcrops N-fixing,0.28785385995172
2053,Tanzania,Oilcrops N-fixing,0.406858730446547
2054,Tanzania,Oilcrops N-fixing,0.906940905861557
2056,Tanzania,Oilcrops N-fixing,0.717325860150159
2086,Tanzania,Oilcrops N-fixing,0.291809687390924
2033,United States of America,Oilcrops N-fixing,0.855569526730105
2073,United States of America,Oilcrops N-fixing,0.456987034054473
2080,United States of America,Oilcrops N-fixing,0.42105496940203
2049,Uruguay,Oilcrops N-fixing,0.841462086346001
2045,Uzbekistan,Oilcrops N-fixing,1.02773696328513
2070,Uzbekistan,Oilcrops N-fixing,0.376932204049081
2037,Venezuela,Oilcrops N-fixing,0.358858060101047
2051,Venezuela,Oilcrops N-fixing,0.0534822634700686
2043,Viet Nam,Oilcrops N-fixing,0.998550867978483
2058,Viet Nam,Oilcrops N-fixing,0.359683428136632
2094,Viet Nam,Oilcrops N-fixing,0.755485122278333
2063,Yemen,Oilcrops N-fixing,0.873950586877763
2078,Yemen,Oilcrops N-fixing,0.995566833475605
2057,Zambia,Oilcrops N-fixing,0.12603093684651
2069,Zambia,Oilcrops N-fixing,0.333555084299296
2071,Zambia,Oilcrops N-fixing,0.674973243363202
2077,Zambia,Oilcrops N-fixing,0.125837421100587
2095,Zambia,Oilcrops N-fixing,0.279082792671397
2086,Zimbabwe,Oilcrops N-fixing,0.27127216658555
2032,Algeria,Oilcrops Other,0.553763576420024
2051,Angola,Oilcrops Other,0.286060760896653
2073,Angola,Oilcrops Other,0.12020948854275
2078,Angola,Oilcrops Other,0.341551182083786
2099,Angola,Oilcrops Other,0.235162775032222
2034,Armenia,Oilcrops Other,0.397112418729812
2085,Caribbean Other,Oilcrops Other,0.638962198235095
2044,Bangladesh,Oilcrops Other,0.526497844252735
2074,Belarus,Oilcrops Other,0.256359326951206
2090,Belgium & Luxembourg,Oilcrops Other,0.457765343040228
2095,Guatemala & Belize,Oilcrops Other,0.185522730322555
2066,Benin,Oilcrops Other,0.488829744867981
2063,Bhutan,Oilcrops Other,0.132021367400885
2086,Bolivia,Oilcrops Other,0.262479332415387
2079,Brazil,Oilcrops Other,0.843101185485721
2084,Brazil,Oilcrops Other,0.962570373434573
2089,Brazil,Oilcrops Other,0.126180233247578
2039,Malaysia Singapore & Brunei,Oilcrops Other,0.546711418284103
2093,Malaysia Singapore & Brunei,Oilcrops Other,0.297103126859292
2068,Bulgaria,Oilcrops Other,0.249458710374311
2080,Burkina Faso,Oilcrops Other,0.45308205303736
2095,Burkina Faso,Oilcrops Other,0.331036434322596
2040,Burundi,Oilcrops Other,0.578976382315159
2057,Burundi,Oilcrops Other,0.336592443529517
2034,Senegal Gambia & Cabo Verde,Oilcrops Other,0.293351854216307
2066,Senegal Gambia & Cabo Verde,Oilcrops Other,0.699710289277136
2078,Cambodia,Oilcrops Other,0.260877860141918
2038,Cameroon,Oilcrops Other,0.454160298164934
2067,Cameroon,Oilcrops Other,0.41231072280556
2077,Canada,Oilcrops Other,0.324588791755959
2061,Central African Republic,Oilcrops Other,0.695190647970885
2051,Chad,Oilcrops Other,0.641494104992598
2093,Chad,Oilcrops Other,0.411983452690765
2077,China,Oilcrops Other,0.300263731330633
2027,Colombia,Oilcrops Other,0.458070975178853
2049,Colombia,Oilcrops Other,0.0382483406178653
2038,Madagascar & Indian Ocean,Oilcrops Other,0.496293405713514
2097,Madagascar & Indian Ocean,Oilcrops Other,0.803341906191781
2047,Congo,Oilcrops Other,0.342822674345225
2049,Congo,Oilcrops Other,0.44066696215421
2073,Congo,Oilcrops Other,0.418821828849614
2081,Costa Rica,Oilcrops Other,0.563207515934482
2082,Costa Rica,Oilcrops Other,0.186900123907253
2085,Cote dIvoire,Oilcrops Other,0.36209586923942
2086,Cote dIvoire,Oilcrops Other,0.52102881455794
2081,Croatia,Oilcrops Other,0.411691923206672
2089,Croatia,Oilcrops Other,0.25378110408783
2073,Cuba,Oilcrops Other,0.920589625779539
2091,Cyprus,Oilcrops Other,0.268178690271452
2100,Cyprus,Oilcrops Other,0.438044140022248
2089,North Korea,Oilcrops Other,0.170628189668059
2061,Denmark,Oilcrops Other,0.198209259454161
2093,Denmark,Oilcrops Other,0.80282066767104
2094,Dominican Republic,Oilcrops Other,0.397269805008546
2078,Ecuador,Oilcrops Other,0.490499243177474
2077,Egypt,Oilcrops Other,0.129511773595586
2036,El Salvador,Oilcrops Other,0.718076708242297
2068,El Salvador,Oilcrops Other,0.195026542609558
2071,El Salvador,Oilcrops Other,0.672179529098794
2085,El Salvador,Oilcrops Other,0.637390203308314
2091,El Salvador,Oilcrops Other,0.5299989156425
2028,Equatorial Guinea,Oilcrops Other,0.311434743823484
2065,Equatorial Guinea,Oilcrops Other,0.325957208126783
2072,Equatorial Guinea,Oilcrops Other,0.222242702133954
2089,Equatorial Guinea,Oilcrops Other,0.332038163114339
2090,Eritrea,Oilcrops Other,0.652658548671752
2100,Eritrea,Oilcrops Other,0.207563821319491
2034,Estonia,Oilcrops Other,0.270547364810482
2071,Estonia,Oilcrops Other,0.0725789975188673
2081,Estonia,Oilcrops Other,0.597894517052919
2063,Eswatini,Oilcrops Other,0.463385221632198
2091,Eswatini,Oilcrops Other,0.144751882599667
2059,Ethiopia,Oilcrops Other,0.281039048563689
2075,Pacific Other,Oilcrops Other,0.689851701632142
2095,Pacific Other,Oilcrops Other,0.714070218103007
2047,Finland,Oilcrops Other,0.115916946260259
2073,Gabon & Sao Tome,Oilcrops Other,0.921551456199959
2044,Germany,Oilcrops Other,0.141798598011956
2035,Ghana,Oilcrops Other,0.354955700132996
2036,Ghana,Oilcrops Other,0.386551882307977
2062,Ghana,Oilcrops Other,0.558417674070224
2069,Greece,Oilcrops Other,0.44145174796693
2097,Greece,Oilcrops Other,0.151390522625297
2048,Guinea,Oilcrops Other,0.729799176044762
2082,Guinea,Oilcrops Other,0.201516987290233
2040,Guyana,Oilcrops Other,0.409241315210238
2054,Haiti,Oilcrops Other,0.46341031675227
2058,Honduras,Oilcrops Other,0.234658832605928
2074,Honduras,Oilcrops Other,0.584829248832539
2081,Honduras,Oilcrops Other,0.436776721524075
2085,Honduras,Oilcrops Other,0.111573968315497
2095,Honduras,Oilcrops Other,0.80771739827469
2097,Honduras,Oilcrops Other,0.462468124274164
2047,Hungary,Oilcrops Other,0.430754985343665
2070,Iceland,Oilcrops Other,0.296863466314971
2081,Iceland,Oilcrops Other,0.358816006127745
2084,Iceland,Oilcrops Other,0.423567922413349
2099,Iceland,Oilcrops Other,0.349186782259494
2078,Indonesia,Oilcrops Other,0.195292357718572
2100,Indonesia,Oilcrops Other,0.275105427531526
2082,Iran,Oilcrops Other,0.315767433820292
2052,Iraq,Oilcrops Other,0.500816751047969
2096,Iraq,Oilcrops Other,0.801817227806896
2063,Italy & Malta,Oilcrops Other,0.572220276938751
2087,Japan,Oilcrops Other,0.270703105721623
2056,Jordan,Oilcrops Other,0.614802463660017
2094,Jordan,Oilcrops Other,0.158378536859527
2062,Kenya,Oilcrops Other,0.225504181170836
2078,Kenya,Oilcrops Other,0.32278056493029
2084,Kenya,Oilcrops Other,1.03946548104286
2081,Kuwait,Oilcrops Other,0.163358909823
2058,Laos,Oilcrops Other,0.207890612063929
2071,Laos,Oilcrops Other,0.319796414002776
2069,Latvia,Oilcrops Other,0.19925553958863
2083,Latvia,Oilcrops Other,0.319002415798604
2032,Lesotho,Oilcrops Other,0.468787799552083
2063,Lesotho,Oilcrops Other,0.1746787581034
2091,Lesotho,Oilcrops Other,0.348549868632108
2064,Libya,Oilcrops Other,0.444328338904306
2064,Lithuania,Oilcrops Other,0.43122576658614
2069,Lithuania,Oilcrops Other,0.522879992490634
2056,Malawi,Oilcrops Other,0.337251573503017
2066,Mali,Oilcrops Other,0.122721672412008
2096,Mauritania,Oilcrops Other,0.780684652971104
2088,Mexico,Oilcrops Other,0.203335764817894
2081,Mongolia,Oilcrops Other,0.39735832773149
2093,Mongolia,Oilcrops Other,0.78049049875699
2080,Montenegro,Oilcrops Other,0.426402557641268
2021,Morocco,Oilcrops Other,0.47875155958347
2099,Myanmar,Oilcrops Other,0.281725277611986
2049,Namibia,Oilcrops Other,0.0406652440037578
2052,Namibia,Oilcrops Other,0.447139035640284
2085,Namibia,Oilcrops Other,0.0959106701426208
2093,Namibia,Oilcrops Other,0.186797136859968
2089,Nepal,Oilcrops Other,0.185067899757996
2051,Netherlands,Oilcrops Other,0.0708927928283811
2033,New Zealand,Oilcrops Other,0.510153905712068
2067,Nicaragua,Oilcrops Other,0.246996778585017
2084,Nicaragua,Oilcrops Other,0.662960116053
2088,Nicaragua,Oilcrops Other,0.287879141420126
2091,Nicaragua,Oilcrops Other,0.304201874276623
2074,Nigeria,Oilcrops Other,0.76050290173851
2079,Nigeria,Oilcrops Other,0.204089573929086
2044,North Macedonia,Oilcrops Other,0.508458674484864
2099,North Macedonia,Oilcrops Other,0.196042080689222
2076,Oman,Oilcrops Other,0.648155777743086
2083,Oman,Oilcrops Other,0.31754607972689
2067,Pakistan,Oilcrops Other,0.081233293665573
2039,Panama,Oilcrops Other,0.232973221708089
2037,Papua New Guinea,Oilcrops Other,0.437882527159527
2087,Papua New Guinea,Oilcrops Other,0.181511218752712
2053,Paraguay,Oilcrops Other,0.260424091378227
2097,Paraguay,Oilcrops Other,0.819719135435298
2054,Philippines,Oilcrops Other,0.560354915373027
2024,Poland,Oilcrops Other,0.289610663773492
2080,Portugal,Oilcrops Other,0.368927728291601
2087,Portugal,Oilcrops Other,0.45596429342404
2066,Moldova,Oilcrops Other,0.306059641744941
2090,Romania,Oilcrops Other,0.542493783077225
2040,Russia,Oilcrops Other,0.511494302516803
2024,Rwanda,Oilcrops Other,0.44177109698765
2078,Rwanda,Oilcrops Other,0.865925707798451
2088,Rwanda,Oilcrops Other,0.0859194726217538
2036,Serbia,Oilcrops Other,0.573697759425268
2041,Serbia,Oilcrops Other,0.693599226726219
2072,Serbia,Oilcrops Other,0.354321075705811
2049,Slovakia,Oilcrops Other,0.659933647112921
2057,Somalia,Oilcrops Other,0.889372363230214
2034,South Africa,Oilcrops Other,0.51737011840567
2067,South Africa,Oilcrops Other,0.228574282592163
2080,South Sudan,Oilcrops Other,0.542865921277553
2081,South Sudan,Oilcrops Other,0.21106772236526
2034,Suriname,Oilcrops Other,0.499469871697947
2073,Suriname,Oilcrops Other,0.615104468669742
2086,Suriname,Oilcrops Other,0.425240263249725
2089,Suriname,Oilcrops Other,0.451265408145264
2097,Suriname,Oilcrops Other,0.316449436172843
2091,Sweden,Oilcrops Other,0.489177902461961
2050,Switzerland,Oilcrops Other,0.137027715938166
2088,Switzerland,Oilcrops Other,0.121873603155836
2043,Thailand,Oilcrops Other,0.10032272878103
2067,Thailand,Oilcrops Other,0.3115862931218
2048,Togo,Oilcrops Other,0.165307042738423
2084,Togo,Oilcrops Other,0.443647639127448
2087,Togo,Oilcrops Other,0.677810924407095
2091,Togo,Oilcrops Other,0.422762722801417
2068,Tunisia,Oilcrops Other,0.252393586132675
2073,Tunisia,Oilcrops Other,0.525370158245787
2086,Tunisia,Oilcrops Other,0.378064262168482
2058,Turkiye,Oilcrops Other,0.506631407970563
2087,Turkmenistan,Oilcrops Other,0.65277873496525
2099,Turkmenistan,Oilcrops Other,0.964248290052637
2051,Uganda,Oilcrops Other,0.404503027703613
2052,Uganda,Oilcrops Other,0.704407326187939
2057,Uganda,Oilcrops Other,0.196554764928296
2088,Uganda,Oilcrops Other,0.335531015787274
2100,Uganda,Oilcrops Other,0.913944405782968
2075,Ukraine,Oilcrops Other,0.48550956742838
2079,Ukraine,Oilcrops Other,0.250880142459646
2092,Ukraine,Oilcrops Other,0.188703324878588
2037,United Arab Emirates,Oilcrops Other,0.496094298139215
2057,United Arab Emirates,Oilcrops Other,0.484011581689119
2069,United Arab Emirates,Oilcrops Other,0.977998091112822
2088,United Arab Emirates,Oilcrops Other,0.463636878784746
2022,United States of America,Oilcrops Other,0.226164040630683
2098,United States of America,Oilcrops Other,0.229647978721187
2074,Uruguay,Oilcrops Other,0.17345943084918
2047,Uzbekistan,Oilcrops Other,0.629420910552144
2078,Uzbekistan,Oilcrops Other,0.682882067644969
2096,Uzbekistan,Oilcrops Other,0.336481668055058
2067,Venezuela,Oilcrops Other,0.476235092906281
2023,Viet Nam,Oilcrops Other,0.0835798688605428
2090,Zambia,Oilcrops Other,0.405023171845824
2098,Zambia,Oilcrops Other,0.39599976032041
2063,Zimbabwe,Oilcrops Other,0.402332878801972
2081,Zimbabwe,Oilcrops Other,0.463588364468887
2074,Afghanistan,Pulses,0.344842915907502
2047,Albania,Pulses,0.284659098656848
2075,Algeria,Pulses,0.258468015491962
2091,Algeria,Pulses,0.549002549983561
2093,Algeria,Pulses,0.367652177950367
2097,Angola,Pulses,0.591851446125656
2074,Armenia,Pulses,0.337204915210605
2084,Armenia,Pulses,0.499779949244112
2089,Australia,Pulses,0.277520923875272
2031,Austria,Pulses,0.830254380945116
2043,Azerbaijan,Pulses,0.119692761069164
2055,Azerbaijan,Pulses,0.617127490974963
2080,Azerbaijan,Pulses,0.412851601233706
2087,Azerbaijan,Pulses,0.894151707971469
2096,Caribbean Other,Pulses,0.219194629183039
2049,Bahrain & Qatar,Pulses,0.627703956160694
2072,Bahrain & Qatar,Pulses,0.613293530661613
2081,Bahrain & Qatar,Pulses,0.470048392610624
2049,Bangladesh,Pulses,0.566466138344258
2052,Bangladesh,Pulses,0.268063760651276
2058,Bangladesh,Pulses,0.33565078465268
2063,Bangladesh,Pulses,0.266344119273126
2082,Belarus,Pulses,0.478947620140389
2073,Belgium & Luxembourg,Pulses,0.764560090275481
2074,Belgium & Luxembourg,Pulses,0.101920346096158
2083,Belgium & Luxembourg,Pulses,0.351072078524157
2098,Belgium & Luxembourg,Pulses,0.246532006328926
2087,Guatemala & Belize,Pulses,0.347566469898447
2022,Benin,Pulses,0.531996146133169
2040,Benin,Pulses,0.260665338719264
2055,Bolivia,Pulses,0.396926685795188
2065,Bolivia,Pulses,0.562925000069663
2070,Bolivia,Pulses,0.561021166807041
2091,Bolivia,Pulses,0.58801594376564
2095,Bolivia,Pulses,0.953260967414826
2074,Bosnia and Herzegovina,Pulses,0.379000826990232
2078,Bosnia and Herzegovina,Pulses,0.291666258582845
2034,Botswana,Pulses,0.448452437641099
2043,Brazil,Pulses,0.538936141077429
2044,Brazil,Pulses,0.244253079239279
2067,Brazil,Pulses,0.623994173910469
2087,Brazil,Pulses,0.455103220883757
2060,Malaysia Singapore & Brunei,Pulses,0.25733940852806
2063,Malaysia Singapore & Brunei,Pulses,0.981552228881046
2080,Malaysia Singapore & Brunei,Pulses,0.294809078099206
2084,Malaysia Singapore & Brunei,Pulses,0.376539705460891
2064,Bulgaria,Pulses,0.201466877637431
2096,Burundi,Pulses,0.358566667698324
2021,Senegal Gambia & Cabo Verde,Pulses,0.0618733022175729
2074,Senegal Gambia & Cabo Verde,Pulses,0.588777770586312
2079,Cameroon,Pulses,0.224912487454712
2040,Canada,Pulses,0.207093094987795
2042,Canada,Pulses,0.0721866898797452
2045,Canada,Pulses,0.162062517367303
2060,Canada,Pulses,0.415702150529251
2070,Canada,Pulses,0.45715358639136
2072,Canada,Pulses,0.135725322514772
2088,Canada,Pulses,1.03352113575675
2091,Canada,Pulses,0.118922237213701
2030,Central African Republic,Pulses,0.238645686674863
2061,Central African Republic,Pulses,0.413988377507776
2063,Central African Republic,Pulses,0.546263300292194
2090,Central African Republic,Pulses,0.200993154989556
2092,Central African Republic,Pulses,0.628004222782329
2046,Chad,Pulses,0.0669564916566014
2078,Chad,Pulses,0.428468257505447
2085,Chad,Pulses,0.816975121945143
2064,China,Pulses,0.390175202088431
2052,Madagascar & Indian Ocean,Pulses,0.191743057416752
2072,Madagascar & Indian Ocean,Pulses,0.292369505027309
2079,Madagascar & Indian Ocean,Pulses,0.429506797967479
2088,Congo,Pulses,0.880378548428416
2079,Cote dIvoire,Pulses,0.670022786706686
2088,Cuba,Pulses,0.437364075239748
2070,Czechia,Pulses,0.382724677491933
2097,Czechia,Pulses,0.225675263488665
2036,DR Congo,Pulses,0.347434645174071
2080,DR Congo,Pulses,0.44753625956364
2058,Denmark,Pulses,0.169641604777426
2085,Djibouti,Pulses,0.164994615362957
2067,Dominican Republic,Pulses,0.324605987509713
2094,Dominican Republic,Pulses,0.194418049138039
2049,Egypt,Pulses,0.132239801362157
2050,Egypt,Pulses,0.57705734106712
2077,Egypt,Pulses,0.443152110474184
2100,Egypt,Pulses,0.303229553904384
2074,El Salvador,Pulses,0.364007415780798
2063,Eritrea,Pulses,0.389564785445109
2067,Eritrea,Pulses,1.00627497309819
2096,Eritrea,Pulses,0.480268133804202
2074,Estonia,Pulses,0.207315556583926
2071,Eswatini,Pulses,0.59590849515982
2090,Eswatini,Pulses,0.79730532723479
2089,Ethiopia,Pulses,0.205262728175148
2058,Gabon & Sao Tome,Pulses,0.626991136223078
2075,Georgia,Pulses,0.0818158430978656
2063,Germany,Pulses,0.326961180372164
2086,Germany,Pulses,0.107238332554698
2090,Germany,Pulses,0.312600159784779
2097,Germany,Pulses,0.33799403286539
2052,Ghana,Pulses,0.252240740098059
2057,Ghana,Pulses,0.300163984028623
2069,Ghana,Pulses,0.582138649253175
2035,Greece,Pulses,0.12028622450307
2049,Guinea-Bissau,Pulses,0.198684360245243
2067,Guinea-Bissau,Pulses,0.868375672642142
2082,Guinea-Bissau,Pulses,0.439659025566652
2085,Guinea-Bissau,Pulses,0.653942650137469
2081,Guyana,Pulses,0.120444854162633
2036,Haiti,Pulses,0.324597486648709
2048,Haiti,Pulses,0.260029615173116
2091,Haiti,Pulses,0.419480066699907
2065,Honduras,Pulses,0.623853668384254
2074,Hungary,Pulses,0.148935721926391
2084,Iceland,Pulses,0.329033515462652
2066,India,Pulses,0.181920735053718
2037,Iran,Pulses,0.303467454258353
2073,Iran,Pulses,0.233631469206885
2088,Iraq,Pulses,0.39300925526768
2098,Iraq,Pulses,0.238101086439565
2067,Ireland,Pulses,0.319165369877592
2072,Ireland,Pulses,0.391388853834942
2075,Ireland,Pulses,0.0995431694667786
2086,Ireland,Pulses,0.446009864797816
2081,Israel,Pulses,0.254068231163546
2085,Italy & Malta,Pulses,0.526926727918908
2039,Jordan,Pulses,0.853394353641197
2047,Jordan,Pulses,0.116531124999747
2063,Jordan,Pulses,0.426760872770101
2093,Jordan,Pulses,0.555030996538699
2050,Kazakhstan,Pulses,0.0970562992617488
2065,Kazakhstan,Pulses,0.626089784642682
2090,Kazakhstan,Pulses,0.446024289028719
2097,Kazakhstan,Pulses,0.490150796808302
2073,Kenya,Pulses,0.535328155979514
2068,Kuwait,Pulses,0.939636750975624
2070,Kuwait,Pulses,0.53495225943625
2091,Kuwait,Pulses,0.297214659349993
2041,Kyrgyzstan,Pulses,0.346256287656724
2072,Kyrgyzstan,Pulses,0.992026118990034
2094,Kyrgyzstan,Pulses,0.505404643015936
2099,Latvia,Pulses,0.319021511031315
2023,Lebanon,Pulses,0.974346172939986
2042,Lebanon,Pulses,0.566378639601171
2052,Lebanon,Pulses,0.0964222281333059
2057,Lebanon,Pulses,0.699263064106926
2062,Lebanon,Pulses,0.106793087357655
2075,Lebanon,Pulses,0.0812821588944644
2092,Lebanon,Pulses,0.156716455193236
2057,Lesotho,Pulses,0.673959549944848
2068,Liberia,Pulses,0.368457950130105
2070,Liberia,Pulses,0.959893124969676
2053,Libya,Pulses,0.588737091459334
2062,Libya,Pulses,0.308766996311024
2089,Libya,Pulses,0.985362004581839
2078,Lithuania,Pulses,0.65060920830816
2070,Malawi,Pulses,0.934151267772541
2073,Malawi,Pulses,0.347312092445791
2082,Malawi,Pulses,0.186550047667697
2091,Malawi,Pulses,0.290972418896854
2057,Sri Lanka & Maldives,Pulses,0.435941841742024
2040,Mali,Pulses,0.586499429214746
2086,Mali,Pulses,0.541034604981542
2091,Mauritania,Pulses,0.416829899372533
2046,Mexico,Pulses,0.747571881748736
2100,Mexico,Pulses,0.888319141138345
2073,Montenegro,Pulses,0.966480580754578
2077,Morocco,Pulses,0.556467616613954
2085,Morocco,Pulses,0.402239764807746
2072,Mozambique,Pulses,0.652099889386445
2099,Mozambique,Pulses,0.360145944310352
2062,Myanmar,Pulses,0.183383970856667
2097,Myanmar,Pulses,0.450807441398501
2072,Nepal,Pulses,0.556683987900615
2077,Nepal,Pulses,0.18957863567397
2096,Nepal,Pulses,1.01452286029235
2075,New Zealand,Pulses,0.0959646277595311
2045,Nicaragua,Pulses,0.682359804771841
2080,Nicaragua,Pulses,0.303630088409409
2073,Niger,Pulses,0.371546962428838
2075,Niger,Pulses,0.368756596744061
2066,Nigeria,Pulses,0.0989725400041789
2055,North Macedonia,Pulses,0.781897745653987
2085,North Macedonia,Pulses,0.252379580726847
2100,North Macedonia,Pulses,0.109175187209621
2074,Oman,Pulses,1.01337010764517
2052,Pakistan,Pulses,0.514670490529388
2086,Panama,Pulses,0.313801914593205
2076,Paraguay,Pulses,0.392566252620891
2078,Paraguay,Pulses,0.228850947264582
2039,Peru,Pulses,0.834414019966498
2076,Peru,Pulses,0.533141221366823
2024,Portugal,Pulses,0.382260878775269
2044,Portugal,Pulses,0.0832556393649429
2095,Portugal,Pulses,0.197967360774055
2073,South Korea,Pulses,0.575846482058987
2025,Moldova,Pulses,0.0795784143730998
2097,Moldova,Pulses,0.818505539605394
2087,Romania,Pulses,0.37475697780028
2092,Romania,Pulses,0.19160682130605
2074,Russia,Pulses,0.41033634359017
2026,Saudi Arabia,Pulses,0.955157011495903
2099,Serbia,Pulses,0.110415962478146
2063,Sierra Leone,Pulses,0.416317115016282
2056,Slovenia,Pulses,0.23357918032445
2085,Somalia,Pulses,0.868602296197787
2095,Somalia,Pulses,0.325996056757867
2097,Somalia,Pulses,0.314619961893186
2083,South Africa,Pulses,0.324190505128354
2094,South Africa,Pulses,0.933322146581486
2081,South Sudan,Pulses,0.445440998813137
2084,South Sudan,Pulses,0.308302476629615
2069,Spain,Pulses,0.832754501579329
2079,Spain,Pulses,0.548910141196102
2088,Spain,Pulses,0.366065486241132
2060,Suriname,Pulses,0.330684656277299
2078,Suriname,Pulses,0.358282187292352
2100,Suriname,Pulses,0.110493121948093
2074,Sweden,Pulses,0.1782065113727
2090,Switzerland,Pulses,0.320586492586881
2091,Switzerland,Pulses,0.108042289782315
2036,Syria,Pulses,1.01860613904893
2080,Tajikistan,Pulses,0.971932585118338
2088,Tajikistan,Pulses,0.342416469007731
2091,Tajikistan,Pulses,0.508356946660206
2063,Thailand,Pulses,0.389065140429884
2083,Thailand,Pulses,0.143408498447388
2095,Thailand,Pulses,0.283158043306321
2031,Timor-Leste,Pulses,0.240882163802162
2070,Tunisia,Pulses,0.293712048511952
2072,Tunisia,Pulses,0.443684011194855
2099,Tunisia,Pulses,0.588673431938514
2098,Turkmenistan,Pulses,0.642460238048807
2074,Uganda,Pulses,0.185535690439865
2062,United Arab Emirates,Pulses,0.967868139790371
2082,United Arab Emirates,Pulses,0.214693186338991
2089,United Arab Emirates,Pulses,0.555751189123839
2067,Tanzania,Pulses,0.131190786054358
2080,United States of America,Pulses,0.176867142459378
2091,United States of America,Pulses,1.03852414237335
2093,United States of America,Pulses,0.279228282393888
2095,Uruguay,Pulses,0.946094895713031
2088,Uzbekistan,Pulses,0.321688253758475
2046,Venezuela,Pulses,0.260975761692971
2074,Venezuela,Pulses,0.517947666458786
2093,Venezuela,Pulses,0.937306223111227
2077,Viet Nam,Pulses,0.42044523531571
2046,Yemen,Pulses,0.19127804919146
2076,Yemen,Pulses,0.124479572921991
2030,Zambia,Pulses,0.549911096319556
2081,Zimbabwe,Pulses,0.105211359076202
2090,Zimbabwe,Pulses,1.04813299463131
2097,Zimbabwe,Pulses,0.290708625828847
2036,Afghanistan,Rice (Paddy Equivalent),0.0877691085264087
2076,Afghanistan,Rice (Paddy Equivalent),0.266308170352131
2090,Algeria,Rice (Paddy Equivalent),0.653323180833831
2086,Angola,Rice (Paddy Equivalent),0.535942405369133
2089,Angola,Rice (Paddy Equivalent),0.228117728605866
2097,Angola,Rice (Paddy Equivalent),0.446352485613897
2034,Armenia,Rice (Paddy Equivalent),0.187917933445424
2069,Australia,Rice (Paddy Equivalent),0.105057633826509
2078,Australia,Rice (Paddy Equivalent),0.246412641592324
2052,Austria,Rice (Paddy Equivalent),0.14593941686675
2092,Azerbaijan,Rice (Paddy Equivalent),0.105960667971522
2038,Caribbean Other,Rice (Paddy Equivalent),0.733851216351613
2068,Bangladesh,Rice (Paddy Equivalent),0.177350100260228
2063,Belgium & Luxembourg,Rice (Paddy Equivalent),0.144205561550334
2077,Bhutan,Rice (Paddy Equivalent),0.361044947626069
2100,Bhutan,Rice (Paddy Equivalent),0.166256113024428
2069,Bosnia and Herzegovina,Rice (Paddy Equivalent),0.629622448114678
2058,Botswana,Rice (Paddy Equivalent),0.195866344021633
2078,Botswana,Rice (Paddy Equivalent),1.06818585650995
2086,Botswana,Rice (Paddy Equivalent),0.625550490058959
2096,Botswana,Rice (Paddy Equivalent),0.199261434655637
2059,Malaysia Singapore & Brunei,Rice (Paddy Equivalent),0.0507605585921556
2069,Malaysia Singapore & Brunei,Rice (Paddy Equivalent),0.322793120397255
2046,Bulgaria,Rice (Paddy Equivalent),0.0784175639320165
2055,Burkina Faso,Rice (Paddy Equivalent),0.287569654034451
2075,Burundi,Rice (Paddy Equivalent),0.825464265840128
2050,Senegal Gambia & Cabo Verde,Rice (Paddy Equivalent),0.485612318618223
2073,Cameroon,Rice (Paddy Equivalent),0.163048509918153
2075,Canada,Rice (Paddy Equivalent),0.27484994395636
2076,Central African Republic,Rice (Paddy Equivalent),0.104549966547638
2075,Chad,Rice (Paddy Equivalent),0.125922606233507
2058,Madagascar & Indian Ocean,Rice (Paddy Equivalent),0.19566508796066
2093,Costa Rica,Rice (Paddy Equivalent),1.01265543755144
2054,Croatia,Rice (Paddy Equivalent),0.26193132779561
2076,Cuba,Rice (Paddy Equivalent),0.375335270427167
2092,Cyprus,Rice (Paddy Equivalent),0.508527464838698
2084,North Korea,Rice (Paddy Equivalent),0.145106788864359
2078,DR Congo,Rice (Paddy Equivalent),0.222183458218351
2054,Djibouti,Rice (Paddy Equivalent),0.615855458118022
2100,Djibouti,Rice (Paddy Equivalent),0.237487193010747
2084,Dominican Republic,Rice (Paddy Equivalent),0.784010642813519
2055,Ecuador,Rice (Paddy Equivalent),0.191417333623394
2084,Egypt,Rice (Paddy Equivalent),0.112762705702335
2092,Egypt,Rice (Paddy Equivalent),0.233298298018053
2029,El Salvador,Rice (Paddy Equivalent),0.0196611042320728
2044,El Salvador,Rice (Paddy Equivalent),0.236138611771166
2097,El Salvador,Rice (Paddy Equivalent),0.216476744459942
2100,El Salvador,Rice (Paddy Equivalent),0.0852739167865366
2078,Eritrea,Rice (Paddy Equivalent),0.145021068202332
2086,Estonia,Rice (Paddy Equivalent),0.665622654976323
2039,Eswatini,Rice (Paddy Equivalent),0.15517546559684
2074,Eswatini,Rice (Paddy Equivalent),0.203298989702016
2059,Ethiopia,Rice (Paddy Equivalent),0.228564060777426
2063,Gabon & Sao Tome,Rice (Paddy Equivalent),0.364325396567583
2092,Gabon & Sao Tome,Rice (Paddy Equivalent),0.680536941252649
2095,Georgia,Rice (Paddy Equivalent),0.449397881282494
2074,Ghana,Rice (Paddy Equivalent),0.116072084028274
2031,Guinea-Bissau,Rice (Paddy Equivalent),0.980078858258203
2071,Guinea-Bissau,Rice (Paddy Equivalent),0.0975167483370751
2052,Guyana,Rice (Paddy Equivalent),0.438209320614114
2092,Guyana,Rice (Paddy Equivalent),0.735525067010894
2033,Haiti,Rice (Paddy Equivalent),0.93723020859994
2097,Haiti,Rice (Paddy Equivalent),0.0802660638000816
2050,Honduras,Rice (Paddy Equivalent),0.387603335967287
2099,Indonesia,Rice (Paddy Equivalent),0.165790538862348
2076,Iran,Rice (Paddy Equivalent),0.194805817566812
2080,Iraq,Rice (Paddy Equivalent),0.474310695845634
2092,Israel,Rice (Paddy Equivalent),0.469062002655119
2029,Italy & Malta,Rice (Paddy Equivalent),0.0835364280454814
2051,Kenya,Rice (Paddy Equivalent),0.278462625229731
2084,Kenya,Rice (Paddy Equivalent),0.912694109184667
2093,Kenya,Rice (Paddy Equivalent),0.300438549323007
2051,Kuwait,Rice (Paddy Equivalent),0.868058706847951
2070,Kuwait,Rice (Paddy Equivalent),0.183246385166422
2069,Laos,Rice (Paddy Equivalent),0.112922158483416
2083,Lesotho,Rice (Paddy Equivalent),0.66063813525252
2090,Lesotho,Rice (Paddy Equivalent),0.643328814394772
2092,Lesotho,Rice (Paddy Equivalent),0.221241365047172
2022,Malawi,Rice (Paddy Equivalent),0.613156889528036
2061,Malawi,Rice (Paddy Equivalent),0.11874457186088
2050,Sri Lanka & Maldives,Rice (Paddy Equivalent),0.262990699289367
2069,Sri Lanka & Maldives,Rice (Paddy Equivalent),0.179652994563803
2081,Sri Lanka & Maldives,Rice (Paddy Equivalent),0.205948170647025
2053,Mali,Rice (Paddy Equivalent),0.216216274295002
2071,Mali,Rice (Paddy Equivalent),0.235104562556371
2097,Mauritania,Rice (Paddy Equivalent),0.234975257935002
2088,Mexico,Rice (Paddy Equivalent),0.182051185984164
2088,Mongolia,Rice (Paddy Equivalent),1.00643782294355
2033,Morocco,Rice (Paddy Equivalent),0.234816307472065
2059,Morocco,Rice (Paddy Equivalent),0.268985148072243
2092,Morocco,Rice (Paddy Equivalent),0.141438752412796
2098,Mozambique,Rice (Paddy Equivalent),0.113450206676498
2035,Namibia,Rice (Paddy Equivalent),0.370418829889968
2081,Namibia,Rice (Paddy Equivalent),0.459687895840034
2053,Nepal,Rice (Paddy Equivalent),0.23738995635882
2056,Nepal,Rice (Paddy Equivalent),0.393920928360894
2087,Nepal,Rice (Paddy Equivalent),0.857151151960716
2085,Netherlands,Rice (Paddy Equivalent),0.917186206486076
2089,New Zealand,Rice (Paddy Equivalent),0.660509991133586
2090,New Zealand,Rice (Paddy Equivalent),0.168766008503735
2094,New Zealand,Rice (Paddy Equivalent),0.151771454745904
2032,Nicaragua,Rice (Paddy Equivalent),0.209567898381501
2077,Nigeria,Rice (Paddy Equivalent),0.575431628022343
2041,North Macedonia,Rice (Paddy Equivalent),0.224528756067157
2096,Norway,Rice (Paddy Equivalent),0.534899425739423
2042,Pakistan,Rice (Paddy Equivalent),0.571692113913596
2073,Pakistan,Rice (Paddy Equivalent),0.0876607888285071
2081,Pakistan,Rice (Paddy Equivalent),0.265923993662
2086,Pakistan,Rice (Paddy Equivalent),0.156712317140773
2089,Pakistan,Rice (Paddy Equivalent),0.862073486484587
2064,Panama,Rice (Paddy Equivalent),0.195474918438122
2094,Papua New Guinea,Rice (Paddy Equivalent),0.384857725119218
2095,Peru,Rice (Paddy Equivalent),0.432968351757154
2044,South Korea,Rice (Paddy Equivalent),0.298242618069053
2050,Moldova,Rice (Paddy Equivalent),0.376195446960628
2080,Moldova,Rice (Paddy Equivalent),0.169230115273967
2071,Russia,Rice (Paddy Equivalent),0.300547742545605
2038,Rwanda,Rice (Paddy Equivalent),0.65752386608161
2070,Rwanda,Rice (Paddy Equivalent),0.345896989107132
2082,Saudi Arabia,Rice (Paddy Equivalent),0.47490287120454
2049,Sierra Leone,Rice (Paddy Equivalent),0.666597186280415
2072,Sierra Leone,Rice (Paddy Equivalent),0.328644149713218
2095,Sierra Leone,Rice (Paddy Equivalent),0.15543341753073
2100,Sierra Leone,Rice (Paddy Equivalent),0.189679369423538
2089,Slovakia,Rice (Paddy Equivalent),0.180030899960548
2099,Slovakia,Rice (Paddy Equivalent),0.753137313760817
2044,Slovenia,Rice (Paddy Equivalent),0.049814069988206
2082,South Africa,Rice (Paddy Equivalent),0.362734034750611
2095,South Sudan,Rice (Paddy Equivalent),0.573434943053871
2099,Sudan,Rice (Paddy Equivalent),0.125245154928416
2036,Suriname,Rice (Paddy Equivalent),0.566049286425114
2080,Sweden,Rice (Paddy Equivalent),0.5377564039547
2063,Switzerland,Rice (Paddy Equivalent),0.286138622127473
2025,Syria,Rice (Paddy Equivalent),0.314295088080689
2049,Syria,Rice (Paddy Equivalent),0.931442455127835
2073,Syria,Rice (Paddy Equivalent),0.0714668539725244
2064,Tajikistan,Rice (Paddy Equivalent),0.0830315157957375
2078,Tajikistan,Rice (Paddy Equivalent),0.194010849054903
2094,Togo,Rice (Paddy Equivalent),0.264103300403804
2071,Tunisia,Rice (Paddy Equivalent),0.16371411963366
2096,Tunisia,Rice (Paddy Equivalent),0.930405792919919
2099,Tunisia,Rice (Paddy Equivalent),0.271329110115767
2081,Turkmenistan,Rice (Paddy Equivalent),0.0794083554763347
2082,Turkmenistan,Rice (Paddy Equivalent),0.420753443939611
2033,United Arab Emirates,Rice (Paddy Equivalent),0.536513321977109
2069,United Arab Emirates,Rice (Paddy Equivalent),0.651907082153484
2083,United Arab Emirates,Rice (Paddy Equivalent),0.177555708447471
2090,United Arab Emirates,Rice (Paddy Equivalent),0.202869149949402
2065,United Kingdom,Rice (Paddy Equivalent),0.403826805250719
2045,United States of America,Rice (Paddy Equivalent),0.582611038163304
2086,United States of America,Rice (Paddy Equivalent),0.516196598811075
2078,Uruguay,Rice (Paddy Equivalent),0.293749610884115
2064,Venezuela,Rice (Paddy Equivalent),0.174034014735371
2074,Viet Nam,Rice (Paddy Equivalent),0.168705719215795
2089,Yemen,Rice (Paddy Equivalent),0.402522732084617
2025,Zambia,Rice (Paddy Equivalent),0.265962447784841
2076,Zambia,Rice (Paddy Equivalent),0.429417853830382
2056,Zimbabwe,Rice (Paddy Equivalent),0.138002333818004
2093,Zimbabwe,Rice (Paddy Equivalent),0.265736831817776
2099,Zimbabwe,Rice (Paddy Equivalent),0.268300476484001
2066,Afghanistan,Ruminants,0.149838702594861
2047,Albania,Ruminants,0.191796063967049
2079,Albania,Ruminants,0.81765288782306
2061,Argentina,Ruminants,0.231769774975255
2037,Azerbaijan,Ruminants,0.267082339255139
2049,Belgium & Luxembourg,Ruminants,0.0933474908769131
2088,Belgium & Luxembourg,Ruminants,0.441960037266836
2068,Guatemala & Belize,Ruminants,0.872495493562892
2072,Benin,Ruminants,0.653871473120526
2081,Benin,Ruminants,0.952418115874752
2046,Bhutan,Ruminants,0.657655850546435
2082,Bhutan,Ruminants,0.178679134696722
2064,Bosnia and Herzegovina,Ruminants,0.0744761987309903
2074,Botswana,Ruminants,0.0987841650098562
2084,Brazil,Ruminants,1.03827583724633
2056,Malaysia Singapore & Brunei,Ruminants,0.0522575388010591
2027,Burkina Faso,Ruminants,0.353722468027845
2079,Burkina Faso,Ruminants,0.203956381343305
2086,Burkina Faso,Ruminants,0.201630276208743
2067,China,Ruminants,0.694783735051751
2091,Madagascar & Indian Ocean,Ruminants,0.13328117839992
2100,Madagascar & Indian Ocean,Ruminants,0.889614500897005
2093,Congo,Ruminants,0.36363849141635
2090,Costa Rica,Ruminants,0.234810218354687
2056,Czechia,Ruminants,0.367945636603981
2072,DR Congo,Ruminants,0.180895808115602
2053,Ecuador,Ruminants,1.0109737632703
2072,Eritrea,Ruminants,0.261945186611265
2048,Eswatini,Ruminants,0.687129052532837
2040,Ethiopia,Ruminants,0.127746907714754
2088,Ethiopia,Ruminants,0.216214608214796
2051,Finland,Ruminants,0.390802197931334
2081,Finland,Ruminants,0.075937279779464
2038,France,Ruminants,0.401504868399352
2022,Gabon & Sao Tome,Ruminants,0.0673039052262902
2087,Gabon & Sao Tome,Ruminants,0.709308683872223
2037,Germany,Ruminants,0.0961632554978132
2051,Iceland,Ruminants,0.0699370923265815
2073,Iran,Ruminants,0.204128715526313
2084,Iran,Ruminants,0.328216836042702
2100,Iran,Ruminants,0.946671769628301
2042,Iraq,Ruminants,0.255319719864056
2052,Ireland,Ruminants,0.0629538952931762
2059,Israel,Ruminants,0.351679170848802
2089,Israel,Ruminants,0.223738817451522
2097,Israel,Ruminants,0.117592318961397
2046,Jordan,Ruminants,0.344667752161622
2077,Jordan,Ruminants,0.899405045444146
2082,Jordan,Ruminants,0.191723648598418
2092,Kazakhstan,Ruminants,0.338794385781512
2081,Laos,Ruminants,0.667366245714948
2082,Lebanon,Ruminants,0.792445436678827
2058,Lesotho,Ruminants,0.282404509643093
2053,Libya,Ruminants,0.229190039252862
2061,Libya,Ruminants,0.0932365816831589
2057,Lithuania,Ruminants,0.159929987424985
2035,Malawi,Ruminants,0.74424340473488
2058,Malawi,Ruminants,0.0565021896641701
2090,Mauritania,Ruminants,0.562237235577777
2083,Montenegro,Ruminants,0.717823501303792
2079,Morocco,Ruminants,0.0742829641047865
2084,Morocco,Ruminants,0.451455161161721
2100,Morocco,Ruminants,0.924708885233849
2057,Myanmar,Ruminants,0.480757303545252
2059,Myanmar,Ruminants,0.164289907990024
2069,Myanmar,Ruminants,0.193425580179319
2038,Nepal,Ruminants,0.0674078515637666
2061,Nepal,Ruminants,0.104735768986866
2055,Netherlands,Ruminants,0.322985527431592
2066,Netherlands,Ruminants,0.278413864299655
2089,Niger,Ruminants,0.205839198129252
2059,North Macedonia,Ruminants,0.69255991384387
2068,North Macedonia,Ruminants,0.13326204678975
2084,North Macedonia,Ruminants,0.655659201182425
2073,Pakistan,Ruminants,1.0293130500149
2087,Pakistan,Ruminants,0.471815211325884
2037,Paraguay,Ruminants,0.658628186127171
2096,Peru,Ruminants,0.608526092674583
2100,Poland,Ruminants,0.0964423305355012
2050,Moldova,Ruminants,0.170010706596077
2022,Slovakia,Ruminants,0.177963648932055
2086,Slovakia,Ruminants,0.114307332783937
2077,Slovenia,Ruminants,0.20301928604953
2098,South Africa,Ruminants,0.0992570973001421
2055,South Sudan,Ruminants,0.181254408881068
2031,Spain,Ruminants,0.773949758643285
2062,Spain,Ruminants,0.160331487432122
2093,Switzerland,Ruminants,0.299681563023478
2071,Syria,Ruminants,0.0748771918751299
2091,Syria,Ruminants,0.0764633501879871
2028,Taiwan,Ruminants,0.459342573154718
2090,Taiwan,Ruminants,0.694908361975104
2077,Togo,Ruminants,0.184554692786187
2059,Tunisia,Ruminants,0.94109079439193
2092,Tunisia,Ruminants,0.2455873248633
2062,Turkmenistan,Ruminants,0.216871278649196
2088,United Kingdom,Ruminants,0.225183136388659
2066,Tanzania,Ruminants,0.234921441674232
2068,Tanzania,Ruminants,0.33795788878575
2070,Uruguay,Ruminants,0.12667268938385
2090,Viet Nam,Ruminants,0.313610680028796
2079,Yemen,Ruminants,0.205643219565973
2082,Zambia,Ruminants,0.122567322710529
2081,Zimbabwe,Ruminants,0.220390387577936
2067,Albania,Starchy Roots,0.705261328034103
2077,Albania,Starchy Roots,0.485833520172164
2034,Algeria,Starchy Roots,0.0530377767235041
2084,Algeria,Starchy Roots,0.672923889523372
2054,Austria,Starchy Roots,0.529923193547875
2081,Austria,Starchy Roots,0.161068422626704
2073,Azerbaijan,Starchy Roots,0.956724240900949
2089,Azerbaijan,Starchy Roots,0.344835034245625
2069,Caribbean Other,Starchy Roots,0.653146328143776
2082,Caribbean Other,Starchy Roots,0.116090589482337
2058,Bahrain & Qatar,Starchy Roots,0.261766929915175
2098,Bangladesh,Starchy Roots,0.129038409655914
2035,Belarus,Starchy Roots,0.248795143887401
2064,Belarus,Starchy Roots,0.444003668306395
2081,Belarus,Starchy Roots,0.230097577907145
2092,Belgium & Luxembourg,Starchy Roots,0.392215666547418
2035,Guatemala & Belize,Starchy Roots,0.0872153616975993
2058,Guatemala & Belize,Starchy Roots,0.104852491468191
2086,Guatemala & Belize,Starchy Roots,0.774627262121066
2044,Bolivia,Starchy Roots,0.11346686065197
2050,Bolivia,Starchy Roots,0.0608452024869621
2053,Bolivia,Starchy Roots,0.43021164605394
2084,Bolivia,Starchy Roots,0.29804715346545
2100,Bolivia,Starchy Roots,0.879315438726917
2090,Bosnia and Herzegovina,Starchy Roots,0.245708031347021
2069,Botswana,Starchy Roots,0.303006131872535
2034,Brazil,Starchy Roots,0.0671888007968664
2062,Brazil,Starchy Roots,0.760976557163522
2099,Brazil,Starchy Roots,0.128628875594586
2026,Malaysia Singapore & Brunei,Starchy Roots,0.017486526472494
2074,Malaysia Singapore & Brunei,Starchy Roots,0.104862314667553
2097,Malaysia Singapore & Brunei,Starchy Roots,0.224998387740925
2059,Bulgaria,Starchy Roots,0.904461176432669
2064,Bulgaria,Starchy Roots,0.063930039871484
2073,Bulgaria,Starchy Roots,0.362895535342395
2074,Bulgaria,Starchy Roots,0.320189944487065
2093,Bulgaria,Starchy Roots,0.190279610082507
2044,Burkina Faso,Starchy Roots,0.298292133463547
2077,Burundi,Starchy Roots,0.098684452669695
2093,Burundi,Starchy Roots,0.338003429025412
2086,Senegal Gambia & Cabo Verde,Starchy Roots,0.314394627278671
2026,Central African Republic,Starchy Roots,0.284880880713463
2063,Central African Republic,Starchy Roots,0.538474111901596
2058,Chad,Starchy Roots,0.820103760147467
2091,Chad,Starchy Roots,0.191560063511133
2067,Chile,Starchy Roots,0.670722573027015
2086,China,Starchy Roots,0.493582177069038
2040,Colombia,Starchy Roots,0.466980117745698
2071,Colombia,Starchy Roots,0.192825238760561
2072,Colombia,Starchy Roots,0.620840238137171
2093,Madagascar & Indian Ocean,Starchy Roots,0.0770637156441808
2092,Costa Rica,Starchy Roots,0.256778095941991
2041,Cote dIvoire,Starchy Roots,0.118615723149851
2072,Cote dIvoire,Starchy Roots,0.0983365382626653
2086,Cote dIvoire,Starchy Roots,0.399558868724853
2095,Cuba,Starchy Roots,0.590236714202911
2074,Czechia,Starchy Roots,0.450701326010749
2077,North Korea,Starchy Roots,0.337413200745359
2051,DR Congo,Starchy Roots,0.500287539586425
2073,Denmark,Starchy Roots,0.281205671876669
2095,Denmark,Starchy Roots,0.167524338234216
2062,Djibouti,Starchy Roots,0.262704360587522
2064,Djibouti,Starchy Roots,0.254590214202181
2065,Djibouti,Starchy Roots,0.257181446440518
2074,Djibouti,Starchy Roots,0.180915150716901
2096,Djibouti,Starchy Roots,0.81342386440374
2089,Dominican Republic,Starchy Roots,0.23409027880989
2042,Ecuador,Starchy Roots,0.1425306022726
2090,Ecuador,Starchy Roots,0.128890698123723
2086,Egypt,Starchy Roots,0.42925781798549
2045,El Salvador,Starchy Roots,0.420474064536393
2079,Eritrea,Starchy Roots,0.497313399678096
2022,Eswatini,Starchy Roots,0.179092248305678
2058,Eswatini,Starchy Roots,0.0628260438237339
2084,Eswatini,Starchy Roots,0.193521270435303
2089,Eswatini,Starchy Roots,0.708994954684749
2090,Finland,Starchy Roots,0.268940299842507
2035,France,Starchy Roots,0.391846399987116
2067,Gabon & Sao Tome,Starchy Roots,0.222799036102369
2078,Gabon & Sao Tome,Starchy Roots,0.61279606981203
2060,Georgia,Starchy Roots,0.507474824553356
2083,Georgia,Starchy Roots,0.370845586247742
2069,Germany,Starchy Roots,0.636466909777373
2040,Ghana,Starchy Roots,0.88207718487829
2042,Greece,Starchy Roots,0.196108981883153
2098,Greece,Starchy Roots,0.709128210227937
2066,Guinea,Starchy Roots,0.39832675781101
2089,Guinea-Bissau,Starchy Roots,0.170875122630969
2042,Guyana,Starchy Roots,0.694330436745659
2047,Guyana,Starchy Roots,0.459883374869824
2064,Guyana,Starchy Roots,0.220569666167721
2073,Guyana,Starchy Roots,0.310409306632355
2077,Haiti,Starchy Roots,0.431001455672085
2063,Honduras,Starchy Roots,0.149749535312876
2079,Honduras,Starchy Roots,0.87588347771205
2093,Honduras,Starchy Roots,0.371974350046366
2095,Honduras,Starchy Roots,0.421404629852623
2053,Hungary,Starchy Roots,0.326009153099731
2037,Iceland,Starchy Roots,0.363326974688098
2053,Iceland,Starchy Roots,0.220821046354249
2082,Iceland,Starchy Roots,0.101124313753098
2084,Iceland,Starchy Roots,0.343036767002195
2053,India,Starchy Roots,0.105784769346938
2044,Indonesia,Starchy Roots,0.428579032206908
2050,Indonesia,Starchy Roots,0.16522722649388
2072,Iraq,Starchy Roots,0.62017766890116
2088,Iraq,Starchy Roots,0.329305480327457
2023,Ireland,Starchy Roots,0.518383279806003
2097,Japan,Starchy Roots,0.0890276449732482
2100,Kazakhstan,Starchy Roots,0.118284387420863
2038,Kenya,Starchy Roots,0.393631902141497
2072,Kenya,Starchy Roots,0.377941648671404
2073,Kenya,Starchy Roots,0.163671830333769
2088,Kenya,Starchy Roots,0.0872182772029191
2067,Kuwait,Starchy Roots,0.568082051780075
2094,Kuwait,Starchy Roots,0.81119046472013
2042,Kyrgyzstan,Starchy Roots,0.10715750596486
2099,Kyrgyzstan,Starchy Roots,0.120435603847727
2061,Latvia,Starchy Roots,0.278144374797121
2045,Lebanon,Starchy Roots,0.273625057237223
2051,Lebanon,Starchy Roots,0.725963702639565
2069,Lebanon,Starchy Roots,0.082778462274
2085,Lebanon,Starchy Roots,0.704883268335834
2024,Lesotho,Starchy Roots,0.186881034746766
2027,Lesotho,Starchy Roots,0.406856391215697
2085,Liberia,Starchy Roots,0.363452830119059
2100,Liberia,Starchy Roots,0.443487917305902
2038,Lithuania,Starchy Roots,0.614643119173125
2064,Lithuania,Starchy Roots,0.176496402285993
2085,Lithuania,Starchy Roots,0.366546974470839
2070,Malawi,Starchy Roots,0.192350079072639
2081,Malawi,Starchy Roots,0.287167599750683
2091,Malawi,Starchy Roots,0.219196689454839
2094,Malawi,Starchy Roots,0.665286700474098
2089,Sri Lanka & Maldives,Starchy Roots,0.285208287928253
2031,Mauritania,Starchy Roots,0.246875918684527
2092,Mauritania,Starchy Roots,0.481225376250222
2098,Mauritania,Starchy Roots,0.490523128351197
2044,Mongolia,Starchy Roots,0.365535854287446
2074,Mongolia,Starchy Roots,0.102422328218818
2080,Montenegro,Starchy Roots,0.240834470652044
2074,Mozambique,Starchy Roots,0.383297730023041
2075,Mozambique,Starchy Roots,0.345099490508437
2077,Mozambique,Starchy Roots,0.243129580523819
2078,Mozambique,Starchy Roots,0.240036775162444
2046,Myanmar,Starchy Roots,0.493215960105881
2072,Myanmar,Starchy Roots,1.05135952034965
2093,Myanmar,Starchy Roots,0.238235463062301
2086,Namibia,Starchy Roots,0.263256325107068
2099,Namibia,Starchy Roots,0.388492295565084
2086,Nepal,Starchy Roots,0.266325546335429
2065,Netherlands,Starchy Roots,0.416844662185758
2075,Netherlands,Starchy Roots,0.280380478920415
2074,Nicaragua,Starchy Roots,0.0991169447265565
2044,Nigeria,Starchy Roots,0.0594235829729587
2093,Nigeria,Starchy Roots,0.198524092976004
2045,North Macedonia,Starchy Roots,0.0484003243036568
2088,North Macedonia,Starchy Roots,0.523665119428188
2081,Norway,Starchy Roots,0.93851667419076
2083,Norway,Starchy Roots,0.165257013123482
2093,Norway,Starchy Roots,0.160545047093183
2060,Oman,Starchy Roots,0.187512236787006
2088,Panama,Starchy Roots,0.0961658040061593
2091,Panama,Starchy Roots,0.632976780971512
2023,Papua New Guinea,Starchy Roots,0.0721191384736449
2057,Papua New Guinea,Starchy Roots,0.0769106805883348
2059,Papua New Guinea,Starchy Roots,0.134962999373674
2082,Papua New Guinea,Starchy Roots,0.129904603026807
2050,Paraguay,Starchy Roots,0.48188809081912
2067,Paraguay,Starchy Roots,0.169958086740226
2090,Paraguay,Starchy Roots,0.268777121976018
2074,Peru,Starchy Roots,0.356112592127174
2098,Peru,Starchy Roots,0.148412395035848
2100,Peru,Starchy Roots,0.585711156390607
2073,Philippines,Starchy Roots,0.294703512396663
2083,Portugal,Starchy Roots,0.100518723996356
2100,Portugal,Starchy Roots,0.290202064206824
2039,Romania,Starchy Roots,0.111757582258433
2068,Romania,Starchy Roots,0.425770754031837
2079,Romania,Starchy Roots,0.996206938680261
2087,Russia,Starchy Roots,0.175531889311969
2059,Rwanda,Starchy Roots,0.207183270826936
2061,Rwanda,Starchy Roots,0.363282090127468
2089,Rwanda,Starchy Roots,0.645072113629431
2068,Saudi Arabia,Starchy Roots,0.921449492303655
2040,Serbia,Starchy Roots,0.369698125356808
2041,Serbia,Starchy Roots,0.0906100423354655
2080,Serbia,Starchy Roots,0.255264411773533
2042,Sierra Leone,Starchy Roots,0.107225001798943
2047,Sierra Leone,Starchy Roots,0.22855877048336
2074,Sierra Leone,Starchy Roots,1.02870910546742
2066,Slovakia,Starchy Roots,0.291889098640531
2050,South Africa,Starchy Roots,0.312009740062058
2061,South Africa,Starchy Roots,0.874403222678229
2090,Spain,Starchy Roots,0.467882906273007
2099,Spain,Starchy Roots,0.263862710259855
2022,Sudan,Starchy Roots,0.699616026096046
2072,Sudan,Starchy Roots,0.655521104121581
2079,Sudan,Starchy Roots,0.607735057566315
2070,Suriname,Starchy Roots,0.142152628581971
2085,Suriname,Starchy Roots,0.466018510842696
2095,Suriname,Starchy Roots,0.287685132492334
2061,Switzerland,Starchy Roots,0.457510814657435
2066,Switzerland,Starchy Roots,0.215698281144723
2070,Switzerland,Starchy Roots,0.15404876251705
2047,Syria,Starchy Roots,0.512715325048193
2062,Syria,Starchy Roots,0.168495511598885
2060,Taiwan,Starchy Roots,0.724019303964451
2090,Taiwan,Starchy Roots,0.276067757047713
2086,Tajikistan,Starchy Roots,0.148198541905731
2096,Tajikistan,Starchy Roots,0.797855070233345
2069,Thailand,Starchy Roots,0.300931334374473
2072,Thailand,Starchy Roots,0.160898142689839
2085,Thailand,Starchy Roots,0.431795423664153
2094,Timor-Leste,Starchy Roots,0.473424051562324
2099,Togo,Starchy Roots,0.797016452532262
2073,Tunisia,Starchy Roots,0.862680893521756
2081,Tunisia,Starchy Roots,0.488729853881523
2059,Turkiye,Starchy Roots,0.227731152083725
2027,Uganda,Starchy Roots,0.613214789573103
2072,Uganda,Starchy Roots,0.612549992101267
2029,United Arab Emirates,Starchy Roots,0.543702964875847
2084,United Arab Emirates,Starchy Roots,0.296104755578563
2085,United Arab Emirates,Starchy Roots,0.302047567861155
2100,United Arab Emirates,Starchy Roots,0.430549041740596
2025,United Kingdom,Starchy Roots,0.388744027912617
2053,United Kingdom,Starchy Roots,0.535875596748665
2070,Tanzania,Starchy Roots,0.190461649792269
2088,Tanzania,Starchy Roots,0.855652153911069
2097,Tanzania,Starchy Roots,0.386101958481595
2033,United States of America,Starchy Roots,0.251233937302604
2083,United States of America,Starchy Roots,0.305988139007241
2084,Uruguay,Starchy Roots,0.56655380576849
2092,Uruguay,Starchy Roots,0.86102038952522
2034,Uzbekistan,Starchy Roots,0.0962247622385621
2066,Uzbekistan,Starchy Roots,0.168460756381974
2078,Uzbekistan,Starchy Roots,0.271180294491351
2038,Venezuela,Starchy Roots,0.279378075562418
2075,Venezuela,Starchy Roots,0.354534067772329
2091,Viet Nam,Starchy Roots,0.14678122010082
2037,Yemen,Starchy Roots,0.333944816850126
2059,Yemen,Starchy Roots,0.550553613174707
2065,Yemen,Starchy Roots,0.811165338335559
2086,Yemen,Starchy Roots,0.227758840192109
2061,Zambia,Starchy Roots,0.243463892098516
2083,Zambia,Starchy Roots,0.647902324423194
2053,Zimbabwe,Starchy Roots,0.327357898037881
2088,Zimbabwe,Starchy Roots,0.117877425160259
2047,Afghanistan,Sugar,0.834150050450116
2071,Afghanistan,Sugar,0.0778485125210136
2082,Afghanistan,Sugar,0.586764128459617
2078,Albania,Sugar,0.169072743961588
2073,Algeria,Sugar,1.04770144754089
2091,Angola,Sugar,0.131867267051712
2028,Armenia,Sugar,0.220992117552087
2095,Australia,Sugar,0.16594127076678
2027,Austria,Sugar,0.824446229971945
2040,Austria,Sugar,0.397064930386841
2077,Azerbaijan,Sugar,0.183701331829652
2051,Caribbean Other,Sugar,1.00008496696129
2077,Bahrain & Qatar,Sugar,0.180640679141507
2093,Bahrain & Qatar,Sugar,0.0996166146825999
2059,Bangladesh,Sugar,0.679442048277706
2070,Belgium & Luxembourg,Sugar,0.554334871890023
2050,Bhutan,Sugar,0.592624243954197
2085,Bolivia,Sugar,0.388504710840061
2067,Bosnia and Herzegovina,Sugar,0.262659093374386
2051,Malaysia Singapore & Brunei,Sugar,1.02839677914046
2023,Bulgaria,Sugar,0.270933193843812
2024,Bulgaria,Sugar,0.00580171599984169
2042,Bulgaria,Sugar,0.731239273920655
2084,Bulgaria,Sugar,0.145702262967825
2083,Cambodia,Sugar,0.427412069495767
2023,Cameroon,Sugar,0.244225403470919
2078,Canada,Sugar,0.545336267389357
2094,Canada,Sugar,0.94632219565101
2067,Central African Republic,Sugar,0.0626605400908738
2081,Central African Republic,Sugar,0.439748918404803
2061,Chile,Sugar,0.180878667701036
2087,Chile,Sugar,0.386510785575956
2096,Chile,Sugar,0.555539527488872
2070,China,Sugar,0.906949245510623
2091,Colombia,Sugar,0.271762758726254
2092,Colombia,Sugar,0.12520238594152
2058,Madagascar & Indian Ocean,Sugar,0.178323522107676
2083,Madagascar & Indian Ocean,Sugar,0.139566055685282
2037,Cuba,Sugar,0.603962036650628
2085,Cuba,Sugar,0.507115905825049
2033,Czechia,Sugar,0.71389811610803
2094,North Korea,Sugar,0.416150389937684
2040,DR Congo,Sugar,0.455247514415532
2063,Denmark,Sugar,0.444477670397609
2087,Denmark,Sugar,0.175115942349657
2090,Denmark,Sugar,0.461860881838948
2091,Denmark,Sugar,0.404217748623341
2094,Denmark,Sugar,0.297649488365278
2096,Denmark,Sugar,0.374696094635874
2044,Djibouti,Sugar,0.140647155437618
2068,Djibouti,Sugar,0.522198708485812
2087,Djibouti,Sugar,0.374114398984239
2095,Djibouti,Sugar,0.907257498288527
2049,Dominican Republic,Sugar,0.54269095633179
2091,Ecuador,Sugar,0.31899661552161
2095,Ecuador,Sugar,0.504955526255071
2031,Egypt,Sugar,0.0525852086301893
2056,Egypt,Sugar,0.211528438776731
2071,Equatorial Guinea,Sugar,0.355893084760755
2077,Eritrea,Sugar,0.213854751186445
2049,Estonia,Sugar,0.976897784154862
2060,Estonia,Sugar,0.895057434542105
2069,Estonia,Sugar,0.468829056918621
2082,Estonia,Sugar,0.954436483141035
2070,Pacific Other,Sugar,0.75837999326177
2025,France,Sugar,0.541614674078301
2048,France,Sugar,0.784377563083544
2065,France,Sugar,0.334632683685049
2080,France,Sugar,0.969443611800671
2061,Gabon & Sao Tome,Sugar,0.0737862906698138
2081,Gabon & Sao Tome,Sugar,0.282168139936402
2084,Gabon & Sao Tome,Sugar,0.457067962130532
2093,Gabon & Sao Tome,Sugar,0.546737950854003
2052,Georgia,Sugar,0.592570237452164
2066,Germany,Sugar,0.117171592526138
2099,Guinea-Bissau,Sugar,0.145068155461922
2029,Honduras,Sugar,0.999241084204987
2070,Honduras,Sugar,0.323377513792366
2100,Honduras,Sugar,0.518541765678674
2088,Hungary,Sugar,0.173094882443547
2091,India,Sugar,0.4429336827714
2099,India,Sugar,0.920800978550687
2061,Indonesia,Sugar,0.416256844699383
2067,Iran,Sugar,0.35082016248256
2080,Iran,Sugar,0.580492139421403
2083,Iraq,Sugar,0.906667137844488
2073,Ireland,Sugar,0.659748447723687
2030,Israel,Sugar,0.545956965396181
2039,Israel,Sugar,0.639691460058093
2090,Israel,Sugar,0.0777401866391301
2055,Italy & Malta,Sugar,0.159088561544195
2095,Italy & Malta,Sugar,0.682563081383705
2044,Jordan,Sugar,1.01757150010206
2066,Jordan,Sugar,0.631566484719515
2084,Jordan,Sugar,0.325020911451429
2090,Kazakhstan,Sugar,0.360021653631702
2047,Kuwait,Sugar,0.240461637927219
2054,Kuwait,Sugar,0.0886142319720239
2081,Kyrgyzstan,Sugar,0.200130033446476
2098,Kyrgyzstan,Sugar,0.454805657360703
2021,Lebanon,Sugar,0.330980293946341
2049,Lebanon,Sugar,0.529961300985888
2092,Libya,Sugar,0.666450379882008
2037,Lithuania,Sugar,0.287034560097381
2089,Mali,Sugar,0.227250501140952
2044,Mauritania,Sugar,0.10064118264243
2069,Mongolia,Sugar,0.160502694612369
2095,Mongolia,Sugar,0.289632469136268
2063,Montenegro,Sugar,0.0577751259226352
2091,Montenegro,Sugar,0.33005248811096
2086,Morocco,Sugar,0.474497435102239
2063,Mozambique,Sugar,0.659428644543514
2067,Mozambique,Sugar,0.911807960467413
2081,Mozambique,Sugar,0.965150301577523
2093,Mozambique,Sugar,0.501900998968631
2044,Myanmar,Sugar,0.0972554436605424
2049,Namibia,Sugar,0.175886540133506
2060,Namibia,Sugar,0.182677113218233
2099,Nepal,Sugar,0.161855773255229
2075,Netherlands,Sugar,0.368917200202122
2057,New Zealand,Sugar,0.964951216764748
2073,Nicaragua,Sugar,1.04559314492159
2078,Nicaragua,Sugar,0.622947257095948
2049,North Macedonia,Sugar,0.552260956652463
2088,North Macedonia,Sugar,0.418946058768779
2081,Norway,Sugar,1.04824344813824
2090,Oman,Sugar,0.234423180250451
2097,Oman,Sugar,0.297294158441946
2065,Pakistan,Sugar,0.93721018852666
2078,Paraguay,Sugar,0.298653643010184
2025,Peru,Sugar,0.405522966245189
2061,Poland,Sugar,0.357345357611775
2077,Poland,Sugar,0.178092816481367
2061,South Korea,Sugar,0.48615653350018
2076,South Korea,Sugar,0.96250242668204
2053,Romania,Sugar,0.947404665118083
2081,Romania,Sugar,0.597022019140422
2096,Romania,Sugar,0.355006296839565
2054,Russia,Sugar,0.40104731076397
2088,Rwanda,Sugar,0.662180593097582
2086,Saudi Arabia,Sugar,0.351149871805683
2034,Sierra Leone,Sugar,0.337912093866617
2072,Slovakia,Sugar,0.160462361117825
2088,Slovenia,Sugar,0.253495287382975
2036,South Sudan,Sugar,0.977907319068909
2092,South Sudan,Sugar,0.602073814859614
2080,Spain,Sugar,0.630272156279534
2080,Sudan,Sugar,0.921255180053413
2059,Suriname,Sugar,0.384248066712171
2086,Sweden,Sugar,0.970993034122512
2090,Sweden,Sugar,0.424929514620453
2028,Switzerland,Sugar,0.0933867685869336
2068,Switzerland,Sugar,0.0866051336657256
2095,Switzerland,Sugar,1.00091338558123
2042,Syria,Sugar,0.0851936396304518
2085,Syria,Sugar,0.406219443213195
2091,Syria,Sugar,0.386467679450288
2077,Thailand,Sugar,0.44343661326915
2072,Timor-Leste,Sugar,0.429788820315152
2031,Togo,Sugar,0.606930997483432
2025,Tunisia,Sugar,0.377168858190998
2071,Tunisia,Sugar,1.02627917004749
2069,Turkmenistan,Sugar,0.760316933104768
2046,Uganda,Sugar,0.440899039553478
2028,United Arab Emirates,Sugar,0.106998116886243
2050,United Arab Emirates,Sugar,0.372655537864193
2053,United Arab Emirates,Sugar,0.047360174395144
2091,United Arab Emirates,Sugar,0.590041052969173
2079,United Kingdom,Sugar,0.218719233358279
2087,United Kingdom,Sugar,0.35963183012791
2092,United Kingdom,Sugar,0.137881627306342
2087,United States of America,Sugar,0.0911564579699188
2080,Uruguay,Sugar,0.101055528502911
2095,Uruguay,Sugar,0.905856223963201
2025,Uzbekistan,Sugar,0.372832678258419
2073,Uzbekistan,Sugar,0.53478116103448
2085,Uzbekistan,Sugar,0.369803015189245
2088,Uzbekistan,Sugar,0.190996578708291
2085,Venezuela,Sugar,0.661933974642307
2056,Viet Nam,Sugar,0.574263188224286
2076,Yemen,Sugar,0.751605290109292
2077,Yemen,Sugar,1.02898872565478
2091,Zambia,Sugar,0.183416638709605
2097,Zimbabwe,Sugar,0.374022574024275
2085,Afghanistan,WheatBarleyOats,0.52208909871988
2080,Algeria,WheatBarleyOats,0.751441181590781
2029,Argentina,WheatBarleyOats,0.568319505844265
2055,Argentina,WheatBarleyOats,0.776791576808318
2048,Armenia,WheatBarleyOats,0.2145103256125
2081,Australia,WheatBarleyOats,0.650298310955986
2044,Austria,WheatBarleyOats,0.262461357628927
2075,Azerbaijan,WheatBarleyOats,0.386538270208985
2094,Azerbaijan,WheatBarleyOats,0.201851758733392
2050,Bahrain & Qatar,WheatBarleyOats,0.636822284013033
2095,Bahrain & Qatar,WheatBarleyOats,0.731393524818122
2062,Bangladesh,WheatBarleyOats,0.419179951641709
2065,Belarus,WheatBarleyOats,0.826997398911044
2045,Belgium & Luxembourg,WheatBarleyOats,0.4206452652812
2074,Belgium & Luxembourg,WheatBarleyOats,0.287616472709924
2060,Guatemala & Belize,WheatBarleyOats,0.791293218219653
2083,Guatemala & Belize,WheatBarleyOats,0.843496580515057
2092,Benin,WheatBarleyOats,0.608365256199613
2083,Bosnia and Herzegovina,WheatBarleyOats,0.589088914077729
2092,Bulgaria,WheatBarleyOats,0.404527928773314
2068,Burkina Faso,WheatBarleyOats,0.116930008111522
2020,Burundi,WheatBarleyOats,0.695959058171138
2065,Burundi,WheatBarleyOats,0.55478202495724
2074,Burundi,WheatBarleyOats,0.948047647038475
2081,Senegal Gambia & Cabo Verde,WheatBarleyOats,0.984425106737763
2052,Cambodia,WheatBarleyOats,0.560581945544109
2030,Colombia,WheatBarleyOats,0.255969162657857
2073,Madagascar & Indian Ocean,WheatBarleyOats,0.587639010548592
2082,Madagascar & Indian Ocean,WheatBarleyOats,0.450833969656378
2074,Costa Rica,WheatBarleyOats,0.485579863814637
2078,Costa Rica,WheatBarleyOats,0.232292717825621
2059,Cote dIvoire,WheatBarleyOats,0.542948703952134
2096,Croatia,WheatBarleyOats,0.56800332586281
2099,Cyprus,WheatBarleyOats,0.549184501264244
2089,Czechia,WheatBarleyOats,0.620516338013113
2041,North Korea,WheatBarleyOats,0.471373146055266
2077,North Korea,WheatBarleyOats,0.201247477121651
2077,DR Congo,WheatBarleyOats,0.64739328735508
2092,DR Congo,WheatBarleyOats,0.0812415123917162
2062,Denmark,WheatBarleyOats,0.170017669592053
2085,Djibouti,WheatBarleyOats,0.0878748092800379
2088,Djibouti,WheatBarleyOats,0.387188946595416
2073,El Salvador,WheatBarleyOats,0.388558781370521
2030,Equatorial Guinea,WheatBarleyOats,0.710394698707387
2058,Equatorial Guinea,WheatBarleyOats,0.223009104272351
2061,Equatorial Guinea,WheatBarleyOats,0.694681079434231
2021,Ethiopia,WheatBarleyOats,0.566958911651746
2096,Ethiopia,WheatBarleyOats,0.730809712316841
2098,Pacific Other,WheatBarleyOats,0.591345470538363
2085,Finland,WheatBarleyOats,0.0855727246496826
2029,France,WheatBarleyOats,0.037930205296725
2051,Gabon & Sao Tome,WheatBarleyOats,0.586800227249041
2069,Gabon & Sao Tome,WheatBarleyOats,0.857230974892154
2082,Gabon & Sao Tome,WheatBarleyOats,0.819120910018682
2083,Germany,WheatBarleyOats,0.660247258795425
2098,Germany,WheatBarleyOats,0.792548716394231
2069,Ghana,WheatBarleyOats,0.472641734564677
2093,Ghana,WheatBarleyOats,0.182166795479134
2047,Greece,WheatBarleyOats,0.979082258939743
2057,Greece,WheatBarleyOats,0.0873736856598407
2066,Greece,WheatBarleyOats,0.649230900807306
2050,Guinea-Bissau,WheatBarleyOats,0.424759133858606
2041,Honduras,WheatBarleyOats,0.534215668197721
2092,Iceland,WheatBarleyOats,0.127503826003522
2085,India,WheatBarleyOats,0.653919599065557
2089,Indonesia,WheatBarleyOats,0.570709461020306
2086,Iran,WheatBarleyOats,0.459427108522505
2061,Israel,WheatBarleyOats,0.236947764763609
2086,Israel,WheatBarleyOats,0.533621805114672
2092,Israel,WheatBarleyOats,0.328860175050795
2099,Israel,WheatBarleyOats,0.191518514743075
2073,Italy & Malta,WheatBarleyOats,0.579293107045814
2074,Jordan,WheatBarleyOats,0.858587213531137
2079,Jordan,WheatBarleyOats,0.816102788290009
2081,Jordan,WheatBarleyOats,0.635186690976843
2081,Kazakhstan,WheatBarleyOats,0.206713856291026
2093,Kazakhstan,WheatBarleyOats,0.860729665122926
2088,Kenya,WheatBarleyOats,0.473965587792918
2042,Kuwait,WheatBarleyOats,0.633616224545986
2058,Kuwait,WheatBarleyOats,0.375501233329996
2064,Kuwait,WheatBarleyOats,0.820761485090479
2092,Kuwait,WheatBarleyOats,0.145864632120356
2096,Kyrgyzstan,WheatBarleyOats,0.724701153999195
2075,Lebanon,WheatBarleyOats,0.135134478518739
2083,Lesotho,WheatBarleyOats,0.535081748105586
2029,Liberia,WheatBarleyOats,0.446708868416026
2096,Malawi,WheatBarleyOats,0.0986850415822118
2095,Sri Lanka & Maldives,WheatBarleyOats,0.14963603192009
2100,Sri Lanka & Maldives,WheatBarleyOats,0.420088421180844
2039,Mali,WheatBarleyOats,0.74879020575434
2056,Mali,WheatBarleyOats,0.111946907248348
2067,Mali,WheatBarleyOats,0.524815146913752
2085,Mali,WheatBarleyOats,0.805682919640094
2096,Mali,WheatBarleyOats,0.79326328006573
2088,Mauritania,WheatBarleyOats,0.640554120019078
2075,Mexico,WheatBarleyOats,0.773718663165346
2036,Mozambique,WheatBarleyOats,0.632399330129847
2085,Mozambique,WheatBarleyOats,0.190653486084193
2073,Namibia,WheatBarleyOats,0.069578031860292
2068,Niger,WheatBarleyOats,0.516210044072941
2037,Norway,WheatBarleyOats,0.176037162784487
2098,Norway,WheatBarleyOats,0.783147651376203
2042,Oman,WheatBarleyOats,0.440632803980261
2086,Oman,WheatBarleyOats,0.638569458248094
2034,Papua New Guinea,WheatBarleyOats,0.35762452121824
2089,Papua New Guinea,WheatBarleyOats,0.080070060538128
2074,Paraguay,WheatBarleyOats,0.575304942782968
2093,Paraguay,WheatBarleyOats,0.194463835842907
2048,Peru,WheatBarleyOats,0.895807132953778
2070,Portugal,WheatBarleyOats,0.417134848004207
2044,Romania,WheatBarleyOats,0.220676642162725
2039,Russia,WheatBarleyOats,0.820751734189689
2058,Russia,WheatBarleyOats,0.487347236359492
2073,Saudi Arabia,WheatBarleyOats,0.259859375087544
2032,Sierra Leone,WheatBarleyOats,0.511454555820674
2030,Sudan,WheatBarleyOats,0.39231388932094
2057,Sudan,WheatBarleyOats,0.326787860095501
2074,Sudan,WheatBarleyOats,0.460435825930908
2062,Suriname,WheatBarleyOats,0.623585211727768
2081,Suriname,WheatBarleyOats,0.637727687507868
2044,Sweden,WheatBarleyOats,0.143940557697788
2067,Sweden,WheatBarleyOats,0.103301941333339
2076,Sweden,WheatBarleyOats,0.440220660371706
2039,Syria,WheatBarleyOats,0.594522506576032
2099,Syria,WheatBarleyOats,0.467657018592581
2067,Tunisia,WheatBarleyOats,0.16677950905636
2082,Tunisia,WheatBarleyOats,0.672277622995898
2073,Turkiye,WheatBarleyOats,0.889676701920107
2054,Turkmenistan,WheatBarleyOats,0.586439654855058
2095,Turkmenistan,WheatBarleyOats,0.138171118311584
2068,United Kingdom,WheatBarleyOats,0.686393901137635
2041,Tanzania,WheatBarleyOats,0.0708467440959066
2074,Tanzania,WheatBarleyOats,0.548929714988917
2082,Uzbekistan,WheatBarleyOats,0.0772640023380518
2072,Viet Nam,WheatBarleyOats,0.125796193312854
2039,Yemen,WheatBarleyOats,0.202669495409355
2069,Yemen,WheatBarleyOats,0.451257281769067
2086,Yemen,WheatBarleyOats,0.439283787133172
2097,Zambia,WheatBarleyOats,0.160577408457175
